r_pos;Pre:Det:;135
r_lemma;du;108
r_pos;Pre:;105
r_pos;Det:;88
r_pos;Det:Mas+SG;55
r_pos;Gender:Mas;45
r_pos;Number:Sing;45
r_pos;Partitif:;38
r_pos;Adj:;25
r_pos;Number:Plur;-28
r_pos;Ver:Inf;-52
r_lemma;du;108
