nt;1;'n_term'
nt;2;'n_form'
nt;4;'n_pos'
nt;18;'n_data'
nt;36;'n_data_pot'
nt;444;'n_link'
nt;666;'n_AKI'
nt;777;'n_wikipedia'
e;2448789;'commer';1;6
e;239128;'_COM';36;50
e;31841;'comparer';1;2044
e;95480;'comparaison';1;2279
e;2585997;'_INFO-CNRTL-NO';36;50
e;14653090;'faire une comparaison';1;0
e;14653089;'faire comparaison';1;0
e;32735;'poumons';1;395
e;254877;'_POL-NEUTRE_PC';36;50
e;146882;'Ver:Inf';4;50
e;30234;'dinosaures';1;56
e;81716;'collapsus';1;56
e;212235;'Ver:';4;50
e;3576104;'Morpho:nospace';18;50
e;2578964;'Langage:vieilli';18;0
e;273221;'_INFO-WIKI-NO';36;50
e;11066;'cataplexie';1;52
e;101784;'citoyen';1;2194
e;59282;'soupape';1;70
e;397744;'Voie';1;1770
e;28073;'prédécesseurs';1;50
e;325400;'dobutamine';1;50
e;17929;'puma';1;264
e;4455;'chien';1;5745
e;163171;'rats';1;144
e;60240;'singes';1;66
e;137040;'taux d'escompte';1;50
e;221331;'ingénieurs';1;1889
e;219798;'scientifiques';1;3327
e;2228676;'monétaristes';2;0
e;295649;'ouvrage de référence';777;50
e;2126059;'angiographies';2;0
e;6324445;'cellules cardiaques';1;0
e;438901;'cellules dendritiques';777;50
e;110233;'contusion';1;96
e;71567;'trapèze';1;226
e;2106900;'tuners';2;0
e;276525;'tiers secteur';777;50
e;14632477;'années précédentes';1;0
e;156745;'synonymes';1;68
e;120603;'légume';1;2754
e;94787;'banalité';1;166
e;230118;'FPS';1;34
e;87736;'neurotransmetteurs';1;54
e;74897;'première';1;3954
e;71392;'héros';1;3397
e;1990564;'argots';2;0
e;407946;'haches';1;50
e;46249;'revenu';1;2497
e;89926;'chef';1;3863
e;76421;'folle';1;240
e;419963;'Enfoirés';1;54
e;102812;'père';1;4396
e;162967;'ordinateur de poche';1;52
e;29457;'amateur';1;2291
e;134536;'économie';1;2858
e;74327;'écrits';1;3178
e;146381;'même';1;3927
e;156479;'valeurs';1;3484
e;6805651;'en:bruise';1;0
e;213171;'activité humaine';1;2
e;8619827;'en:contusion';1;0
e;16855473;'en:contuse wound';1;0
e;15436990;'en:lungs';1;0
e;7180089;'en:reference work';1;0
e;15070217;'en:reference book';1;0
e;15212403;'en:handheld computer';1;0
e;15397577;'en:handheld';1;0
e;17437;'se meurtrir';1;50
e;15219697;'plaie contuse';1;0
e;3575927;'Morpho:min';18;50
e;254876;'_POL-POS_PC';36;50
e;3194903;'commé';1;0
e;251716;'_INFO-MONOSEMIC';36;50
e;5046151;'Ver:Groupe1';18;50
e;241794;'_POL-NEUTRE';36;50
e;223173;'_POL-POS';36;50
e;3938460;'dbnary:fra:__ws_1_commer__verb__1';444;0
e;317329;'_POLIT_7NOPOL';36;50
e;317326;'_POLIT_5UMP';36;50
e;317325;'_POLIT_4MD';36;50
e;317323;'_POLIT_2PG';36;50
e;317324;'_POLIT_3PS';36;50
e;317322;'_POLIT_1ECO';36;50
e;317327;'_POLIT_6FN';36;50
e;14885065;'bouton droit';1;4
e;14885066;'combinaison de touches';1;4
e;3936685;'menu contextuel';1;0
e;56095;'comment';1;3076
e;2152154;'commèrent';2;0
e;2151572;'commas';2;0
e;88762;'comma';1;52
e;66765;'comme';1;3968
e;14286759;'comma&gt;2946892';1;0;'comma&gt;Ver:Conjug'
e;14283535;'commas&gt;2946892';1;0;'commas&gt;Ver:Conjug'
e;14283534;'comment&gt;2946892';1;0;'comment&gt;Ver:Conjug'
e;53852;'tiroir-caisse';1;70
e;11197;'franchisé';1;50
e;16042242;'comment va la santé';1;0
e;155581;'à main';1;90
e;6861524;'en:collapse';1;0
e;8882192;'en:dendritic cells';1;0
e;80266;'ecchymose';1;234
e;15411161;'en:cataplexia';1;0
e;6825836;'en:cataplexy';1;0
e;15411162;'en:cataplexis';1;0
e;336366;'arme par destination';1;50
e;212435;'Java occidental';666;50
e;271354;'indiens d'Amérique';666;50
e;263835;'ELO';666;50
e;276183;'L'Homme qui sauva le monde';666;50
e;212955;'airbag';666;12
e;5557018;'équation du champ d'Einstein';777;0
e;5557828;'dérive des navires amarrés';777;0
e;224283;'huile de cade';666;50
e;231470;'alien';666;60
e;223602;'asseuler';666;50
e;212475;'cocotte en papier';666;8
e;17041963;'Husky de Sibérie';777;0
e;249258;'Patpong';666;2
e;223616;'châssis à tabatière';666;50
e;249901;'industrie lourde';666;50
e;223745;'nucléosynthèse primordiale';666;50
e;229921;'Osamu Tezuka';666;50
e;242395;'machete';666;50
e;247279;'petite frappe';666;20
e;213207;'Nemo';666;32
e;236261;'L'École des fans';666;50
e;213185;'Prohibition';666;50
e;228854;'Yoda';666;12
e;223901;'photo de classe';666;58
e;259785;'bataille d'Actium';666;50
e;238977;'thioprotéine';666;50
e;223772;'Pernod';666;50
e;17029497;'déchaumeuse à disques';777;0
e;5553631;'théorème de Haavelmo';777;0
e;16976712;'types de motocyclettes';777;0
e;2926194;'Milindapañha';777;0
e;16746424;'politique de confidentialité';777;0
e;2492351;'commerois';1;0
e;2382263;'estancot';1;0
e;1845146;'stabilisation synaptique sélective';1;0
e;16437556;'juridictions judiciaires';777;0
e;16359627;'Derrière nos écrans de fumée';777;0
e;1985967;'ajustements';2;0
rt;0;'r_associated';'idée associée';Il est demandé d'énumérer les termes les plus étroitement associés au mot cible... Ce mot vous fait penser à quoi ?
rt;4;'r_pos';'POS';Partie du discours (Nom, Verbe, Adjectif, Adverbe, etc.)
rt;5;'r_syn';'synonyme';Il est demandé d'énumérer les synonymes ou quasi-synonymes de ce terme.
rt;13;'r_agent';'action&gt;agent';L'agent (qu'on appelle aussi le sujet) est l'entité qui effectue l'action, OU la subit pour des formes passives ou des verbes d'état. Par exemple, dans - Le chat mange la souris -, l'agent est le chat. Des agents typiques de 'courir' peuvent être 'sportif', 'enfant',... (manger r_agent chat)
rt;14;'r_patient';'action&gt;patient';Le patient (qu'on appelle aussi l'objet) est l'entité qui subit l'action. Par exemple dans - Le chat mange la souris -, le patient est la souris. Des patients typiques de manger peuvent être 'viande', 'légume', 'pain', ... (manger r_patient pain)
rt;18;'r_data';'r_data';Informations diverses (plutôt d'ordre lexicales)
rt;19;'r_lemma';'r_lemma';Le lemme (par exemple 'mangent a pour lemme  'manger' ; 'avions' a pour lemme 'avion' ou 'avoir').
rt;24;'r_agent-1';'agent typique-1';Que peut faire ce SUJET ? (par exemple chat =&gt; miauler, griffer, etc.) (chat r_agent-1 manger)
rt;26;'r_patient-1';'patient-1';(inverse de r_patient) Que peut-on faire à cet OBJET. Pour 'pomme', on pourrait avoir 'manger', 'croquer', couper', 'éplucher',  etc. (pomme r_patient-1 manger)
rt;36;'r_infopot';'information potentielle';Information sémantique potentielle
rt;77;'r_verb_ppas';'r_verb_ppas';Le participe passé (au masculin singulier) du verbe infinitif. Par exemple, pour manger =&gt; mangé
rt;444;'r_link';'r_link';Lien vers une ressource externe (WordNet, RadLex, UMLS, Wikipedia, etc...)
r;52770913;2448789;239128;0;1000000
r;125497996;2448789;31841;0;365
r;125498006;2448789;95480;0;185
r;125497998;2448789;31841;5;145
r;55424383;2448789;2585997;36;105
r;372426409;2448789;14653090;0;95
r;372426408;2448789;14653089;0;95
r;373101289;2448789;32735;14;81
r;76790531;2448789;2448789;19;81
r;218228250;2448789;254877;36;71
r;52314227;2448789;146882;4;69
r;373324412;2448789;30234;14;51
r;373114101;2448789;81716;14;51
r;53670194;2448789;212235;4;45
r;90281481;2448789;3576104;18;42
r;52609940;2448789;2578964;18;40
r;218228252;2448789;273221;36;36
r;373088273;2448789;11066;14;36
r;372426406;2448789;14653089;5;34
r;431149145;2448789;101784;14;33
r;373060795;2448789;59282;14;31
r;373049704;2448789;397744;14;31
r;373047125;2448789;28073;14;31
r;373061027;2448789;325400;14;31
r;373065837;2448789;17929;14;31
r;373065839;2448789;4455;14;31
r;373065845;2448789;163171;14;31
r;373065847;2448789;60240;14;31
r;373066074;2448789;137040;14;31
r;373066125;2448789;221331;14;31
r;373066126;2448789;219798;14;31
r;373066143;2448789;2228676;14;31
r;373069635;2448789;295649;14;31
r;373099458;2448789;2126059;14;31
r;373099909;2448789;6324445;14;31
r;373113066;2448789;438901;14;31
r;373114670;2448789;110233;14;31
r;373114731;2448789;71567;14;31
r;373118117;2448789;2106900;14;31
r;373169019;2448789;276525;14;31
r;373169099;2448789;14632477;14;31
r;373046909;2448789;156745;14;31
r;373046710;2448789;120603;14;31
r;373044221;2448789;94787;14;31
r;373044217;2448789;230118;14;31
r;373043196;2448789;87736;14;31
r;373042835;2448789;74897;14;31
r;372710119;2448789;71392;14;31
r;373046950;2448789;1990564;14;31
r;373223162;2448789;407946;14;30
r;373174192;2448789;46249;14;30
r;373223132;2448789;89926;14;30
r;373215118;2448789;76421;14;30
r;373177399;2448789;419963;14;30
r;373172453;2448789;102812;14;30
r;373164603;2448789;162967;14;30
r;373159773;2448789;29457;14;30
r;489172052;2448789;134536;13;30
r;485392259;2448789;74327;13;30
r;471880330;2448789;146381;13;30
r;471722385;2448789;156479;13;30
r;397137554;2448789;6805651;14;30
r;489299171;2448789;134536;14;30
r;494991326;2448789;213171;14;30
r;397137553;2448789;8619827;14;30
r;447113676;2448789;16855473;14;30
r;413993131;2448789;15436990;14;30
r;411743564;2448789;7180089;14;30
r;411743563;2448789;15070217;14;30
r;411585973;2448789;15212403;14;30
r;411585972;2448789;15397577;14;30
r;404801502;2448789;17437;14;30
r;400230442;2448789;15219697;14;30
r;89326694;2448789;3575927;18;29
r;218228249;2448789;254876;36;29
r;372426407;2448789;14653090;5;28
r;77351838;2448789;3194903;77;27
r;96031188;2448789;251716;36;27
r;428519674;2448789;5046151;18;25
r;218228248;2448789;241794;36;5
r;218228247;2448789;223173;36;2
r;94321179;2448789;3938460;444;1
r;505798137;2448789;317329;36;1
r;505798138;2448789;317326;36;1
r;505798139;2448789;317325;36;1
r;505798141;2448789;317323;36;1
r;505798140;2448789;317324;36;1
r;505798142;2448789;317322;36;0
r;505798143;2448789;317327;36;0
r;76790531;2448789;2448789;19;81
r;389692271;14885065;2448789;0;51
r;389692084;14885066;2448789;0;51
r;385968116;3936685;2448789;0;51
r;125620412;31841;2448789;5;41
r;372426403;14653090;2448789;5;33
r;130801818;56095;2448789;0;33
r;87857828;2152154;2448789;0;32
r;76790551;2151572;2448789;19;32
r;431485657;101784;2448789;26;31
r;87867128;3194903;2448789;0;31
r;495284909;213171;2448789;26;30
r;489031121;134536;2448789;26;30
r;489031120;134536;2448789;24;30
r;485214058;74327;2448789;24;30
r;449816946;156479;2448789;24;30
r;444945512;16855473;2448789;26;30
r;423818148;146381;2448789;24;30
r;409209739;15397577;2448789;26;30
r;409209713;15212403;2448789;26;30
r;406689573;7180089;2448789;26;30
r;406689517;15070217;2448789;26;30
r;405315472;15436990;2448789;26;30
r;397748740;15219697;2448789;26;30
r;397065512;17437;2448789;26;30
r;395918111;8619827;2448789;26;30
r;395917958;6805651;2448789;26;30
r;373338574;30234;2448789;26;30
r;373241881;89926;2448789;26;30
r;373241879;407946;2448789;26;30
r;373220933;76421;2448789;26;30
r;373203389;46249;2448789;26;30
r;373203385;419963;2448789;26;30
r;373172897;162967;2448789;26;30
r;373172869;276525;2448789;26;30
r;373172864;14632477;2448789;26;30
r;373172851;102812;2448789;26;30
r;373162225;29457;2448789;26;30
r;373118973;11066;2448789;26;30
r;373118957;2126059;2448789;26;30
r;373118955;6324445;2448789;26;30
r;373118943;32735;2448789;26;30
r;373118940;438901;2448789;26;30
r;373118931;81716;2448789;26;30
r;373118910;110233;2448789;26;30
r;373118908;71567;2448789;26;30
r;373118897;2106900;2448789;26;30
r;373070475;71392;2448789;26;30
r;373069878;74897;2448789;26;30
r;373069870;87736;2448789;26;30
r;373069858;230118;2448789;26;30
r;373069855;94787;2448789;26;30
r;373069825;120603;2448789;26;30
r;373069816;156745;2448789;26;30
r;373069813;1990564;2448789;26;30
r;373069806;28073;2448789;26;30
r;373069781;397744;2448789;26;30
r;373069754;59282;2448789;26;30
r;373069740;325400;2448789;26;30
r;373069699;4455;2448789;26;30
r;373069698;17929;2448789;26;30
r;373069697;163171;2448789;26;30
r;373069695;60240;2448789;26;30
r;373069680;137040;2448789;26;30
r;373069673;219798;2448789;26;30
r;373069672;221331;2448789;26;30
r;373069670;2228676;2448789;26;30
r;373069665;295649;2448789;26;30
r;372426400;14653089;2448789;5;30
r;87857827;88762;2448789;0;30
r;77329453;3194903;2448789;19;30
r;76790560;2152154;2448789;19;30
r;87857826;2151572;2448789;0;28
r;76790557;88762;2448789;19;27
r;76790545;56095;2448789;19;27
r;76790538;66765;2448789;19;27
r;87857824;66765;2448789;0;26
r;363998831;14286759;2448789;0;25
r;363998830;14286759;2448789;19;25
r;363974479;14283535;2448789;0;25
r;363974478;14283535;2448789;19;25
r;363974470;14283534;2448789;0;25
r;363974469;14283534;2448789;19;25
r;125716429;31841;2448789;0;24
r;418356927;53852;2448789;0;12
r;418110135;11197;2448789;0;12
r;418021625;16042242;2448789;0;10
r;409309834;155581;2448789;26;10
r;400646401;6861524;2448789;26;10
r;400387754;8882192;2448789;26;10
r;398612710;80266;2448789;26;10
r;395106882;15411161;2448789;26;10
r;395106869;6825836;2448789;26;10
r;395106862;15411162;2448789;26;10
r;372703496;14653090;2448789;0;10
r;372703493;14653089;2448789;0;10
r;453894938;336366;2448789;0;2
r;453554330;212435;2448789;0;2
r;453257828;271354;2448789;0;2
r;453254074;263835;2448789;0;2
r;453121235;276183;2448789;0;2
r;497855889;212955;2448789;0;1
r;456121299;5557018;2448789;0;1
r;456089997;5557828;2448789;0;1
r;455996598;224283;2448789;0;1
r;453859465;231470;2448789;0;1
r;453711215;223602;2448789;0;1
r;453694019;212475;2448789;0;1
r;453542049;17041963;2448789;0;1
r;453494141;249258;2448789;0;1
r;453485226;223616;2448789;0;1
r;453484098;249901;2448789;0;1
r;453376271;223745;2448789;0;1
r;453376213;229921;2448789;0;1
r;453283624;242395;2448789;0;1
r;453282719;247279;2448789;0;1
r;453281557;213207;2448789;0;1
r;453276615;236261;2448789;0;1
r;453274215;213185;2448789;0;1
r;453272804;228854;2448789;0;1
r;453268807;223901;2448789;0;1
r;453259439;259785;2448789;0;1
r;453257013;238977;2448789;0;1
r;453227352;223772;2448789;0;1
r;453207025;17029497;2448789;0;1
r;452487336;5553631;2448789;0;1
r;451936677;16976712;2448789;0;1
r;440289967;2926194;2448789;0;1
r;440051472;16746424;2448789;0;1
r;438967537;2492351;2448789;0;1
r;436557030;2382263;2448789;0;1
r;435222599;1845146;2448789;0;1
r;433505111;16437556;2448789;0;1
r;432059180;16359627;2448789;0;1
r;375065139;1985967;2448789;26;-25
