nt;1;'n_term'
nt;4;'n_pos'
nt;8;'n_chunk'
nt;9;'n_question'
nt;14;'n_synt_function'
nt;18;'n_data'
nt;36;'n_data_pot'
nt;444;'n_link'
nt;777;'n_wikipedia'
e;171978;'de haut';1;10
e;239128;'_COM';36;50
e;2983124;'_SW';36;50
e;223173;'_POL-POS';36;50
e;198355;'de haut goût';1;50
e;263741;'de haut grade';1;50
e;280321;'de haut de';777;50
e;171400;'de haut en bas';1;26
e;181955;'de haut vol';1;50
e;24682;'haut';1;3635
e;80902;'de haut lignage';1;50
e;93679;'de haut rang';1;50
e;18439;'de haut parage';1;50
e;40639;'de haut lieu';1;50
e;346722;'de haut niveau';1;50
e;241794;'_POL-NEUTRE';36;50
e;6905177;'en:high';1;0
e;7403;'arrogamment';1;52
e;254876;'_POL-POS_PC';36;50
e;2585996;'_INFO-CNRTL-YES';36;50
e;15430822;'en:in height';1;0
e;14938721;'en:tall';1;0
e;34858286;'de hauteur';1;0
e;15484834;'de haut de gamme';1;0
e;244806;'Modifier:';4;50
e;2452132;'de haut bord';1;0
e;6685152;'de haut de bilan';777;0
e;146889;'Adv:';4;50
e;254877;'_POL-NEUTRE_PC';36;50
e;17410947;'Morpho:connexe';18;50
e;273221;'_INFO-WIKI-NO';36;50
e;3575927;'Morpho:min';18;50
e;171869;'Adj:';4;50
e;327079;'::&gt;14:74860&gt;29:105814';8;50;'regarder [objet] homme'
e;14916413;'Langue:français';18;50
e;217817;'_INFO-POLYSEMIC';36;50
e;232495;'::&gt;14:74860&gt;29:105814&gt;34';9;50;'De quelle manière pourrait-on regarder un homme ?'
e;438949;'_INFO-POLYMORPHIC';36;50
e;50233540;'_INFO-WORDREF-YES';36;50
e;5126721;'GNPREP:';14;50
e;223172;'_POL-NEG';36;50
e;254878;'_POL-NEG_PC';36;50
e;317329;'_POLIT_7NOPOL';36;50
e;3921849;'dbnary:fra:__ws_1_de_haut__adv__1';444;0
e;4030673;'dbnary:fra:__ws_2_de_haut__adv__1';444;0
e;317324;'_POLIT_3PS';36;50
e;317325;'_POLIT_4MD';36;50
e;317326;'_POLIT_5UMP';36;50
e;317323;'_POLIT_2PG';36;50
e;317322;'_POLIT_1ECO';36;50
e;317327;'_POLIT_6FN';36;50
e;15447377;'en:high-standard';1;0
e;251170;'vue d'avion';1;26
e;15193234;'en:aerial photograph';1;0
e;15193235;'en:aerial view';1;0
e;14935083;'en:elite';1;0
e;15423083;'en:with a high level of expertise';1;0
e;15423082;'en:with a high level of knowledge';1;0
e;6906858;'en:high level';1;0
e;255123;'haut niveau';1;58
e;15423081;'à un niveau avancé';1;0
e;15247287;'en:top-level';1;0
e;15247283;'en:high-level';1;0
e;15417685;'en:top to bottom';1;0
e;14932692;'en:from head to toe';1;0
e;15415046;'en:from top to toe';1;0
e;15415045;'en:from head to foot';1;0
e;14964384;'en:head to foot';1;0
e;15417684;'en:top to toe';1;0
e;15574643;'en:from the bottom up';1;0
e;171378;'de bas en haut';1;22
e;15144217;'en:high and low';1;0
e;165274;'de la cave au grenier';1;90
e;83363;'de pied en cap';1;50
e;232375;'vue aérienne';1;4
e;15430821;'dans le sens de la hauteur';1;0
e;3876228;'haut du panier';1;0
e;12209;'beau linge';1;54
e;350778;'en haut lieu';1;50
e;15328163;'en:from top to bottom';1;0
e;15428587;'en:in high places';1;0
e;15433801;'en:in a powerful position';1;0
e;201722;'haut placé';1;50
e;15247286;'de niveau supérieur';1;0
e;15142859;'en:high-ranking';1;0
e;15462190;'en:best of the bunch';1;0
e;15462191;'en:pick of the bunch';1;0
e;15770120;'en:from the top down';1;0
e;15770119;'en:from the top to the bottom';1;0
e;15056339;'en:high-up';1;0
e;357548;'haut gradé';1;54
e;22126;'anticyclone';1;174
e;51532;'cimaise';1;64
e;13910;'bas';1;3481
e;149583;'paumure';1;50
e;14931825;'en:vertically';1;0
e;15117926;'en:high society';1;0
e;15434322;'en:glitterati';1;0
e;13094386;'en:thoroughly';1;0
e;15432602;'en:view from the air';1;0
e;15462192;'en:top of the heap';1;0
e;14930967;'en:cream of the crop';1;0
e;14951764;'en:senior officer';1;0
e;15137872;'en:top brass';1;0
e;15460121;'en:member of the top brass';1;0
e;15277851;'en:at the top';1;0
e;2501845;'turpot';1;0
e;50525;'Chant du Monde';1;50
e;465200;'Championnat d'Europe de courses de camions';777;50
e;2609050;'Monoclonius sphenocerus';777;0
e;2490642;'pianelle';1;0
e;16610752;'Kayano Gonbei';777;0
e;2449414;'toxicologiquement';1;0
e;2443769;'géantissime';1;0
e;124931;'river son clou';1;52
e;21369;'entrepont';1;50
e;17669;'assolir';1;54
e;16109567;'Leatherback';777;0
rt;0;'r_associated';'idée associée';Il est demandé d'énumérer les termes les plus étroitement associés au mot cible... Ce mot vous fait penser à quoi ?
rt;4;'r_pos';'POS';Partie du discours (Nom, Verbe, Adjectif, Adverbe, etc.)
rt;5;'r_syn';'synonyme';Il est demandé d'énumérer les synonymes ou quasi-synonymes de ce terme.
rt;11;'r_locution';'locution';A partir d'un terme, il est demandé d'énumérer les locutions, expression ou mots composés en rapport avec ce terme. Par exemple, pour 'moulin', ou pourra avoir 'moulin à vent', 'moulin à eau', 'moulin à café'. Pour 'vendre', on pourra avoir 'vendre la peau de l'ours avant de l'avoir tué', 'vendre à perte', etc..
rt;18;'r_data';'r_data';Informations diverses (plutôt d'ordre lexicales)
rt;19;'r_lemma';'r_lemma';Le lemme (par exemple 'mangent a pour lemme  'manger' ; 'avions' a pour lemme 'avion' ou 'avoir').
rt;34;'r_manner';'manière';De quelles MANIERES peut être effectuée l'action (le verbe) proposée. Il s'agira d'un adverbe ou d'un équivalent comme une locution adverbiale, par exemple : 'rapidement', 'sur le pouce', 'goulûment', 'salement' ... pour 'manger'.
rt;35;'r_meaning/glose';'glose/sens/signification';Quels SENS/SIGNIFICATIONS pouvez vous donner au terme proposé. Il s'agira de termes (des gloses) évoquant chacun des sens possibles, par exemple : 'forces de l'ordre', 'contrat d'assurance', 'police typographique', ... pour 'police'.
rt;36;'r_infopot';'information potentielle';Information sémantique potentielle
rt;62;'r_manner-1';'maniere-1';Quelles ACTIONS (verbes) peut-on effectuer de cette manière ? Par exemple, rapidement -&gt; courir, manger, ...
rt;333;'r_translation';'r_translation';Traduction vers une autre langue.
rt;444;'r_link';'r_link';Lien vers une ressource externe (WordNet, RadLex, UMLS, Wikipedia, etc...)
rt;555;'r_cooccurrence';'r_cooccurrence';co-occurences (non utilisée)
r;24125875;171978;239128;0;1000000
r;73986900;171978;2983124;555;19327
r;23008473;171978;223173;36;255
r;8985332;171978;198355;11;147
r;8989165;171978;263741;11;147
r;8989923;171978;280321;11;147
r;8983900;171978;171400;11;146
r;8984099;171978;181955;11;146
r;9444890;171978;24682;0;146
r;8982255;171978;80902;11;144
r;8982450;171978;93679;11;144
r;8981255;171978;18439;11;143
r;8981591;171978;40639;11;143
r;12716581;171978;346722;11;105
r;18660357;171978;241794;36;91
r;394093973;171978;6905177;333;78
r;72564192;171978;7403;5;76
r;27238207;171978;254876;36;70
r;83548522;171978;2585996;36;60
r;494000845;171978;15430822;333;54
r;494000840;171978;14938721;333;54
r;494000838;171978;34858286;0;54
r;495258536;171978;34858286;35;52
r;419767551;171978;15484834;11;50
r;17009860;171978;244806;4;47
r;55510831;171978;2452132;11;46
r;122649138;171978;6685152;11;37
r;87937417;171978;171978;19;35
r;483101;171978;146889;4;32
r;27238208;171978;254877;36;31
r;474509037;171978;17410947;18;31
r;83548531;171978;273221;36;29
r;89947816;171978;3575927;18;26
r;394093972;171978;171869;4;26
r;376786571;171978;327079;62;25
r;394093975;171978;14916413;18;25
r;396052070;171978;217817;36;25
r;415952970;171978;6905177;0;25
r;376786248;171978;232495;62;25
r;427422373;171978;438949;36;25
r;501271756;171978;50233540;36;25
r;492591771;171978;5126721;4;25
r;72773039;171978;7403;0;24
r;30329758;171978;223172;36;19
r;76261783;171978;254878;36;5
r;503738427;171978;317329;36;3
r;94306475;171978;3921849;444;1
r;94403709;171978;4030673;444;1
r;503738428;171978;317324;36;0
r;505050049;171978;317325;36;0
r;505050050;171978;317326;36;0
r;505050051;171978;317323;36;0
r;505050052;171978;317322;36;0
r;505050053;171978;317327;36;0
r;8634335;24682;171978;11;162
r;9561401;280321;171978;0;147
r;9543451;263741;171978;0;147
r;9478046;198355;171978;0;147
r;9450281;181955;171978;0;146
r;9444386;171400;171978;0;146
r;9406963;93679;171978;0;144
r;9402274;80902;171978;0;144
r;9387904;40639;171978;0;143
r;9380217;18439;171978;0;143
r;12716582;346722;171978;0;113
r;406579265;15447377;171978;0;110
r;394093974;6905177;171978;333;78
r;12141386;327079;171978;34;71
r;12020229;232495;171978;34;71
r;95857545;251170;171978;0;66
r;397809594;15193234;171978;0;64
r;397809629;15193235;171978;0;62
r;72551840;7403;171978;5;55
r;494000846;15430822;171978;333;54
r;494000841;14938721;171978;333;54
r;419767552;15484834;171978;0;50
r;409417003;14935083;171978;0;40
r;409416996;15423083;171978;0;40
r;409416989;15423082;171978;0;40
r;409416069;6906858;171978;0;40
r;407033962;255123;171978;0;40
r;407031907;15423081;171978;0;40
r;406579258;15247287;171978;0;40
r;406579245;15247283;171978;0;40
r;87937417;171978;171978;19;35
r;502638129;15417685;171978;0;30
r;491401213;14932692;171978;0;30
r;491401150;15415046;171978;0;30
r;491401088;15415045;171978;0;30
r;491401026;14964384;171978;0;30
r;491400963;15417684;171978;0;30
r;448251183;15574643;171978;0;30
r;448219730;171378;171978;0;30
r;436632680;15144217;171978;0;30
r;436345858;165274;171978;0;30
r;432404352;83363;171978;0;30
r;431399264;232375;171978;0;30
r;430821318;15430821;171978;0;30
r;430717029;3876228;171978;0;30
r;426216192;12209;171978;0;30
r;412795038;350778;171978;0;30
r;409041296;15328163;171978;0;30
r;408190101;15428587;171978;0;30
r;408190093;15433801;171978;0;30
r;407075996;201722;171978;0;30
r;407033118;15247286;171978;0;30
r;399874313;15142859;171978;0;30
r;415952969;6905177;171978;0;25
r;72564191;7403;171978;0;21
r;435974959;15462190;171978;0;20
r;435974067;15462191;171978;0;20
r;432266430;15430822;171978;0;20
r;409041359;15770120;171978;0;20
r;409041335;15770119;171978;0;20
r;409041124;15056339;171978;0;20
r;408270019;357548;171978;0;20
r;417846545;22126;171978;0;15
r;418014394;51532;171978;0;13
r;417980510;13910;171978;0;13
r;55510832;2452132;171978;0;13
r;417708180;149583;171978;0;12
r;122649139;6685152;171978;0;12
r;518290163;14931825;171978;0;10
r;518270439;15117926;171978;0;10
r;518269963;15434322;171978;0;10
r;502638040;13094386;171978;0;10
r;491330927;15432602;171978;0;10
r;467828345;15462192;171978;0;10
r;467827496;14930967;171978;0;10
r;430717529;14951764;171978;0;10
r;430717513;15137872;171978;0;10
r;430717488;15460121;171978;0;10
r;414672595;15277851;171978;0;10
r;439462957;2501845;171978;0;2
r;478348533;50525;171978;0;1
r;472201460;465200;171978;0;1
r;439028959;2609050;171978;0;1
r;438963785;2490642;171978;0;1
r;438819104;16610752;171978;0;1
r;438774905;2449414;171978;0;1
r;438185697;2443769;171978;0;1
r;428527725;124931;171978;0;1
r;423711051;21369;171978;0;1
r;423655298;17669;171978;0;1
r;420442573;16109567;171978;0;1
