nt;1;'n_term'
nt;4;'n_pos'
nt;8;'n_chunk'
nt;9;'n_question'
nt;10;'n_relation'
nt;14;'n_synt_function'
nt;18;'n_data'
nt;36;'n_data_pot'
nt;444;'n_link'
nt;777;'n_wikipedia'
e;187314;'le petit écran';1;50
e;239128;'_COM';36;50
e;71467;'télévision';1;4192
e;2983124;'_SW';36;50
e;15314797;'en:the small screen';1;0
e;14954162;'en:small screen';1;0
e;55222;'petit';1;4399
e;26970;'écran';1;2527
e;91691;'surprise';1;2420
e;14330;'satisfaction';1;630
e;241147;'télévision&gt;85857';1;90;'télévision&gt;média'
e;28453;'bonheur';1;2818
e;47647;'familier';1;218
e;47201;'information';1;2489
e;12105;'communication';1;3360
e;102315;'audiovisuel';1;362
e;2026;'journal';1;3666
e;103405;'indifférence';1;646
e;29592;'film';1;7993
e;104130;'antenne';1;332
e;105814;'regarder';1;3670
e;143676;'TV';1;3357
e;146098;'chaîne';1;3494
e;157377;'regarder la télé';1;218
e;164159;'écran de télévision';1;84
e;253251;'télé&gt;71467';1;22;'télé&gt;télévision'
e;253252;'télé&gt;35800';1;8;'télé&gt;téléviseur'
e;267681;'écran de télé';1;50
e;154833;'Carla Bruni';1;66
e;327105;'::&gt;14:29592&gt;29:84676';8;50;'voir [objet] film'
e;2585997;'_INFO-CNRTL-NO';36;50
e;145715;'poste';1;3615
e;35800;'téléviseur';1;124
e;262024;'soirée télé';1;50
e;223173;'_POL-POS';36;50
e;2355199;'_OCC-IGNORE';36;0
e;98630;'divertissement';1;396
e;16606207;'_INFO-SEM-NODET';36;50
e;115948;'petit écran';1;94
e;105185;'émission';1;2855
e;14489527;'GNDET:';14;50
e;241794;'_POL-NEUTRE';36;50
e;34220;'télé';1;1366
e;3228593;'wiki:@';444;0
e;7183842;'en:television';1;0
e;254876;'_POL-POS_PC';36;50
e;223172;'_POL-NEG';36;50
e;15687661;'en 2012';777;0
e;162817;'::&gt;14:29592&gt;29:84676&gt;15';9;50;'Où pourrait-on voir un film ?'
e;273221;'_INFO-WIKI-NO';36;50
e;107642;'tv';1;58
e;172435;'Langage:familier';18;50
e;5126720;'GN:';14;50
e;3575927;'Morpho:min';18;50
e;254877;'_POL-NEUTRE_PC';36;50
e;155619;'television';1;50
e;280171;'Télévision';777;2063
e;66909;'spectacle';1;2874
e;60361;'loisirs';1;1879
e;413374;'Télévisions';1;50
e;1932382;'divertissements';1;0
e;1920542;'domaine du spectacle';1;0
e;10576;'politique';1;5088
e;251137;'spectacles';1;1911
e;127764;'série';1;3910
e;142914;'image';1;3262
e;15430766;'tube image';1;0
e;10347570;'bn:00013240n';444;0
e;10347566;'bn:17304641n';444;0
e;9627896;'bn:01621737n';444;0
e;10347565;'bn:03758789n';444;0
e;10347563;'bn:02345620n';444;0
e;10347569;'bn:00076421n';444;0
e;10347564;'bn:02518555n';444;0
e;3399674;'bn:00076373n';444;0
e;10347567;'bn:08841523n';444;0
e;10347568;'bn:00013238n';444;0
e;6156405;'umls:C0039461';444;0
e;171870;'Nom:';4;50
e;103601;'vidéo';1;3661
e;10874;'téléspectateur';1;110
e;415856;'video';1;62
e;396991;'Video';1;346
e;398827;'hertzienne';1;50
e;147442;'audio-visuel';1;50
e;7053778;'en:information';1;0
e;7470296;'en:video';1;0
e;14964027;'en:TV';1;0
e;15069702;'en:telecasting';1;0
e;146885;'Nom:Mas+SG';4;50
e;2586627;'Gender:Mas';4;0
e;2586629;'Number:Sing';4;0
e;14964050;'en:tv';1;0
e;14964049;'en:television set';1;0
e;14964026;'en:telly';1;0
e;14964058;'en:boob tube';1;0
e;15061727;'en:tv set';1;0
e;15061726;'en:idiot box';1;0
e;15062707;'en:television system';1;0
e;14964048;'en:television receiver';1;0
e;15061725;'en:goggle box';1;0
e;14242774;'appareil de télévision';1;0
e;14963951;'en:broadcasting';1;0
e;15084402;'en:telecom system';1;0
e;15084401;'en:telecommunication equipment';1;0
e;15084400;'en:telecommunication system';1;0
e;15084399;'en:telecom equipment';1;0
e;15096299;'en:video equipment';1;0
e;7054152;'en:picture';1;0
e;15103818;'en:picture tube';1;0
e;15108643;'en:crt';1;0
e;6953062;'en:sound';1;0
e;15088152;'en:cathode-ray tube';1;0
e;15103816;'en:kinescope';1;0
e;15062321;'en:audio';1;0
e;15103817;'en:television tube';1;0
e;13213161;'en:monitor';1;0
e;15116672;'en:television transmitter';1;0
e;15096300;'en:television equipment';1;0
e;14916413;'Langue:français';18;50
e;14946069;'en:couch potato';1;0
e;14949598;'en:telecast';1;0
e;15080324;'en:waveband';1;0
e;15068261;'en:colorcast';1;0
e;14922875;'en:frequency band';1;0
e;15049711;'en:televise';1;0
e;14958530;'en:replay';1;0
e;15045582;'en:action replay';1;0
e;15085110;'en:closed-captioned';1;0
e;15045581;'en:instant replay';1;0
e;14722049;'édition&gt;153714';1;0;'édition&gt;journal télévisé'
e;50233540;'_INFO-WORDREF-YES';36;50
e;3399675;'bn:00012048n';444;0
e;254878;'_POL-NEG_PC';36;50
e;118238;'radiotélévision';1;54
e;15739188;'en:to television';1;0
e;36327;'plat';1;3830
e;15765265;':r404612516';10;0
e;42700;'satellite';1;3055
e;15379255;'en:TV set';1;0
e;317325;'_POLIT_4MD';36;50
e;317326;'_POLIT_5UMP';36;50
e;317324;'_POLIT_3PS';36;50
e;317329;'_POLIT_7NOPOL';36;50
e;317327;'_POLIT_6FN';36;50
e;317323;'_POLIT_2PG';36;50
e;317322;'_POLIT_1ECO';36;50
e;37298;'amour';1;7219
e;419657;'infos';1;70
e;164860;'poste de télévision';1;72
e;217470;'plateau de télévision';1;62
e;7431612;'en:media';1;0
e;34391216;'en:Information';1;0
e;15445303;'en:audio-visual';1;0
e;14921799;'en:audiovisual';1;0
rt;0;'r_associated';'idée associée';Il est demandé d'énumérer les termes les plus étroitement associés au mot cible... Ce mot vous fait penser à quoi ?
rt;3;'r_domain';'domaine';Il est demandé de fournir des domaines relatifs au mot cible. Par exemple, pour 'corner', on pourra donner les domaines 'football' ou 'sport'.
rt;4;'r_pos';'POS';Partie du discours (Nom, Verbe, Adjectif, Adverbe, etc.)
rt;5;'r_syn';'synonyme';Il est demandé d'énumérer les synonymes ou quasi-synonymes de ce terme.
rt;6;'r_isa';'générique';Il est demandé d'énumérer les GENERIQUES/hyperonymes du terme. Par exemple, 'animal' et 'mammifère' sont des génériques de 'chat'.
rt;9;'r_has_part';'partie';Il faut donner des PARTIES/constituants/éléments (a pour méronymes) du mot cible. Par exemple, 'voiture' a comme parties : 'porte', 'roue', 'moteur', ...
rt;10;'r_holo';'tout';Il est démandé d'énumérer des 'TOUT' (a pour holonymes)  de l'objet en question. Pour 'main', on aura 'bras', 'corps', 'personne', etc... Le tout est aussi l'ensemble comme 'classe' pour 'élève'.
rt;11;'r_locution';'locution';A partir d'un terme, il est demandé d'énumérer les locutions, expression ou mots composés en rapport avec ce terme. Par exemple, pour 'moulin', ou pourra avoir 'moulin à vent', 'moulin à eau', 'moulin à café'. Pour 'vendre', on pourra avoir 'vendre la peau de l'ours avant de l'avoir tué', 'vendre à perte', etc..
rt;15;'r_lieu';'chose&gt;lieu';Il est demandé d'énumérer les LIEUX typiques où peut se trouver le terme/objet en question. (carotte r_lieu potager)
rt;17;'r_carac';'caractéristique';Pour un terme donné, souvent un objet, il est demandé d'en énumérer les CARACtéristiques (adjectifs) possibles/typiques. Par exemple, 'liquide', 'froide', 'chaude', pour 'eau'.
rt;18;'r_data';'r_data';Informations diverses (plutôt d'ordre lexicales)
rt;27;'r_domain-1';'domaine-1';inverse de r_domain : à un domaine, on associe des termes
rt;28;'r_lieu-1';'lieu&gt;chose';A partir d'un lieu, il est demandé d'énumérer ce qui peut typiquement s'y trouver. Par exemple : Paris r_lieu-1 tour Eiffel
rt;30;'r_lieu_action';'lieu&gt;action';A partir d'un lieu, énumérer les actions typiques possibles dans ce lieu.
rt;31;'r_action_lieu';'action&gt;lieu';A partir d'une action (un verbe), énumérer les lieux typiques possibles où peut être réalisée cette action.
rt;32;'r_sentiment';'sentiment';Pour un terme donné, évoquer des mots liés à des SENTIMENTS ou des EMOTIONS que vous pourriez associer à ce terme. Par exemple, la joie, le plaisir, le dégoût, la peur, la haine, l'amour, l'indifférence, l'envie, avoir peur, horrible, etc.
rt;35;'r_meaning/glose';'glose/sens/signification';Quels SENS/SIGNIFICATIONS pouvez vous donner au terme proposé. Il s'agira de termes (des gloses) évoquant chacun des sens possibles, par exemple : 'forces de l'ordre', 'contrat d'assurance', 'police typographique', ... pour 'police'.
rt;36;'r_infopot';'information potentielle';Information sémantique potentielle
rt;115;'r_sentiment-1';'sentiment-1';Pour un SENTIMENT ou EMOTION donné, il est demandé dénumérer les termes que vous pourriez associer. Par exemple, pour 'joie', on aurait 'cadeau', 'naissance', 'bonne nouvelle', etc.
rt;140;'r_node2relnode-out';'r_node2relnode-out';Relation entre un noeud (quelconque) et un noeud de relation (type = 10) - connecte le noeud de sortie - permet de rendre le graphe connexe même avec les annotations de relations
rt;333;'r_translation';'r_translation';Traduction vers une autre langue.
rt;444;'r_link';'r_link';Lien vers une ressource externe (WordNet, RadLex, UMLS, Wikipedia, etc...)
rt;555;'r_cooccurrence';'r_cooccurrence';co-occurences (non utilisée)
r;23931996;187314;239128;0;1000000
r;12206696;187314;71467;0;646
r;74181929;187314;2983124;555;642
r;394553812;187314;15314797;333;450
r;402192591;187314;14954162;333;436
r;9460554;187314;55222;0;421
r;9460555;187314;26970;0;416
r;34028256;187314;91691;32;396
r;217984745;187314;14330;32;393
r;737121;187314;71467;5;377
r;12181524;187314;241147;5;371
r;12358513;187314;241147;0;366
r;33590384;187314;28453;32;353
r;493713704;187314;47647;0;348
r;2212903;187314;47201;3;346
r;2212905;187314;12105;3;346
r;551679;187314;102315;3;342
r;2212904;187314;71467;3;338
r;402208527;187314;2026;0;325
r;495021955;187314;47647;35;325
r;495021956;187314;71467;35;325
r;72983476;187314;103405;32;324
r;403343252;187314;29592;0;315
r;403343253;187314;104130;0;315
r;403343254;187314;105814;0;315
r;403343257;187314;143676;0;315
r;403343258;187314;146098;0;315
r;403343260;187314;157377;0;315
r;403343262;187314;164159;0;315
r;403343263;187314;253251;0;315
r;403343264;187314;253252;0;315
r;403343266;187314;267681;0;315
r;403343259;187314;154833;28;315
r;403343267;187314;327105;30;315
r;15344831;187314;47201;0;310
r;54915458;187314;2585997;36;256
r;402208528;187314;145715;0;220
r;435952832;187314;35800;5;200
r;15359803;187314;102315;0;135
r;403343265;187314;262024;0;125
r;26163852;187314;223173;36;120
r;293282662;187314;2355199;36;102
r;402208530;187314;98630;3;101
r;478556127;187314;16606207;36;98
r;426249516;187314;115948;0;96
r;402208531;187314;105185;0;95
r;370388088;187314;14489527;4;94
r;448702428;187314;35800;0;85
r;26163853;187314;241794;36;76
r;402208523;187314;34220;0;70
r;15344830;187314;12105;0;65
r;402208516;187314;3228593;444;65
r;394553809;187314;7183842;333;54
r;510168940;187314;15314797;5;50
r;510168941;187314;14954162;5;50
r;27436481;187314;254876;36;50
r;26423903;187314;223172;36;46
r;518199989;187314;15687661;17;45
r;403343261;187314;162817;30;40
r;6177772;187314;273221;36;40
r;402208533;187314;98630;0;35
r;403343255;187314;107642;0;35
r;522956228;187314;172435;18;35
r;105819062;187314;5126720;4;33
r;89934332;187314;3575927;18;31
r;27436482;187314;254877;36;31
r;402208511;187314;155619;0;30
r;402208512;187314;280171;0;30
r;402208514;187314;66909;0;30
r;402208515;187314;60361;0;30
r;402208517;187314;413374;0;30
r;402208520;187314;1932382;0;30
r;402208521;187314;1920542;0;30
r;402208524;187314;10576;0;30
r;402208526;187314;251137;0;30
r;402208529;187314;127764;0;30
r;402208532;187314;142914;0;30
r;402208513;187314;60361;3;30
r;402208518;187314;1920542;3;30
r;402208519;187314;1932382;3;30
r;402208522;187314;10576;3;30
r;402208525;187314;251137;3;30
r;402208427;187314;15430766;9;30
r;402208428;187314;10347570;444;30
r;402208429;187314;10347566;444;30
r;402208430;187314;9627896;444;30
r;402208432;187314;10347565;444;30
r;402208505;187314;10347563;444;30
r;402208506;187314;10347569;444;30
r;402208507;187314;10347564;444;30
r;402208508;187314;3399674;444;30
r;402208509;187314;10347567;444;30
r;402208510;187314;10347568;444;30
r;402208534;187314;6156405;444;30
r;1841351;187314;171870;4;29
r;402208433;187314;103601;0;25
r;402208434;187314;10874;0;25
r;402208435;187314;415856;0;25
r;402208436;187314;396991;0;25
r;402208438;187314;398827;0;25
r;415220809;187314;14954162;0;25
r;415747408;187314;15314797;0;25
r;415747410;187314;7183842;0;25
r;385219869;187314;147442;3;25
r;385244243;187314;7053778;3;25
r;402208440;187314;7470296;3;25
r;402208441;187314;14964027;3;25
r;402208442;187314;15069702;3;25
r;395222159;187314;146885;4;25
r;395365016;187314;2586627;4;25
r;395519033;187314;2586629;4;25
r;402208443;187314;14964050;5;25
r;402208444;187314;14964049;5;25
r;402208445;187314;14964026;5;25
r;402208446;187314;14964058;5;25
r;402208447;187314;15061727;5;25
r;402208448;187314;15061726;5;25
r;402208453;187314;14964027;5;25
r;402208454;187314;15069702;5;25
r;402208455;187314;7470296;5;25
r;402208456;187314;15062707;5;25
r;402208457;187314;14964048;5;25
r;402208458;187314;15061725;5;25
r;402208459;187314;155619;5;25
r;448718746;187314;14242774;5;25
r;402208439;187314;14963951;6;25
r;402208449;187314;15084402;6;25
r;402208450;187314;15084401;6;25
r;402208451;187314;15084400;6;25
r;402208452;187314;15084399;6;25
r;402208461;187314;15096299;9;25
r;402208462;187314;7054152;9;25
r;402208463;187314;14964049;9;25
r;402208464;187314;15103818;9;25
r;402208465;187314;14964026;9;25
r;402208466;187314;15108643;9;25
r;402208467;187314;15061725;9;25
r;402208468;187314;6953062;9;25
r;402208469;187314;15061726;9;25
r;402208470;187314;7470296;9;25
r;402208471;187314;15088152;9;25
r;402208472;187314;14964058;9;25
r;402208473;187314;15061727;9;25
r;402208474;187314;15103816;9;25
r;402208475;187314;15062321;9;25
r;402208476;187314;15103817;9;25
r;402208477;187314;13213161;9;25
r;402208478;187314;14964048;9;25
r;402208479;187314;15116672;9;25
r;402208480;187314;15096300;9;25
r;402208481;187314;14964050;9;25
r;402208460;187314;15062707;10;25
r;394553811;187314;14916413;18;25
r;402208482;187314;14946069;27;25
r;402208483;187314;14964049;27;25
r;402208484;187314;14964026;27;25
r;402208485;187314;14949598;27;25
r;402208486;187314;14964058;27;25
r;402208487;187314;14964048;27;25
r;402208488;187314;15080324;27;25
r;402208489;187314;15062707;27;25
r;402208490;187314;14964050;27;25
r;402208491;187314;15068261;27;25
r;402208492;187314;14922875;27;25
r;402208493;187314;15061725;27;25
r;402208494;187314;15049711;27;25
r;402208495;187314;14958530;27;25
r;402208496;187314;15045582;27;25
r;402208497;187314;15061727;27;25
r;402208498;187314;15061726;27;25
r;402208499;187314;15085110;27;25
r;402208500;187314;15045581;27;25
r;403343268;187314;14722049;28;25
r;501959616;187314;50233540;36;25
r;402208437;187314;3399675;444;25
r;416411579;187314;14964050;0;20
r;416411581;187314;14964049;0;20
r;416411583;187314;14964026;0;20
r;416411585;187314;14964058;0;20
r;416411587;187314;15061727;0;20
r;416411589;187314;15061726;0;20
r;416411591;187314;14964027;0;20
r;416411593;187314;15069702;0;20
r;416411595;187314;7470296;0;20
r;416411597;187314;15062707;0;20
r;416411599;187314;14964048;0;20
r;416411601;187314;15061725;0;20
r;27436483;187314;254878;36;19
r;403343256;187314;118238;0;15
r;449097685;187314;14242774;0;15
r;411855938;187314;15739188;0;10
r;534766825;187314;36327;17;10
r;405565726;187314;15765265;140;9
r;2319423;187314;42700;3;5
r;429264355;187314;15379255;5;5
r;420047703;187314;14963951;0;3
r;420047705;187314;15084402;0;3
r;420047707;187314;15084401;0;3
r;420047709;187314;15084400;0;3
r;420047711;187314;15084399;0;3
r;503800528;187314;317325;36;2
r;503800527;187314;317326;36;2
r;503800529;187314;317324;36;2
r;503800530;187314;317329;36;1
r;503800531;187314;317327;36;1
r;503800532;187314;317323;36;1
r;505135680;187314;317322;36;0
r;33341246;187314;37298;32;-5
r;411855937;187314;15739188;5;-10
r;394553813;15314797;187314;333;450
r;402192592;14954162;187314;333;436
r;8648204;55222;187314;11;163
r;8648205;26970;187314;11;163
r;426249490;115948;187314;0;76
r;415220808;14954162;187314;0;75
r;415747407;15314797;187314;0;70
r;394553810;7183842;187314;333;54
r;412031710;419657;187314;0;45
r;212266105;7053778;187314;0;42
r;412031602;419657;187314;27;40
r;212266300;7053778;187314;27;38
r;702910;71467;187314;5;34
r;2047459;241147;187314;5;34
r;15273039;47201;187314;0;33
r;15138869;71467;187314;27;30
r;15138870;47201;187314;27;29
r;15138868;12105;187314;27;26
r;12181523;241147;187314;0;26
r;471023186;154833;187314;15;25
r;514786569;162817;187314;31;25
r;447923765;14242774;187314;5;25
r;514786570;327105;187314;31;25
r;375633855;14330;187314;115;25
r;385366229;28453;187314;115;25
r;385423264;91691;187314;115;25
r;514478559;103405;187314;115;25
r;448702429;35800;187314;5;25
r;415747409;7183842;187314;0;25
r;15273038;12105;187314;0;24
r;119297940;147442;187314;0;22
r;15291849;102315;187314;0;22
r;119298206;147442;187314;27;22
r;15159265;102315;187314;27;22
r;12236802;71467;187314;0;21
r;416411600;14964048;187314;5;20
r;448718745;14242774;187314;0;20
r;430800880;164860;187314;5;20
r;416411603;155619;187314;5;20
r;416411602;15061725;187314;5;20
r;416411598;15062707;187314;5;20
r;416411596;7470296;187314;5;20
r;416411592;14964027;187314;5;20
r;416411590;15061726;187314;5;20
r;416411594;15069702;187314;5;20
r;416411588;15061727;187314;5;20
r;416411586;14964058;187314;5;20
r;416411584;14964026;187314;5;20
r;416411582;14964049;187314;5;20
r;416411580;14964050;187314;5;20
r;449110406;35800;187314;0;15
r;418855213;15379255;187314;5;15
r;430799655;217470;187314;5;15
r;397613317;7431612;187314;0;10
r;527410572;34391216;187314;27;10
r;397614924;14963951;187314;27;10
r;397614399;15445303;187314;27;10
r;397613873;14921799;187314;27;10
r;397613345;7431612;187314;27;10
r;397613845;14921799;187314;0;10
r;397614371;15445303;187314;0;10
r;397614896;14963951;187314;0;10
r;527410670;34391216;187314;0;10
r;404612516;15062707;187314;9;7
r;429377600;15062707;187314;0;5
r;429377601;14964048;187314;0;5
r;429377602;15061725;187314;0;5
r;429377603;155619;187314;0;5
r;429377599;7470296;187314;0;5
r;429377598;15069702;187314;0;5
r;429377597;14964027;187314;0;5
r;429377596;15061726;187314;0;5
r;429377595;15061727;187314;0;5
r;429377594;14964058;187314;0;5
r;429377593;14964026;187314;0;5
r;429377592;14964049;187314;0;5
r;429377591;14964050;187314;0;5
r;429264354;15379255;187314;0;5
r;472180160;7470296;187314;10;1
r;472180150;15430766;187314;10;1
r;472180151;15096299;187314;10;1
r;472180152;7054152;187314;10;1
r;472180153;14964049;187314;10;1
r;472180154;15103818;187314;10;1
r;472180155;14964026;187314;10;1
r;472180156;15108643;187314;10;1
r;472180157;15061725;187314;10;1
r;472180158;6953062;187314;10;1
r;472180159;15061726;187314;10;1
r;472180171;14964050;187314;10;1
r;472180161;15088152;187314;10;1
r;472180162;14964058;187314;10;1
r;472180163;15061727;187314;10;1
r;472180164;15103816;187314;10;1
r;472180165;15062321;187314;10;1
r;472180166;15103817;187314;10;1
r;472180167;13213161;187314;10;1
r;472180168;14964048;187314;10;1
r;472180169;15116672;187314;10;1
r;472180170;15096300;187314;10;1
