nt;1;'n_term'
nt;4;'n_pos'
nt;14;'n_synt_function'
nt;36;'n_data_pot'
nt;444;'n_link'
nt;777;'n_wikipedia'
e;11082350;'le salon';777;0
e;2355199;'_OCC-IGNORE';36;0
e;16606207;'_INFO-SEM-NODET';36;50
e;14489527;'GNDET:';14;50
e;254876;'_POL-POS_PC';36;50
e;15768089;'le salon du prince';777;0
e;2585997;'_INFO-CNRTL-NO';36;50
e;254877;'_POL-NEUTRE_PC';36;50
e;3228593;'wiki:@';444;0
e;171870;'Nom:';4;50
e;276096;'_INFO-WIKI-YES';36;50
e;207418;'Salon';1;1768
e;280595;'Le Salon';777;50
e;5126720;'GN:';14;50
e;2983124;'_SW';36;50
e;101733;'Tissot';1;50
e;400922;'portraits';1;476
e;408014;'Portrait';1;1203
e;15483179;'Expositions de la Jeunesse';777;0
e;11361174;'Chrysler Museum of Art';777;0
e;127562;'Norfolk';1;52
e;19199;'James Tissot';1;50
e;16155010;'Philippe-Auguste Hennequin';777;0
e;15978306;'Claude Gautherot';777;0
e;285728;'DOI';1;2
e;115748;'ISSN';1;50
e;302545;'International Standard Serial Number';777;50
e;2357139;'Camille Corot';1;0
e;12710728;'de la Jeunesse';777;0
e;15483180;'Exposition de la Jeunesse';777;0
e;14167345;'Royal Academy';777;0
e;14270417;'Friedrich Melchior Grimm';777;0
e;15228789;'Palais du Louvre';1;0
e;8857874;'bn:00993711n';444;0
e;120242;'Nadar';1;54
e;11776445;'Gautherot';1;0
e;11788249;'Joseph Ducreux';777;0
e;11789152;'Norblin';1;0
e;11357043;'rue Vivienne';777;0
e;11361394;'Édouard Dantan';777;0
e;11129640;'École royale des élèves protégés';777;0
e;11129626;'guilde de Saint-Luc';777;0
e;11131620;'Guilde de Saint-Luc';777;0
e;11082892;'Salon de mai';777;0
e;92679;'salon';1;2752
e;14138;'Archives nationales';1;50
e;10989345;'Bellier et Auvray';777;0
e;10128301;'Jean Tulard';777;0
e;142939;'ISBN';1;3627
e;292126;'International Standard Book Number';777;56
e;10579148;'Pierre Vaisse';777;0
e;110927;'Salons';1;50
e;10853620;'Salon des Tuileries';777;0
e;10118504;'Pierre Grassou';777;0
e;5795475;'Pierre Rosenberg';777;0
e;126800;'Jean-Baptiste Camille Corot';1;50
e;219680;'Jean-Auguste-Dominique Ingres';1;58
e;230645;'Grand Palais';1;4
e;164961;'Jules Ferry';1;96
e;48672;'Second Empire';1;74
e;96185;'Les Glaneuses';1;50
e;188478;'Gustave Courbet';1;60
e;10083482;'Exposition universelle';777;2
e;188234;'Charles Baudelaire';1;124
e;71627;'Orry';1;50
e;24268;'Philibert Orry';1;50
e;9744694;'Les Sabines';777;0
e;107325;'Premier Empire';1;62
e;49482;'Consulat';1;54
e;142283;'Directoire';1;515
e;313680;'Antoine-Jean Gros';1;70
e;103590;'Girodet';1;50
e;301329;'Anne-Louis Girodet';777;50
e;2475393;'Broc';1;0
e;5990037;'Jean Broc';777;0
e;10519395;'Debret';1;0
e;10518427;'Jean-Baptiste Debret';777;0
e;3132;'Hennequin';1;50
e;396592;'La Mort de Marat';1;50
e;8768;'David';1;3712
e;66375;'Versailles';1;2948
e;140366;'Valenciennes';1;851
e;15399;'Lyon';1;3495
e;97185;'Amiens';1;54
e;124100;'Montpellier';1;2884
e;75116;'Poitiers';1;2832
e;125134;'Lille';1;2971
e;144632;'Bordeaux';1;3079
e;28360;'Dijon';1;1647
e;53528;'Marseille';1;3769
e;68804;'Toulouse';1;3309
e;115548;'place Dauphine';1;50
e;8712;'Grimm';1;354
e;24251;'Diderot';1;74
e;66585;'Denis Diderot';1;58
e;120461;'nature morte';1;118
e;10620890;'Nature morte';777;0
e;11072675;'Everhard Jabach';777;0
e;61281;'Rome';1;3824
e;120580;'Louis XIV';1;218
e;283215;'Louis XIV de France';777;50
e;189024;'Charles Le Brun';1;60
e;396589;'Jacques-Louis David';1;50
e;117866;'Louvre';1;2277
e;82363;'Palais-Royal';1;100
e;10336221;'École des beaux-arts';777;0
e;9977392;'École nationale supérieure des beaux-arts';777;0
e;59249;'Mazarin';1;110
e;189180;'Jules Mazarin';1;50
e;113317;'Paris';1;3904
e;10156303;'Pietro Antonio Martini';777;0
e;223173;'_POL-POS';36;50
e;241794;'_POL-NEUTRE';36;50
rt;0;'r_associated';'idée associée';Il est demandé d'énumérer les termes les plus étroitement associés au mot cible... Ce mot vous fait penser à quoi ?
rt;4;'r_pos';'POS';Partie du discours (Nom, Verbe, Adjectif, Adverbe, etc.)
rt;6;'r_isa';'générique';Il est demandé d'énumérer les GENERIQUES/hyperonymes du terme. Par exemple, 'animal' et 'mammifère' sont des génériques de 'chat'.
rt;11;'r_locution';'locution';A partir d'un terme, il est demandé d'énumérer les locutions, expression ou mots composés en rapport avec ce terme. Par exemple, pour 'moulin', ou pourra avoir 'moulin à vent', 'moulin à eau', 'moulin à café'. Pour 'vendre', on pourra avoir 'vendre la peau de l'ours avant de l'avoir tué', 'vendre à perte', etc..
rt;36;'r_infopot';'information potentielle';Information sémantique potentielle
rt;71;'r_variante';'variante';Variantes du termes cible. Par exemple, yaourt, yahourt, ou encore évènement, événement.
rt;444;'r_link';'r_link';Lien vers une ressource externe (WordNet, RadLex, UMLS, Wikipedia, etc...)
rt;555;'r_cooccurrence';'r_cooccurrence';co-occurences (non utilisée)
rt;777;'r_wiki';'r_wiki';Associations issues de wikipedia...
r;293282837;11082350;2355199;36;102
r;478556351;11082350;16606207;36;98
r;370388313;11082350;14489527;4;94
r;281151885;11082350;254876;36;60
r;405716713;11082350;15768089;11;50
r;281151873;11082350;2585997;36;50
r;281151887;11082350;254877;36;40
r;281261241;11082350;3228593;444;35
r;281151881;11082350;171870;4;26
r;492333138;11082350;276096;36;25
r;369312972;11082350;207418;0;25
r;368776007;11082350;280595;71;25
r;293281752;11082350;5126720;4;25
r;369312973;11082350;2983124;555;21
r;488823074;11082350;101733;777;10
r;488823072;11082350;400922;777;10
r;488823071;11082350;408014;777;10
r;488823068;11082350;15483179;777;10
r;467181626;11082350;11361174;777;10
r;467181624;11082350;127562;777;10
r;467181622;11082350;19199;777;10
r;424975873;11082350;16155010;777;10
r;422950989;11082350;15978306;777;10
r;409987720;11082350;285728;777;10
r;409987718;11082350;115748;777;10
r;409987717;11082350;302545;777;10
r;400071348;11082350;2357139;777;10
r;400071340;11082350;12710728;777;10
r;400071339;11082350;15483180;777;10
r;400071336;11082350;14167345;777;10
r;400071334;11082350;14270417;777;10
r;400071332;11082350;15228789;777;10
r;369312971;11082350;8857874;444;10
r;349081647;11082350;120242;777;10
r;349081645;11082350;11776445;777;10
r;305373248;11082350;11788249;777;10
r;305373246;11082350;11789152;777;10
r;292091535;11082350;11357043;777;10
r;292091533;11082350;11361394;777;10
r;285653498;11082350;11129640;777;10
r;285653496;11082350;11129626;777;10
r;285653495;11082350;11131620;777;10
r;282297607;11082350;11082892;777;10
r;281151872;11082350;92679;0;10
r;281147021;11082350;14138;777;10
r;281147020;11082350;10989345;777;10
r;281147018;11082350;10128301;777;10
r;281147017;11082350;142939;777;10
r;281147016;11082350;292126;777;10
r;281147015;11082350;10579148;777;10
r;281147013;11082350;110927;777;10
r;281147012;11082350;10853620;777;10
r;281147010;11082350;10118504;777;10
r;281147008;11082350;5795475;777;10
r;281147007;11082350;126800;777;10
r;281147006;11082350;219680;777;10
r;281147005;11082350;230645;777;10
r;281147004;11082350;164961;777;10
r;281147003;11082350;48672;777;10
r;281147002;11082350;96185;777;10
r;281147001;11082350;188478;777;10
r;281147000;11082350;10083482;777;10
r;281146999;11082350;188234;777;10
r;281146998;11082350;71627;777;10
r;281146997;11082350;24268;777;10
r;281146996;11082350;9744694;777;10
r;281146995;11082350;107325;777;10
r;281146994;11082350;49482;777;10
r;281146993;11082350;142283;777;10
r;281146992;11082350;313680;777;10
r;281146991;11082350;103590;777;10
r;281146990;11082350;301329;777;10
r;281146989;11082350;2475393;777;10
r;281146988;11082350;5990037;777;10
r;281146987;11082350;10519395;777;10
r;281146986;11082350;10518427;777;10
r;281146983;11082350;3132;777;10
r;281146982;11082350;396592;777;10
r;281146981;11082350;8768;777;10
r;281146980;11082350;66375;777;10
r;281146979;11082350;140366;777;10
r;281146978;11082350;15399;777;10
r;281146977;11082350;97185;777;10
r;281146976;11082350;124100;777;10
r;281146975;11082350;75116;777;10
r;281146974;11082350;125134;777;10
r;281146973;11082350;144632;777;10
r;281146972;11082350;28360;777;10
r;281146971;11082350;53528;777;10
r;281146970;11082350;68804;777;10
r;281146969;11082350;115548;777;10
r;281146968;11082350;8712;777;10
r;281146967;11082350;24251;777;10
r;281146966;11082350;66585;777;10
r;281146965;11082350;120461;777;10
r;281146964;11082350;10620890;777;10
r;281146962;11082350;11072675;777;10
r;281146960;11082350;61281;777;10
r;281146959;11082350;120580;777;10
r;281146958;11082350;283215;777;10
r;281146957;11082350;189024;777;10
r;281146956;11082350;396589;777;10
r;281146955;11082350;117866;777;10
r;281146954;11082350;82363;777;10
r;281146953;11082350;10336221;777;10
r;281146952;11082350;9977392;777;10
r;281146951;11082350;59249;777;10
r;281146950;11082350;189180;777;10
r;281146949;11082350;113317;777;10
r;281146948;11082350;10156303;777;10
r;281146947;11082350;207418;777;10
r;281151883;11082350;223173;36;3
r;281151884;11082350;241794;36;2
r;405716714;15768089;11082350;0;50
r;281151871;92679;11082350;11;34
r;405716718;15768089;11082350;6;26
r;368776008;280595;11082350;71;25
