nt;1;'n_term'
nt;2;'n_form'
nt;4;'n_pos'
nt;8;'n_chunk'
nt;9;'n_question'
nt;10;'n_relation'
nt;18;'n_data'
nt;36;'n_data_pot'
nt;444;'n_link'
nt;666;'n_AKI'
nt;777;'n_wikipedia'
e;45455;'saladier';1;174
e;239128;'_COM';36;50
e;2983124;'_SW';36;50
e;223173;'_POL-POS';36;50
e;34519;'contenir';1;2079
e;118908;'salade';1;1438
e;28453;'bonheur';1;2818
e;104789;'avocat';1;2569
e;59122;'laitue';1;358
e;141110;'sauce';1;1391
e;14330;'satisfaction';1;630
e;91691;'surprise';1;2420
e;24372;'riz';1;2088
e;145443;'vinaigre';1;488
e;89628;'récipient';1;1194
e;217289;'huile&gt;11358';1;220;'huile&gt;substance'
e;47740;'vinaigrette';1;306
e;141687;'fromage';1;3531
e;13260;'sel';1;2795
e;86754;'thon';1;596
e;37201;'pomme';1;2565
e;52221;'emmental';1;234
e;111055;'mayonnaise';1;288
e;215004;'pomme&gt;87286';1;350;'pomme&gt;fruit'
e;217334;'salade&gt;16033';1;168;'salade&gt;cuisine'
e;149389;'olives';1;196
e;22138;'tomate';1;980
e;248795;'riz&gt;114637';1;84;'riz&gt;aliment'
e;139597;'poivre';1;750
e;157203;'avocat&gt;87286';1;98;'avocat&gt;fruit'
e;241794;'_POL-NEUTRE';36;50
e;115796;'pâtes';1;486
e;31570;'concombre';1;356
e;130949;'vaisselle';1;1048
e;31280;'romaine';1;3567
e;14491340;'::&gt;66:45455&gt;30:125556';8;0;'saladier [lieu pour] remuer'
e;95708;'oignons';1;256
e;1570164;'rougette';1;18
e;57980;'jambon';1;1070
e;61977;'coriandre';1;292
e;88883;'scarole';1;134
e;146402;'mâche';1;134
e;254876;'_POL-POS_PC';36;50
e;112671;'basilic';1;252
e;116947;'anchois';1;484
e;228064;'sel&gt;181514';1;200;'sel&gt;chlorure de sodium'
e;110127;'frisée';1;208
e;132757;'pomme de terre';1;1166
e;145405;'bol';1;718
e;220491;'carottes râpées';1;126
e;240391;'moutarde&gt;120990';1;28;'moutarde&gt;condiment'
e;97140;'roquette';1;150
e;36327;'plat';1;3830
e;171870;'Nom:';4;50
e;23178;'grand';1;3888
e;149153;'mimolette';1;80
e;144497;'verre';1;3916
e;1970810;'grand saladier';1;0
e;82147;'rond';1;1320
e;146885;'Nom:Mas+SG';4;50
e;2530404;'scariole';1;0
e;155050;'haricots';1;144
e;3757738;'chocolat pâtissier coupé en morceaux dans un saladier';1;0
e;220974;'haricots verts';1;68
e;166250;'croûtons';1;56
e;166482;'thon à l'huile';1;86
e;92353;'lentilles';1;274
e;439671;'copeaux de parmesan';1;52
e;90637;'croûton';1;90
e;332397;'sauce au yaourt';1;52
e;264343;'couverts à salade';1;10
e;154575;'tomates';1;318
e;11704;'batavia';1;152
e;140416;'parmesan';1;168
e;139790;'maïs';1;1954
e;45711;'fouetter';1;222
e;2476040;'mahonnaise';1;0
e;2586627;'Gender:Mas';4;0
e;2586629;'Number:Sing';4;0
e;141971;'huile';1;2232
e;108150;'contenu';1;3167
e;2354924;'saladier&gt;108150';1;2;'saladier&gt;contenu'
e;263317;'oeuf cru';1;28
e;316963;'oeuf battu';1;86
e;251490;'sauce moutarde';1;12
e;191667;'_INFO-SEM-THING-ARTEFACT';36;242
e;217817;'_INFO-POLYSEMIC';36;50
e;214275;'cuisine&gt;143757';1;2050;'cuisine&gt;art culinaire'
e;256310;'mâche&gt;118908';1;12;'mâche&gt;salade'
e;15280261;'Versez les légumes dans un saladier.';1;0
e;242575;'pâte à pizza';1;28
e;237936;'vinaigrette&gt;16033&gt;141110';1;44;'vinaigrette&gt;cuisine&gt;sauce'
e;2374565;'magnonaise';1;0
e;55044;'marinade';1;154
e;36922;'profond';1;2229
e;14960036;'en:mixing bowl';1;0
e;246870;'objet&gt;109527';1;202;'objet&gt;chose'
e;2354923;'saladier&gt;89628';1;6;'saladier&gt;récipient'
e;3576104;'Morpho:nospace';18;50
e;14960037;'en:salad bowl';1;0
e;151940;'tomate cerise';1;50
e;15280260;'en:salad dish';1;0
e;377;'rempli';1;226
e;1754475;'tomate Roma';1;0
e;162763;'_INFO-SEM-THING-CONCRETE';36;1238
e;153624;'couverts';1;390
e;27008;'évasé';1;70
e;3575927;'Morpho:min';18;50
e;29690;'fuir';1;1772
e;68460;'vider';1;694
e;71325;'renverser';1;198
e;26206;'recouvrir';1;334
e;1731944;'noire de Crimée';1;0
e;1731943;'tomate coeur de boeuf';1;0
e;1731870;'tomate ananas';1;0
e;383986;'tomate verte';1;50
e;1754476;'tomate coeur-de-boeuf';1;0
e;247812;'non vivant';1;58
e;589308;'salade&gt;16033&gt;114839';1;6;'salade&gt;cuisine&gt;mets'
e;15456845;'en:salad bowlful';1;0
e;3228593;'wiki:@';444;0
e;16033;'cuisine';1;11852
e;237068;'coeur de boeuf';1;52
e;251565;'vaisselle&gt;60109';1;60;'vaisselle&gt;pièce de vaisselle'
e;130626;'premier';1;4029
e;119260;'deuxième';1;3702
e;39720;'second';1;3710
e;36962;'recouvert';1;692
e;61892;'renversé';1;579
e;195334;'carottes';1;212
e;266532;'beurre mou';1;52
e;37151;'mélanger';1;664
e;438949;'_INFO-POLYMORPHIC';36;50
e;14491341;'::&gt;66:225916&gt;24:14491339';8;0;'personne&gt;être humain [peut] remuer [endroit] saladier'
e;14491343;'::&gt;66:14491342&gt;15:45455';8;0;'personne&gt;être humain [peut] remuer [objet] salade [lieu] saladier'
e;124771;'parole';1;2674
e;140318;'parler';1;4539
e;50759433;'plat pour salade';1;0
e;50759434;'contenu d'un saladier';1;0
e;171869;'Adj:';4;50
e;2586628;'Gender:Fem';4;0
e;316850;'entité physique';1;50
e;7620882;'récipient culinaire';1;0
e;70729;'vidé';1;90
e;15312303;'en:flared';1;0
e;14916413;'Langue:français';18;50
e;172435;'Langage:familier';18;50
e;327734;'::&gt;14:118908&gt;29:117283';8;50;'rincer [objet] salade'
e;164356;'::&gt;14:118908&gt;29:117283&gt;16';9;50;'Avec quoi pourrait-on rincer une salade ?'
e;129587;'alimenter';1;126
e;14491342;'::&gt;66:225916&gt;24:14491337';8;0;'personne&gt;être humain [peut] remuer [objet] salade'
e;14300605;'corne&gt;14300602&gt;16033';1;0;'corne&gt;en forme de corne&gt;cuisine'
e;1731868;'tomate roma';1;0
e;15340415;'en:core samples';1;0
e;15340416;'en:carrots';1;0
e;191777;'pâtes alimentaires';1;64
e;14919685;'en:anchovy';1;0
e;16677412;'vinaigrette&gt;16033';1;4;'vinaigrette&gt;cuisine'
e;14300603;'corne&gt;14300602';1;0;'corne&gt;en forme de corne'
e;15220149;'en:pastas';1;0
e;140039;'corne';1;456
e;7288150;'en:pasta';1;0
e;14964890;'en:cherry tomato';1;0
e;15220154;'les pâtes';1;0
e;320857;'pris&gt;110859';1;52;'pris&gt;figé'
e;71745;'emmenthal';1;52
e;14491335;'::&gt;13:225916&gt;29:125556';8;0;'remuer [sujet] personne&gt;être humain'
e;125556;'remuer';1;408
e;103846;'touiller';1;310
e;251488;'remuer la salade';1;16
e;251639;'exprimer&gt;251273';1;50;'exprimer&gt;extraire un liquide'
e;111795;'exprimer';1;1204
e;14304604;'corner&gt;143757';1;0;'corner&gt;art culinaire'
e;14491339;'::&gt;31:45455&gt;29:125556';8;0;'remuer [endroit] saladier'
e;14491337;'::&gt;14:118908&gt;29:125556';8;0;'remuer [objet] salade'
e;14491344;'::&gt;31:45455&gt;29:14491337';8;0;'remuer [objet] salade [endroit] saladier'
e;14718976;'être remué&gt;14800';1;0;'être remué&gt;mélange'
e;16601624;'::&gt;13:116477&gt;29:125556';8;0;'remuer [sujet] personne'
e;15991432;'_ANIME-NO';36;50
e;276096;'_INFO-WIKI-YES';36;50
e;50233540;'_INFO-WORDREF-YES';36;50
e;241744;'cuve&gt;89628';1;82;'cuve&gt;récipient'
e;254877;'_POL-NEUTRE_PC';36;50
e;223421;'jardinière&gt;16033';1;6;'jardinière&gt;cuisine'
e;15220079;'en:pizza dough';1;0
e;15105529;'en:mustard sauce';1;0
e;317329;'_POLIT_7NOPOL';36;50
e;162759;'_INFO-SEM-PLACE';36;504
e;104863760;'Pâtes alimentaires';1;0
e;142367;'pot';1;978
e;103256;'terre cuite';1;142
e;142246;'faïence';1;160
e;405087;'Salade';1;52
e;30539;'Bol';1;55
e;12725466;'dictionnaire Larousse';1;0
e;275203;'CNRTL';1;50
e;151578;'Italien';1;72
e;103658;'italien';1;3544
e;226741;'latin tardif';1;18
e;123696;'Rome antique';1;248
e;2520797;'Poilu';1;0
e;228540;'Coupe Davis';1;50
e;425641;'Assiette';1;52
e;159948;'assiettes';1;100
e;1978453;'bols';1;2
e;143415;'Renaissance';1;2772
e;2369036;'Bambou';1;50
e;42456;'bambou';1;150
e;140784;'Olivier';1;2918
e;62677;'olivier';1;150
e;5677776;'Porcelaine';1;0
e;145840;'porcelaine';1;330
e;73274;'Argent';1;629
e;144916;'argent';1;7410
e;141240;'Or';1;3110
e;80138;'or';1;3433
e;141220;'Cristal';1;50
e;68659;'cristal';1;2200
e;11844;'Rouen';1;2789
e;131224;'Nevers';1;1356
e;15904020;'Poilus';1;0
e;15835542;'Vaisselle';1;0
e;101572;'Agence France-Presse';1;58
e;103210;'AFP';1;70
e;1270258;':r8907475';10;0
e;237937;'vinaigrette&gt;123745&gt;123143';1;6;'vinaigrette&gt;véhicule&gt;chaise à porteurs'
e;251566;'vaisselle&gt;131110';1;12;'vaisselle&gt;service de table'
e;251564;'vaisselle&gt;145633';1;66;'vaisselle&gt;plonge'
e;1308294;':r2391288';10;0
e;14590545;':r368239520';10;0
e;3172696;'récipient en verre';1;2
e;237;'objet';1;3502
e;4332566;'miam aux fruits';1;0
e;119128;'jardinière';1;200
e;6967593;'en:vinegar';1;0
e;16601621;'::&gt;66:116477&gt;24:14491337';8;0;'personne [peut] remuer [objet] salade'
e;14491345;':r2587754';10;0
e;115250;'cuve';1;194
e;3174249;':r2587808';10;0
e;16310759;':r289289471';10;0
e;16677512;':r1905342';10;0
e;1900553;'vinaigrette&gt;221880';1;0;'vinaigrette&gt;oxalide petite oseille'
e;16677415;'vinaigrette&gt;16033&gt;81466';1;0;'vinaigrette&gt;cuisine&gt;restes'
e;16677416;'vinaigrette&gt;16033&gt;118908';1;0;'vinaigrette&gt;cuisine&gt;salade'
e;152067;'ustensile de cuisine';1;224
e;3186373;'Noire de Crimée';777;0
e;1974068;':r31838066';10;0
e;1974069;':r31838071';10;0
e;1974070;':r31838076';10;0
e;1974071;':r31838081';10;0
e;2345626;':r34518218';10;0
e;2949027;':r72596909';10;0
e;2949028;':r72596928';10;0
e;2949029;':r72596933';10;0
e;2949031;':r72596961';10;0
e;2949032;':r72596966';10;0
e;1264204;':r2416060';10;0
e;1975364;':r31878979';10;0
e;2345691;':r34520312';10;0
e;3337743;':r34531564';10;0
e;3490500;':r47035377';10;0
e;3680555;':r28865824';10;0
e;3680804;':r28865624';10;0
e;3681423;':r28865132';10;0
e;17029677;':r368239548';10;0
e;3929010;'dbnary:fra:__ws_2_saladier__nom__1';444;0
e;4223746;'dbnary:fra:__ws_1_saladier__nom__1';444;0
e;131110;'service de table';1;64
e;15419613;'en:dinner set';1;0
e;15419614;'en:dinner service';1;0
e;15419615;'en:dinnerware set';1;0
e;15082608;'en:table service';1;0
e;15429477;'service en salle';1;0
e;160209;'salade de fruits';1;156
e;14960033;'en:fruit salad';1;0
e;234542;'macédoine de fruits';1;50
e;15308499;'Macédoine de fruits';1;0
e;9749541;'mug cake au chocolat';1;0
e;2078527;'saladiers';2;0
e;437987;'salade méchouia';1;50
e;3707001;'manger du pop-corn';1;0
e;11997812;'mélanger la salade';1;0
e;14636951;'salade iceberg';1;0
e;14753100;'tasses à café';1;0
e;223259;'cul de poule';666;54
e;244100;'sauce vinaigrette';1;6
e;16601622;'::&gt;66:116477&gt;24:14491339';8;0;'personne [peut] remuer [endroit] saladier'
e;15050547;'en:vinaigrette';1;0
e;15312302;'en corolle';1;0
e;15424949;'à pattes d'eph';1;0
e;583183;'second&gt;171869';1;0;'second&gt;Adj:'
e;95038;'corner';1;158
e;267957;'être remué';1;50
e;15224607;'en:pizza base';1;0
e;7030783;'en:lettuce';1;0
e;273150;'Salade de Taupe';777;50
e;4684;'cul-de-poule';1;50
e;215337;'gloubi-boulga';1;50
e;275938;'idiotisme gastronomique';777;50
e;5829482;'terre cuite provençale';777;0
e;4859216;'Damper';777;0
e;16913768;'salade de carottes râpées';777;0
e;437988;'salade mechouiya';777;50
e;152552;'Cuisine';1;156
e;230235;'romaine&gt;28216';1;52;'romaine&gt;romain'
rt;0;'r_associated';'idée associée';Il est demandé d'énumérer les termes les plus étroitement associés au mot cible... Ce mot vous fait penser à quoi ?
rt;1;'r_raff_sem';'raffinement sémantique';Raffinement sémantique vers un usage particulier du terme source
rt;3;'r_domain';'domaine';Il est demandé de fournir des domaines relatifs au mot cible. Par exemple, pour 'corner', on pourra donner les domaines 'football' ou 'sport'.
rt;4;'r_pos';'POS';Partie du discours (Nom, Verbe, Adjectif, Adverbe, etc.)
rt;6;'r_isa';'générique';Il est demandé d'énumérer les GENERIQUES/hyperonymes du terme. Par exemple, 'animal' et 'mammifère' sont des génériques de 'chat'.
rt;11;'r_locution';'locution';A partir d'un terme, il est demandé d'énumérer les locutions, expression ou mots composés en rapport avec ce terme. Par exemple, pour 'moulin', ou pourra avoir 'moulin à vent', 'moulin à eau', 'moulin à café'. Pour 'vendre', on pourra avoir 'vendre la peau de l'ours avant de l'avoir tué', 'vendre à perte', etc..
rt;13;'r_agent';'action&gt;agent';L'agent (qu'on appelle aussi le sujet) est l'entité qui effectue l'action, OU la subit pour des formes passives ou des verbes d'état. Par exemple, dans - Le chat mange la souris -, l'agent est le chat. Des agents typiques de 'courir' peuvent être 'sportif', 'enfant',... (manger r_agent chat)
rt;14;'r_patient';'action&gt;patient';Le patient (qu'on appelle aussi l'objet) est l'entité qui subit l'action. Par exemple dans - Le chat mange la souris -, le patient est la souris. Des patients typiques de manger peuvent être 'viande', 'légume', 'pain', ... (manger r_patient pain)
rt;15;'r_lieu';'chose&gt;lieu';Il est demandé d'énumérer les LIEUX typiques où peut se trouver le terme/objet en question. (carotte r_lieu potager)
rt;16;'r_instr';'action&gt;instrument';L'instrument est l'objet avec lequel on fait l'action. Dans - Il mange sa salade avec une fourchette -, fourchette est l'instrument. Des instruments typiques de 'tuer' peuvent être 'arme', 'pistolet', 'poison', ... (couper r_instr couteau)
rt;17;'r_carac';'caractéristique';Pour un terme donné, souvent un objet, il est demandé d'en énumérer les CARACtéristiques (adjectifs) possibles/typiques. Par exemple, 'liquide', 'froide', 'chaude', pour 'eau'.
rt;18;'r_data';'r_data';Informations diverses (plutôt d'ordre lexicales)
rt;19;'r_lemma';'r_lemma';Le lemme (par exemple 'mangent a pour lemme  'manger' ; 'avions' a pour lemme 'avion' ou 'avoir').
rt;23;'r_carac-1';'caractéristique-1';Quels sont les objets (des noms) possédant typiquement/possiblement la caractérisque suivante ? Par exemple, 'soleil', 'feu', pour 'chaud'.
rt;24;'r_agent-1';'agent typique-1';Que peut faire ce SUJET ? (par exemple chat =&gt; miauler, griffer, etc.) (chat r_agent-1 manger)
rt;25;'r_instr-1';'instrument&gt;action';L'instrument est l'objet avec lequel on fait l'action. Dans - Il mange sa salade avec une fourchette -, fourchette est l'instrument. On demande ici, ce qu'on peut faire avec un instrument donné... (scie r_instr-1 scier)
rt;26;'r_patient-1';'patient-1';(inverse de r_patient) Que peut-on faire à cet OBJET. Pour 'pomme', on pourrait avoir 'manger', 'croquer', couper', 'éplucher',  etc. (pomme r_patient-1 manger)
rt;27;'r_domain-1';'domaine-1';inverse de r_domain : à un domaine, on associe des termes
rt;28;'r_lieu-1';'lieu&gt;chose';A partir d'un lieu, il est demandé d'énumérer ce qui peut typiquement s'y trouver. Par exemple : Paris r_lieu-1 tour Eiffel
rt;30;'r_lieu_action';'lieu&gt;action';A partir d'un lieu, énumérer les actions typiques possibles dans ce lieu.
rt;31;'r_action_lieu';'action&gt;lieu';A partir d'une action (un verbe), énumérer les lieux typiques possibles où peut être réalisée cette action.
rt;32;'r_sentiment';'sentiment';Pour un terme donné, évoquer des mots liés à des SENTIMENTS ou des EMOTIONS que vous pourriez associer à ce terme. Par exemple, la joie, le plaisir, le dégoût, la peur, la haine, l'amour, l'indifférence, l'envie, avoir peur, horrible, etc.
rt;35;'r_meaning/glose';'glose/sens/signification';Quels SENS/SIGNIFICATIONS pouvez vous donner au terme proposé. Il s'agira de termes (des gloses) évoquant chacun des sens possibles, par exemple : 'forces de l'ordre', 'contrat d'assurance', 'police typographique', ... pour 'police'.
rt;36;'r_infopot';'information potentielle';Information sémantique potentielle
rt;66;'r_chunk_head';'r_chunk_head';
rt;73;'r_is_smaller_than';'est plus petit que';Qu'est-ce qui est physiquement plus gros que... (la comparaison doit être pertinente)
rt;74;'r_is_bigger_than';'est plus gros que';Qu'est-ce qui est physiquement moins gros que... (la comparaison doit être pertinente)
rt;115;'r_sentiment-1';'sentiment-1';Pour un SENTIMENT ou EMOTION donné, il est demandé dénumérer les termes que vous pourriez associer. Par exemple, pour 'joie', on aurait 'cadeau', 'naissance', 'bonne nouvelle', etc.
rt;128;'r_node2relnode-in';'r_node2relnode-in';Relation entre un noeud (quelconque) et un noeud de relation (type = 10)  - connecte le noeud d'entrée - permet de rendre le graphe connexe même avec les annotations de relations
rt;140;'r_node2relnode-out';'r_node2relnode-out';Relation entre un noeud (quelconque) et un noeud de relation (type = 10) - connecte le noeud de sortie - permet de rendre le graphe connexe même avec les annotations de relations
rt;170;'r_sing_form';'r_sing_from';La forme au singulier d'un terme. Exemple : chevaux r_sing_from cheval (pas de relation inverse)
rt;333;'r_translation';'r_translation';Traduction vers une autre langue.
rt;444;'r_link';'r_link';Lien vers une ressource externe (WordNet, RadLex, UMLS, Wikipedia, etc...)
rt;555;'r_cooccurrence';'r_cooccurrence';co-occurences (non utilisée)
rt;666;'r_aki';'r_aki';(TOTAKI) equivalent pour TOTAKI de l'association libre
rt;777;'r_wiki';'r_wiki';Associations issues de wikipedia...
rt;999;'r_inhib';'r_inhib';relation d'inhibition, le terme inhibe les termes suivants... ce terme a tendance à exclure le terme associé.
rt;2000;'r_raff_sem-1';'r_raff_sem-1';Inverse de r_raff_sem (automatique)
r;24040118;45455;239128;0;1000000
r;74038465;45455;2983124;555;12404
r;9181574;45455;223173;36;399
r;72596978;45455;34519;24;185
r;11315608;45455;118908;28;180
r;33742413;45455;28453;32;165
r;43989327;45455;104789;28;152
r;43989417;45455;59122;28;152
r;43989326;45455;141110;28;142
r;104969039;45455;14330;32;133
r;104969040;45455;91691;32;133
r;43989206;45455;24372;28;132
r;44044846;45455;145443;28;132
r;2180228;45455;89628;0;131
r;44044844;45455;217289;28;131
r;11335888;45455;47740;28;128
r;44044830;45455;141687;28;123
r;43989328;45455;13260;28;122
r;44044835;45455;86754;28;122
r;43989329;45455;37201;28;121
r;43989330;45455;52221;28;121
r;43989415;45455;111055;28;121
r;44044838;45455;215004;28;121
r;18555484;45455;217334;28;116
r;409163;45455;118908;0;112
r;44044832;45455;149389;28;111
r;44044834;45455;22138;28;111
r;44044840;45455;248795;28;111
r;44044841;45455;139597;28;111
r;44044847;45455;157203;28;111
r;9206595;45455;241794;36;110
r;43989194;45455;115796;28;102
r;43989331;45455;31570;28;102
r;409162;45455;130949;0;101
r;43989333;45455;31280;28;101
r;368245445;45455;14491340;66;100
r;288903142;45455;95708;28;91
r;288903149;45455;1570164;28;91
r;43989416;45455;57980;28;82
r;43989419;45455;61977;28;81
r;44044836;45455;88883;28;81
r;11329895;45455;146402;28;79
r;9314713;45455;254876;36;78
r;44044828;45455;112671;28;71
r;44044831;45455;116947;28;71
r;44044842;45455;228064;28;71
r;288781121;45455;110127;28;71
r;288903284;45455;132757;28;71
r;2284782;45455;145405;0;61
r;288903220;45455;220491;28;61
r;288903297;45455;240391;28;61
r;289406183;45455;97140;28;61
r;2181154;45455;36327;0;60
r;1421493;45455;171870;4;60
r;31838076;45455;23178;17;60
r;34518218;45455;149153;28;59
r;2181153;45455;144497;0;58
r;31760430;45455;1970810;11;58
r;31838066;45455;82147;17;58
r;331574;45455;45455;19;58
r;43611491;45455;89628;35;55
r;51316;45455;146885;4;54
r;61457152;45455;2530404;28;54
r;411193;45455;59122;0;53
r;2181155;45455;82147;0;53
r;31838071;45455;155050;28;53
r;93663377;45455;3757738;11;51
r;288781123;45455;220974;28;51
r;288903216;45455;166250;28;51
r;288903218;45455;166482;28;51
r;288903222;45455;92353;28;51
r;288903289;45455;439671;28;51
r;288903295;45455;90637;28;51
r;288903334;45455;332397;28;51
r;289406181;45455;264343;28;51
r;289406185;45455;154575;28;51
r;289406194;45455;11704;28;51
r;289406196;45455;140416;28;51
r;289406197;45455;139790;28;51
r;31838081;45455;45711;30;51
r;61457043;45455;2476040;28;47
r;54141271;45455;2586627;4;45
r;54180391;45455;2586629;4;45
r;104937919;45455;141971;28;44
r;88973457;45455;108150;0;43
r;43612054;45455;2354924;1;40
r;11312116;45455;263317;28;40
r;11312154;45455;316963;28;40
r;11325507;45455;251490;28;40
r;43611581;45455;108150;35;40
r;43609874;45455;191667;36;40
r;43611614;45455;217817;36;40
r;47300449;45455;214275;0;39
r;11330242;45455;256310;28;39
r;419560253;45455;15280261;11;38
r;11333184;45455;242575;28;38
r;11335720;45455;237936;28;38
r;61456962;45455;2374565;28;38
r;72560816;45455;55044;28;38
r;43608968;45455;214275;3;37
r;72596933;45455;36922;17;37
r;390460745;45455;14960036;333;36
r;47584301;45455;246870;0;35
r;43611611;45455;2354923;1;35
r;90902840;45455;3576104;18;35
r;390460751;45455;14960037;333;35
r;28442757;45455;151940;28;34
r;394417594;45455;15280260;333;34
r;3108058;45455;47740;0;32
r;72596909;45455;377;17;32
r;28871123;45455;1754475;28;32
r;77924069;45455;162763;36;32
r;9344212;45455;153624;0;30
r;9344951;45455;146402;0;30
r;72596928;45455;27008;17;30
r;90033270;45455;3575927;18;30
r;72596966;45455;29690;24;30
r;72596960;45455;68460;26;30
r;72596961;45455;71325;26;30
r;373070021;45455;26206;26;30
r;28864340;45455;1731944;28;30
r;28871094;45455;1731943;28;30
r;28871072;45455;1731870;28;29
r;28871087;45455;383986;28;29
r;28871107;45455;1754476;28;29
r;3108084;45455;237936;0;28
r;47363811;45455;247812;17;28
r;18499801;45455;589308;28;28
r;395441991;45455;15456845;333;28
r;78252655;45455;3228593;444;28
r;47300452;45455;16033;0;27
r;28864362;45455;237068;28;27
r;47584303;45455;251565;0;26
r;43608851;45455;16033;3;26
r;43609417;45455;251565;6;26
r;43609640;45455;246870;6;26
r;373014661;45455;130626;17;26
r;373014662;45455;119260;17;26
r;373014664;45455;39720;17;26
r;477530477;45455;36962;17;26
r;477558863;45455;61892;17;26
r;31879442;45455;195334;28;26
r;34523624;45455;266532;28;26
r;380394138;45455;37151;30;26
r;427417969;45455;438949;36;26
r;368239515;45455;14491341;0;25
r;368239567;45455;14491343;0;25
r;415434882;45455;15456845;0;25
r;415810576;45455;15280260;0;25
r;415994694;45455;14960037;0;25
r;415994696;45455;14960036;0;25
r;418316991;45455;124771;0;25
r;418316992;45455;140318;0;25
r;498438599;45455;50759433;0;25
r;498438603;45455;50759434;0;25
r;418316995;45455;130949;3;25
r;418316989;45455;171869;4;25
r;418316990;45455;2586628;4;25
r;371178807;45455;316850;6;25
r;376315164;45455;7620882;6;25
r;477558862;45455;70729;17;25
r;515085310;45455;15312303;17;25
r;390460748;45455;14916413;18;25
r;418316993;45455;172435;18;25
r;376173016;45455;327734;25;25
r;376183244;45455;164356;25;25
r;376188368;45455;129587;25;25
r;368239546;45455;14491342;28;25
r;375719625;45455;14491343;28;25
r;375723615;45455;14300605;28;25
r;380297940;45455;1731868;28;25
r;470958216;45455;15340415;28;25
r;470958220;45455;15340416;28;25
r;470980641;45455;191777;28;25
r;470992901;45455;14919685;28;25
r;473027674;45455;16677412;28;25
r;478820463;45455;14300603;28;25
r;486662913;45455;15220149;28;25
r;497632361;45455;140039;28;25
r;515238824;45455;7288150;28;25
r;515251830;45455;14964890;28;25
r;515251858;45455;15220154;28;25
r;525323157;45455;320857;28;25
r;531534542;45455;71745;28;25
r;368239490;45455;14491335;30;25
r;368239502;45455;125556;30;25
r;380393765;45455;103846;30;25
r;380397349;45455;251488;30;25
r;380401720;45455;251639;30;25
r;380402261;45455;111795;30;25
r;380404171;45455;14304604;30;25
r;380405362;45455;14491339;30;25
r;380405363;45455;14491337;30;25
r;380405364;45455;14491344;30;25
r;380406229;45455;14718976;30;25
r;514555958;45455;16601624;30;25
r;498438600;45455;50759433;35;25
r;498438604;45455;50759434;35;25
r;418316994;45455;15991432;36;25
r;475572427;45455;276096;36;25
r;498438598;45455;50233540;36;25
r;376097194;45455;241744;73;25
r;9314714;45455;254877;36;22
r;76611813;45455;223421;28;21
r;470992931;45455;15220079;28;19
r;470993044;45455;15105529;28;19
r;12022489;45455;317329;36;16
r;31878984;45455;162759;36;16
r;9900840;45455;89628;6;13
r;9902736;45455;130949;6;13
r;534652248;45455;104863760;28;12
r;418316996;45455;142367;0;11
r;5192850;45455;103256;777;10
r;5192851;45455;142246;777;10
r;25041122;45455;405087;777;10
r;110690484;45455;30539;777;10
r;366289044;45455;12725466;777;10
r;366289045;45455;275203;777;10
r;366289046;45455;151578;777;10
r;366289047;45455;103658;777;10
r;366289048;45455;226741;777;10
r;366289049;45455;123696;777;10
r;366289050;45455;2520797;777;10
r;366289051;45455;228540;777;10
r;366289052;45455;425641;777;10
r;366289053;45455;159948;777;10
r;366289054;45455;1978453;777;10
r;366289055;45455;143415;777;10
r;366289056;45455;2369036;777;10
r;366289057;45455;42456;777;10
r;366289058;45455;140784;777;10
r;366289059;45455;62677;777;10
r;366289060;45455;5677776;777;10
r;366289061;45455;145840;777;10
r;366289062;45455;73274;777;10
r;366289063;45455;144916;777;10
r;366289064;45455;141240;777;10
r;366289065;45455;80138;777;10
r;366289066;45455;141220;777;10
r;366289067;45455;68659;777;10
r;366289068;45455;11844;777;10
r;366289069;45455;131224;777;10
r;414470987;45455;15904020;777;10
r;414470989;45455;15835542;777;10
r;437339520;45455;101572;777;10
r;437339521;45455;103210;777;10
r;22736271;45455;1270258;140;5
r;22701612;45455;237937;999;5
r;285329526;45455;251566;999;5
r;285329562;45455;251564;999;5
r;22930801;45455;1308294;140;4
r;370745085;45455;14590545;140;4
r;1668930;45455;89628;666;4
r;76409122;45455;3172696;6;3
r;97404442;45455;237;6;3
r;104936640;45455;4332566;28;3
r;104940356;45455;119128;28;3
r;253495308;45455;6967593;28;3
r;470997363;45455;16601621;28;3
r;368239584;45455;14491345;140;3
r;1668932;45455;118908;666;3
r;17857328;45455;37151;0;2
r;515260831;45455;115250;73;2
r;76431414;45455;3174249;140;2
r;428352556;45455;16310759;140;2
r;438788426;45455;16677512;140;2
r;1668931;45455;23178;666;2
r;1668935;45455;36327;666;2
r;285147166;45455;1900553;999;2
r;438788048;45455;16677415;999;2
r;438788079;45455;16677416;999;2
r;50749286;45455;1970810;0;1
r;374171103;45455;316850;0;1
r;77374338;45455;152067;6;1
r;92618635;45455;3186373;28;1
r;31838069;45455;1974068;128;1
r;31838074;45455;1974069;128;1
r;31838079;45455;1974070;128;1
r;31838084;45455;1974071;128;1
r;34518221;45455;2345626;128;1
r;72596912;45455;2949027;128;1
r;72596931;45455;2949028;128;1
r;72596936;45455;2949029;128;1
r;72596964;45455;2949031;128;1
r;72596969;45455;2949032;128;1
r;22701291;45455;1264204;140;1
r;31878983;45455;1975364;140;1
r;34520316;45455;2345691;140;1
r;84309438;45455;3337743;140;1
r;88333083;45455;3490500;140;1
r;91580329;45455;3680555;140;1
r;91582286;45455;3680804;140;1
r;91588483;45455;3681423;140;1
r;453183297;45455;17029677;140;1
r;94312856;45455;3929010;444;1
r;94577818;45455;4223746;444;1
r;1668933;45455;103256;666;1
r;1668934;45455;144497;666;1
r;1668936;45455;82147;666;1
r;1668937;45455;142246;666;1
r;72596974;45455;37151;24;-25
r;222159;131110;45455;0;232
r;405924479;15419613;45455;0;230
r;405924498;15419614;45455;0;230
r;405924517;15419615;45455;0;230
r;405924536;15082608;45455;0;225
r;406658157;15429477;45455;0;135
r;31878979;195334;45455;15;131
r;402296567;15340415;45455;15;130
r;402296821;15340416;45455;15;125
r;47035386;145443;45455;15;121
r;1617065;160209;45455;0;120
r;395681082;14960033;45455;0;120
r;217829866;6967593;45455;15;118
r;2202368;130949;45455;0;101
r;72544050;55044;45455;15;101
r;368239548;14491343;45455;15;100
r;368239505;14491340;45455;0;88
r;2587808;251490;45455;15;88
r;395787018;15105529;45455;15;85
r;2077113;242575;45455;15;83
r;397795909;15220079;45455;15;80
r;412788160;191777;45455;15;77
r;410731891;15220149;45455;15;75
r;47035343;115796;45455;15;71
r;3108703;237936;45455;0;70
r;3172306;251490;45455;0;70
r;395787058;15105529;45455;0;70
r;396860589;7288150;45455;15;70
r;360435;125556;45455;31;70
r;361249;37151;45455;31;67
r;453809986;234542;45455;0;66
r;436095072;15308499;45455;0;65
r;43569325;1970810;45455;6;65
r;218527423;9749541;45455;0;61
r;176886;118908;45455;0;60
r;73567324;223421;45455;15;60
r;397797;164356;45455;16;59
r;11581628;327734;45455;16;59
r;32376553;2078527;45455;19;59
r;331574;45455;45455;19;58
r;93663378;3757738;45455;0;57
r;135270;129587;45455;16;57
r;263988;103846;45455;31;55
r;31760431;1970810;45455;0;54
r;1905342;47740;45455;15;53
r;1913212;237936;45455;15;53
r;2391288;256310;45455;15;53
r;2416060;146402;45455;15;53
r;3200445;118908;45455;15;53
r;8907475;316963;45455;15;53
r;8907734;263317;45455;15;53
r;18551377;217334;45455;15;52
r;12992931;146402;45455;0;51
r;76093000;437987;45455;0;51
r;214548672;3707001;45455;0;51
r;371812988;11997812;45455;0;51
r;373979076;14636951;45455;0;51
r;379288873;14753100;45455;0;51
r;34520312;266532;45455;15;51
r;47035356;111055;45455;15;45
r;47035361;57980;45455;15;45
r;47035380;139597;45455;15;45
r;61022407;2476040;45455;15;45
r;61035431;2374565;45455;15;45
r;368239492;14491339;45455;31;45
r;368239552;14491344;45455;31;45
r;47035388;157203;45455;15;42
r;72660188;27008;45455;23;42
r;47035375;22138;45455;15;41
r;47035389;112671;45455;15;41
r;415994695;14960036;45455;0;40
r;423734073;223259;45455;0;40
r;412788623;15220154;45455;15;40
r;412916584;15312303;45455;23;40
r;289371262;2354924;45455;2000;40
r;47035377;88883;45455;15;39
r;61008278;2530404;45455;15;39
r;47035372;149389;45455;15;38
r;97332185;47740;45455;0;37
r;13091437;251565;45455;0;36
r;47035378;215004;45455;15;36
r;47035379;248795;45455;15;36
r;390460746;14960036;45455;333;36
r;2075795;244100;45455;0;35
r;2587758;251488;45455;0;35
r;438969183;16677412;45455;0;35
r;28865624;383986;45455;15;35
r;47035355;52221;45455;15;35
r;97141368;119128;45455;15;35
r;98867441;4332566;45455;15;35
r;72788739;251639;45455;31;35
r;390460752;14960037;45455;333;35
r;289371263;2354923;45455;2000;35
r;87593976;2078527;45455;0;34
r;47035352;13260;45455;15;34
r;47035384;217289;45455;15;34
r;2587754;251488;45455;31;34
r;368239520;14491337;45455;31;34
r;394417595;15280260;45455;333;34
r;72771713;68460;45455;14;32
r;47035354;37201;45455;15;32
r;47035367;61977;45455;15;32
r;72771712;71325;45455;14;31
r;373014674;26206;45455;14;31
r;28863784;237068;45455;15;31
r;47035391;31280;45455;15;31
r;47300451;16033;45455;0;30
r;72665466;34519;45455;13;30
r;72665467;29690;45455;13;30
r;18498142;589308;45455;15;30
r;28442204;151940;45455;15;30
r;28865132;1754475;45455;15;30
r;28865824;1731870;45455;15;30
r;31839103;155050;45455;15;30
r;412781426;14964890;45455;15;30
r;438969170;16677412;45455;15;30
r;47300447;214275;45455;27;30
r;28865300;1754476;45455;15;29
r;47585158;247812;45455;23;29
r;97344813;111795;45455;31;29
r;368927950;1731868;45455;15;28
r;395441992;15456845;45455;333;28
r;47300448;214275;45455;0;27
r;28863995;1731944;45455;15;27
r;47035347;141110;45455;15;27
r;47035364;59122;45455;15;27
r;47035371;116947;45455;15;27
r;47035382;228064;45455;15;27
r;84524469;3186373;45455;15;27
r;96691596;141971;45455;15;27
r;31838161;23178;45455;23;27
r;28865491;1731943;45455;15;26
r;34531564;149153;45455;15;26
r;47035345;24372;45455;15;26
r;47035350;104789;45455;15;26
r;47035368;141687;45455;15;26
r;47035376;86754;45455;15;26
r;47035390;31570;45455;15;26
r;376084014;39720;45455;23;26
r;376084015;119260;45455;23;26
r;376084016;130626;45455;23;26
r;376061079;45711;45455;31;26
r;364096808;14300605;45455;0;25
r;368239495;125556;45455;0;25
r;368239512;14491341;45455;0;25
r;368239519;14491337;45455;0;25
r;368239545;14491342;45455;0;25
r;368239566;14491343;45455;0;25
r;368239576;14491344;45455;0;25
r;415434881;15456845;45455;0;25
r;415810575;15280260;45455;0;25
r;415994693;14960037;45455;0;25
r;435000306;14491339;45455;0;25
r;437680175;16601621;45455;0;25
r;437680219;16601622;45455;0;25
r;368239498;14491340;45455;6;25
r;82237729;71745;45455;15;25
r;364096809;14300605;45455;15;25
r;364424289;14300603;45455;15;25
r;368239544;14491342;45455;15;25
r;405207328;14919685;45455;15;25
r;437680174;16601621;45455;15;25
r;496800770;140039;45455;15;25
r;525241982;320857;45455;15;25
r;364195788;14304604;45455;31;25
r;368239489;14491335;45455;31;25
r;374240419;14718976;45455;31;25
r;437680324;16601624;45455;31;25
r;375276652;241744;45455;74;25
r;514492927;14330;45455;115;25
r;514492928;91691;45455;115;25
r;475873135;2078527;45455;170;25
r;31838162;82147;45455;23;24
r;532102763;104863760;45455;15;22
r;72660187;36922;45455;23;22
r;72660189;377;45455;23;21
r;47300450;16033;45455;27;21
r;431169616;15050547;45455;0;20
r;456922134;15312302;45455;23;20
r;532202057;15424949;45455;23;20
r;364424288;14300603;45455;0;15
r;486364074;583183;45455;23;15
r;364423879;95038;45455;31;15
r;430054689;267957;45455;31;15
r;473697109;115250;45455;74;15
r;419560254;15280261;45455;0;14
r;9900839;89628;45455;0;13
r;496800691;140039;45455;0;10
r;404990598;15224607;45455;15;10
r;442299239;7030783;45455;15;10
r;3543393;273150;45455;777;10
r;4207624;223259;45455;777;10
r;4207625;4684;45455;777;10
r;31574845;215337;45455;777;10
r;112648370;275938;45455;777;10
r;113620879;5829482;45455;777;10
r;290218191;4859216;45455;777;10
r;448404082;220491;45455;777;10
r;448404083;16913768;45455;777;10
r;448404297;220491;45455;0;7
r;76409121;3172696;45455;0;3
r;80461753;437988;45455;0;3
r;289289468;110127;45455;15;3
r;289289472;1570164;45455;15;3
r;289289476;220491;45455;15;3
r;97404441;237;45455;0;2
r;289289469;132757;45455;15;2
r;289289470;332397;45455;15;2
r;289289471;95708;45455;15;2
r;289289473;439671;45455;15;2
r;289289474;90637;45455;15;2
r;289289475;240391;45455;15;2
r;289289477;92353;45455;15;2
r;289289478;166250;45455;15;2
r;289289479;166482;45455;15;2
r;289289483;220974;45455;15;2
r;308229513;11704;45455;15;2
r;308229515;139790;45455;15;2
r;514116279;61892;45455;23;2
r;514133590;36962;45455;23;2
r;78543549;28453;45455;115;2
r;50749279;246870;45455;0;1
r;77374337;152067;45455;0;1
r;82209465;152552;45455;0;1
r;308229512;97140;45455;15;1
r;308229514;140416;45455;15;1
r;308229516;264343;45455;15;1
r;308229517;154575;45455;15;1
r;514167450;70729;45455;23;1
r;82209464;152552;45455;27;1
r;1813879;118908;45455;666;1
r;502204449;230235;45455;15;-5
r;72596857;37151;45455;13;-25
