nt;1;'n_term'
nt;4;'n_pos'
nt;18;'n_data'
nt;36;'n_data_pot'
nt;444;'n_link'
nt;666;'n_AKI'
nt;777;'n_wikipedia'
e;401687;'suis';1;2904
e;239128;'_COM';36;50
e;223173;'_POL-POS';36;50
e;241794;'_POL-NEUTRE';36;50
e;254876;'_POL-POS_PC';36;50
e;1086806;'je suis ton père';777;0
e;62554;'Je ne suis pas un ange';1;68
e;96327;'Je suis';1;50
e;2582164;'va voir ailleurs si j'y suis';1;0
e;1086807;'Je suis ton père';1;0
e;161717;'Ver:IPre+SG+P2';4;50
e;152929;'je suis';1;52
e;230427;'Je ne suis pas un héros';1;2
e;332491;'Là-bas si j'y suis';1;50
e;212235;'Ver:';4;50
e;150117;'Ver:IPre+SG+P1';4;50
e;119555;'Je ne suis pas mort';1;50
e;216550;'Longtemps je me suis couché de bonne heure';1;2
e;249424;'Je suis timide mais je me soigne';666;50
e;273786;'Je suis une légende';777;50
e;13369;'être';1;3931
e;3054272;'suis-je';1;0
e;1664829;'allez voir là-bas si j'y suis';1;0
e;132496;'Je suis partout';1;54
e;1268988;'Je suis Charlie';1;2
e;150116;'Ver:Imp+SG+P2';4;50
e;210222;'allez voir ailleurs si j'y suis';1;50
e;47123;'suivre';1;3102
e;137185;'Je suis partout, la Gerbe, le Cri du peuple, l'OEuvre';1;50
e;27423;'Je suis un chat';1;50
e;15774919;'À peine étais-je arrivé de Heathrow que je suis retourné au bureau.';1;0
e;16059690;'va voir là-bas si j'y suis';1;0
e;15357059;'suis-moi!';1;0
e;14435983;'suis-moi';777;0
e;15573731;'suis mon conseil';1;0
e;16166924;'qui suis';777;0
e;15425938;'pendant que j'y suis';1;0
e;15516498;'merci beaucoup. merci, nous y sommes sensibles. merci, j'y suis sensible';1;0
e;15343534;'je vous suis très redevable';1;0
e;15445570;'je suis à vous';1;0
e;15474555;'je suis à toi';1;0
e;15528208;'je suis vraiment nul';1;0
e;15414313;'je suis votre homme';1;0
e;15474557;'je suis tout à toi';1;0
e;15481187;'je suis sensible à';1;0
e;15399876;'je suis ravie d'avoir de vos nouvelles';1;0
e;15399870;'je suis ravie d'avoir de ses nouvelles';1;0
e;15399878;'je suis ravie d'avoir de leurs nouvelles';1;0
e;17339125;'je suis ravi d'avoir de vos nouvelles';1;0
e;15541815;'je suis ravi d'avoir de ses nouvelles';1;0
e;17339127;'je suis ravi d'avoir de leurs nouvelles';1;0
e;15569049;'je suis pris';1;0
e;15528202;'je suis partante';1;0
e;15497088;'je suis partant';1;0
e;15474556;'je suis né';1;0
e;15361592;'je suis navré que';1;0
e;15361594;'je suis navré de faire';1;0
e;15361590;'je suis navré de';1;0
e;15366301;'je suis mécontent';1;0
e;15835161;'je suis impatient';1;0
e;15543189;'je suis heureux de t'entendre';1;0
e;15376020;'je suis gallois';1;0
e;15366300;'je suis fâché';1;0
e;15385109;'je suis fou, ma parole !';1;0
e;15366299;'je suis en colère';1;0
e;15770676;'je suis désolé pour vous';1;0
e;15528203;'je suis dessus.';1;0
e;16564087;'je suis de votre avis';1;0
e;15521116;'je suis d'accord avec lui';1;0
e;15481184;'je suis conscient de';1;0
e;15356105;'je suis celui qui';1;0
e;15528211;'je suis abasourdi';1;0
e;16323170;'je pense, donc je suis';1;0
e;15455849;'je pense donc je suis';1;0
e;15521110;'je ne vous suis pas';1;0
e;15580471;'je ne te suis pas.';1;0
e;15755068;'je ne suis pas sûr';1;0
e;15488313;'je ne suis pas né de la dernière pluie';1;0
e;15778747;'je ne suis pas donné';1;0
e;15521112;'je ne suis pas d'accord avec vous';1;0
e;15648005;'je ne suis pas d'accord';1;0
e;15366297;'je ne suis pas content';1;0
e;15379219;'je ne suis pas bien';1;0
e;15561420;'je ne comprends pas très bien. Je ne suis pas sûr de bien comprendre. Je ne saisis pas totalement. Je ne l'obtiens pas complétement.';1;0
e;16441479;'je me suis tu';1;0
e;15407078;'je me suis senti bien, j'ai senti que c'était ce qu'il fallait faire, ça a fait du bien';1;0
e;15502748;'je me suis présenté';1;0
e;15536845;'je me suis laissé dire';1;0
e;15352135;'je me suis fait mal au dos';1;0
e;15487812;'je me suis fait bouler';1;0
e;15342118;'je le suis moi-même';1;0
e;15521114;'je le suis';1;0
e;15389503;'j'en suis sûre';1;0
e;15389501;'j'en suis sûr';1;0
e;15363002;'j'en suis persuadé';1;0
e;15389504;'j'en suis fort aise';1;0
e;15389499;'j'en suis ?';1;0
e;15437660;'et je suis gentil';1;0
e;17339123;'Je suis ravi que vous puissiez venir.';1;0
e;17145132;'Je me suis perdu en route.';1;0
e;17185518;'C'est là que je suis né.';1;0
e;17182463;'La Fille que je suis';777;0
e;16781981;'Je suis né en mille neuf cent quatre-vingt-deux.';1;0
e;17032185;'Chlamydia suis';777;0
e;16886790;'Je suis ton meilleur ami';777;0
e;16769912;'Alexandrie de Daniel RondeauetJe suis le gardien du phare d'Éric Faye';777;0
e;16741066;'Je suis content que tu sois venu.';1;0
e;16575986;'Pourquoi je me suis marié aussi';777;0
e;16588437;'Je suis de Verdun/Tenir ou mourir';777;0
e;16575959;'Pourquoi je me suis marié';777;0
e;16534821;'Je me suis rapidement habillé.';1;0
e;16323243;'depuis que je suis ici';1;0
e;16323245;'depuis que je suis arrivé';1;0
e;16391657;'Je suis la fille de Francis Cabrel';777;0
e;16323055;'Je suis bien';777;0
e;16163514;'suis assise';777;0
e;15448581;'dites que je ne suis pas là !';1;0
e;15420292;'depuis que je suis tout petit';1;0
e;16035403;'allez voir si j'y suis';1;0
e;15422696;'Va voir là-bas si j'y suis !';1;0
e;15422695;'Va voir ailleurs si j'y suis !';1;0
e;15402021;'Va voir ailleurs si j'y suis';1;0
e;15500529;'Officieusement {or} 'off the record', je suis d'accord avec vous.';1;0
e;15483951;'Merci beaucoup: je me suis régalé!';1;0
e;15950413;'Je suis vivant et vous êtes morts';777;0
e;15690645;'Je suis sûr que tout ira bien.';1;0
e;15774909;'Je suis revenu à l'hôtel.';1;0
e;15787970;'Je suis né en France.';1;0
e;15885499;'Je suis navré d'apprendre que ...';1;0
e;15693464;'Je suis Pierre Rivière';777;0
e;15763299;'J'y suis allé avec mon père.';1;0
e;15860009;'J'y suis';777;0
e;15404270;'Je vous revaudrai ça ! à charge de revanche! merci ! je suis redevable envers vous';1;0
e;15352635;'Je suis à la recherche d'un emploi.';1;0
e;15523243;'Je suis à court d'argent.';1;0
e;15334829;'Je suis végétarien.';1;0
e;15375670;'Je suis végétalien.';1;0
e;15523245;'Je suis un peu à court d'argent.';1;0
e;15343686;'Je suis un peu rouillé.';1;0
e;15321072;'Je suis un pessimiste.';1;0
e;15254985;'Je suis un grand fan';1;0
e;15317410;'Je suis un auditeur régulier de son émission.';1;0
e;15382053;'Je suis très tenté!';1;0
e;15525277;'Je suis très passionné par le sport.';1;0
e;15489105;'Je suis très mauvais en orthographe.';1;0
e;15378833;'Je suis très déçu.';1;0
e;15481852;'Je suis tombé en descendant l'escalier.';1;0
e;15648592;'Je suis sûr qu'il y a eu une erreur';1;0
e;15526186;'Je suis sujet au rhume des foins.';1;0
e;15402585;'Je suis sous-payé.';1;0
e;15489799;'Je suis soulagé de l'entendre.';1;0
e;15286820;'Je suis sorti samedi soir.';1;0
e;15322378;'Je suis scout.';1;0
e;15530534;'Je suis sans domicile fixe depuis un an.';1;0
e;15361042;'Je suis resté sans voix.';1;0
e;15284389;'Je suis rassuré.';1;0
e;15237659;'Je suis protestant.';1;0
e;15331531;'Je suis pour le désarmement nucléaire.';1;0
e;15475607;'Je suis plutôt moyenne en langues.';1;0
e;15363659;'Je suis payé davantage le dimanche.';1;0
e;15276777;'Je suis parisien depuis peu.';1;0
e;15313209;'Je suis optimiste de nature.';1;0
e;15573479;'Je suis né en 1960.';1;0
e;15569052;'Je suis méthodiste.';1;0
e;15342124;'Je suis moi-même d'opinion que ...';1;0
e;15291255;'Je suis la bienveillance incarnée.';1;0
e;15301981;'Je suis juste passé dire bonjour.';1;0
e;15297858;'Je suis irlandais';1;0
e;15336080;'Je suis intimement convaincu que ...';1;0
e;15319441;'Je suis incapable de les différencier.';1;0
e;15543193;'Je suis heureux de vous l'entendre dire.';1;0
e;15193216;'Je suis fatigué.';1;0
e;15294396;'Je suis fatigué de toutes ces spéculations.';1;0
e;15300090;'Je suis enrhumé.';1;0
e;15315062;'Je suis encore indécis.';1;0
e;15337560;'Je suis en train de le leur expliquer.';1;0
e;15253997;'Je suis en short, il fait délicieusement bon.';1;0
e;15309560;'Je suis en pensionnat {or} internat.';1;0
e;15314416;'Je suis désolé, cette place est réservée.';1;0
e;15276542;'Je suis désolé d'être en retard.';1;0
e;15311317;'Je suis décidé à découvrir la vérité.';1;0
e;15214269;'Je suis du Taureau.';1;0
e;15234933;'Je suis du Scorpion.';1;0
e;15528206;'Je suis diabétique.';1;0
e;15321745;'Je suis complètement crevé!';1;0
e;15569054;'Je suis britannique.';1;0
e;15221959;'Je suis britannique';1;0
e;15293699;'Je suis basé à Monaco.';1;0
e;15528800;'Je suis arrivé à cinq heures.';1;0
e;15499980;'Je suis arrivé dix-neuvième.';1;0
e;15528213;'Je suis anglais.';1;0
e;15299941;'Je suis allé à l'ANPE.';1;0
e;15380241;'Je suis allé dans ma chambre pour défaire mes valises.';1;0
e;15274431;'Je suis allé dans ma chambre pour défaire mes bagages.';1;0
e;15569767;'Je suis allergique aux poils de chat.';1;0
e;15232714;'Je suis Verseau.';1;0
e;15214267;'Je suis Taureau.';1;0
e;15229987;'Je suis Sagittaire.';1;0
e;15234569;'Je suis Gémeaux.';1;0
e;15228386;'Je suis Capricorne.';1;0
e;15227582;'Je suis Bélier.';1;0
e;15292086;'Je ne suis que légèrement surpris.';1;0
e;15265843;'Je ne suis qu'un débutant.';1;0
e;15486035;'Je ne suis pas un faiseur de miracles!';1;0
e;15205712;'Je ne suis pas très musicien.';1;0
e;15329872;'Je ne suis pas très bon en calcul.';1;0
e;15277822;'Je ne suis pas sujet au trac.';1;0
e;15260003;'Je ne suis pas près de lui pardonner.';1;0
e;15404047;'Je ne suis pas partisan des châtiments corporels.';1;0
e;15379034;'Je ne suis pas en très bonne condition physique en ce moment.';1;0
e;15479251;'Je ne suis pas en mesure de faire de commentaires.';1;0
e;15290604;'Je ne suis pas en CDI ici.';1;0
e;15386117;'Je ne suis pas emballé par cette idée.';1;0
e;15400725;'Je ne suis pas du coin.';1;0
e;15307204;'Je ne suis pas devin.';1;0
e;15307202;'Je ne suis pas devin!';1;0
e;15230120;'Je ne suis pas croyant.';1;0
e;15370362;'Je ne sais plus où j'en suis avec les dates.';1;0
e;15293228;'Je ne me suis jamais posé la question.';1;0
e;15363013;'Je n'en suis pas persuadé.';1;0
e;15269702;'Je me suis égratigné la main sur le rosier.';1;0
e;15351429;'Je me suis écorché le genou.';1;0
e;15525639;'Je me suis vraiment bien amusé.';1;0
e;15525641;'Je me suis vraiment beaucoup amusé.';1;0
e;15360467;'Je me suis trompé de numéro.';1;0
e;15360454;'Je me suis trompé dans mes calculs.';1;0
e;15309654;'Je me suis spécialisé en histoire contemporaine.';1;0
e;15407072;'Je me suis senti vraiment bête.';1;0
e;15332896;'Je me suis réveillé à six heures.';1;0
e;15332898;'Je me suis réveillé en retard ce matin.';1;0
e;15313389;'Je me suis réfugié sous un arbre.';1;0
e;15364873;'Je me suis renseigné sur les horaires des trains pour Leeds.';1;0
e;15476579;'Je me suis procuré leur dernier catalogue.';1;0
e;15336546;'Je me suis planté en maths.';1;0
e;15269057;'Je me suis lavé.';1;0
e;15342344;'Je me suis inscrit à l'université de Vienne.';1;0
e;15360553;'Je me suis froissé un muscle à l'entraînement.';1;0
e;15403986;'Je me suis frayé un passage.';1;0
e;15478901;'Je me suis farci la vaisselle.';1;0
e;15375792;'Je me suis fait piquer par des moustiques.';1;0
e;15624421;'Je me suis fait mal au poignet.';1;0
e;15369168;'Je me suis fait envoyer une brochure.';1;0
e;15383401;'Je me suis ennuyé à mourir.';1;0
e;15277287;'Je me suis endormi devant la télé.';1;0
e;15211954;'Je me suis débarrassé de mon vieux frigo.';1;0
e;15313477;'Je me suis cogné à la table.';1;0
e;15386137;'Je me suis cogné le coude contre la porte.';1;0
e;15386133;'Je me suis cogné la tête.';1;0
e;15313479;'Je me suis cogné contre un meuble.';1;0
e;15348310;'Je me suis cassé la clavicule.';1;0
e;15572941;'Je me suis assuré que la porte était fermée à clé.';1;0
e;15216495;'Je me suis assis sur un rocher.';1;0
e;15471733;'Je me suis arrêté pour reprendre mon souffle.';1;0
e;15288868;'Je me suis acheté un jogging rose.';1;0
e;15575498;'Je me ronge les ongles quand je suis nerveux.';1;0
e;15478904;'Je me le suis farci toute la soirée.';1;0
e;15286065;'Je m'en suis sorti sans une égratignure.';1;0
e;15257193;'J'y suis allé pour lui faire plaisir.';1;0
e;15581413;'J'ai complètement pété les plombs. Je suis devenu fou.';1;0
e;15316700;'Il s'est arrêté subitement et je lui suis rentré dedans.';1;0
e;15319392;'Honnêtement, je ne suis au courant de rien.';1;0
e;15259024;'Finalement, je me suis énervé.';1;0
e;15396373;'Dire que je suis déçu serait un euphémisme.';1;0
e;15255974;'Coucou, je suis rentré!';1;0
e;15403678;'... je suis d'accord là-dessus';1;0
e;15385767;'j'en suis quasiment sûr que ...';1;0
e;10676380;'Est-ce que tu me suis';777;0
e;10590206;'Je suis l'enfant-soleil';777;0
e;10590207;'Je suis l'enfant-soleil par Anne-Marie David';777;0
e;8689676;'Je suis une légende&gt;100640';1;0;'Je suis une légende&gt;roman'
e;8689675;'Je suis une légende&gt;29592';1;0;'Je suis une légende&gt;film'
e;15246507;'La porte a claqué et je me suis retrouvé enfermé dehors.';1;0
e;15336072;'je suis convaincu que ...';1;0
e;5559057;'infection à Streptococcus suis';777;0
e;10144886;'Je suis un criminel';777;0
e;5557289;'Je suis à toi';777;0
e;2946892;'Ver:Conjug';4;0
e;2935005;'VerbalTime:Present';4;0
e;10159938;'Je suis avec toi';777;0
e;2355199;'_OCC-IGNORE';36;0
e;11179281;'Je suis mort mais j'ai des amis';777;0
e;11179190;'Je suis un soldat';777;0
e;5971355;'Suisse ou suis';777;0
e;10497834;'Je me suis fait tout petit';777;0
e;10458643;'Je suis chez moi';777;0
e;10185849;'Je suis un sentimental';777;0
e;10097040;'Je suis supporter du Standard';777;0
e;10188361;'Je suis bien content';777;0
e;10188381;'Je suis Spartacus !';777;0
e;5901603;'Gloups ! je suis un poisson';777;0
e;5810723;'Streptococcus suis';777;0
e;223172;'_POL-NEG';36;50
e;15330898;'je suis obligé';1;0
e;15330904;'je suis bien obligé';1;0
e;15330233;'je me suis décidé tout d'un coup';1;0
e;15323834;'considérer que je ne suis pas partant';1;0
e;15281716;'Personnellement, je ne suis pas d'accord.';1;0
e;11590919;'Je suis photogénique';777;0
e;11933662;'je ne suis pas incapable';777;0
e;15254671;'cela m'ennuie fortement de vous dire, je suis au regret de vous dire que, c'est avec contrariété que je dois vous dire';1;0
e;191651;'Ver:Etat';18;50
e;11997806;'Je suis né d'une cigogne';777;0
e;11812398;'je suis pour';777;0
e;10834257;'Je suis un homme';777;0
e;6427931;'infection à brucella suis';1;0
e;5954479;'Je suis votre homme';777;0
e;15329439;'je suis foutu !';1;0
e;10951658;'Je suis malade';777;0
e;10954744;'Brucella suis';1;0
e;10011830;'Je suis un assassin';777;0
e;10031314;'Je suis heureux que ma mère soit vivante';777;0
e;10031323;'Je suis à vous tout de suite';777;0
e;10032798;'Je ne suis pas votre nègre';777;0
e;47732875;'je le suis.';1;0
e;10990152;'Je suis comme ça';777;0
e;6425407;'trypanosoma suis';1;0
e;3576104;'Morpho:nospace';18;50
e;15326214;'je ne suis pas dans mon assiette';1;0
e;11033043;'L'Animal que donc je suis';777;0
e;10871472;'L'Homme que je suis';777;0
e;10732511;'Je suis loin de toi moron';777;0
e;10590236;'Je suis un vrai garçon par Nina Morato';777;0
e;10596904;'Je ne suis pas là pour être aimé';777;0
e;10598362;'J'en suis !';777;0
e;10587698;'Je suis un autarcique';777;0
e;9962501;'Je suis un aventurier';777;0
e;45221465;'Je suis sans nouvelles de lui.';1;0
e;45045050;'Je me suis fait mal au bras.';1;0
e;14270798;'VerbalMode:Impératif';4;0
e;12106851;'streptococcus suis adn';1;0
e;12106852;'streptococcus suis ag';1;0
e;12106853;'streptococcus suis sérotype';1;0
e;11770172;'J'suis snob';777;0
e;10590229;'Je suis un vrai garçon';777;0
e;44858406;'je suis sûr de lui';1;0
e;45414437;'je ne suis pas à même de dire';1;0
e;43387752;'je suis sûr de moi';1;0
e;43473969;'Je suis trop grosse pour porter ça!';1;0
e;6089160;'Je suis un fugitif';777;0
e;6100633;'Je ne suis pas coupable';777;0
e;6100639;'Je suis un évadé';777;0
e;3575927;'Morpho:min';18;50
e;36994249;'au point où j'en suis...';1;0
e;15321750;'je suis crevé';1;0
e;14655271;'Je suis donc très ennuyeux à un dîner ou une fête';777;0
e;12117309;'adn de brucella suis';1;0
e;12117582;'actinobacillus suis';1;0
e;12088745;'actinobacillus suis adn';1;0
e;12088746;'actinobacillus suis sérotype';1;0
e;10672942;'Je suis une nymphomane';777;0
e;10675472;'Je ne suis pas un salaud';777;0
e;10662768;'Je suis ta mémoire';777;0
e;41848093;'je suis très surpris';1;0
e;31071747;'Je suis allé à Londres.';1;0
e;14155827;'Je suis Sam';777;0
e;6384893;'test brucella suis positif';1;0
e;12117050;'adn de streptococcus suis';1;0
e;12117344;'adn d'actinobacillus suis';1;0
e;12117382;'streptococcus suis';1;0
e;12091362;'brucella suis ac';1;0
e;12091363;'brucella suis adn';1;0
e;12091364;'brucella suis arnr';1;0
e;52157070;'Je suis sûr d'avoir raison';1;0
e;40994730;'je suis doué dans ce domaine';1;0
e;40994731;'je suis satisfait de cela';1;0
e;40994735;'je suis de nouveau ici';1;0
e;40994736;'Je suis à nouveau là !';1;0
e;37295370;'J'en suis bien conscient.';1;0
e;35142187;'J'en suis convaincu';1;0
e;34986277;'je suis d'accord avec toi !';1;0
e;34589867;'je me suis fait comprendre';1;0
e;13749940;'isospora suis';1;0
e;13750510;'bifidobacterium suis';1;0
e;13751373;'haematopinus suis';1;0
e;13753620;'brachylaimus suis';1;0
e;13754475;'actinobacillose à actinobacillus suis';1;0
e;13757329;'entamoeba suis';1;0
e;13769936;'suifilaria suis';1;0
e;13771047;'actinomycose à actinomyces suis';1;0
e;13771445;'postharmastomum suis';1;0
e;13774234;'eperythrozoon suis';1;0
e;13781313;'enteromonas suis';1;0
e;13783852;'bacteroides suis';1;0
e;13794638;'actinomyces suis';1;0
e;6285837;'brucella suis';1;0
e;3228593;'wiki:@';444;0
e;276096;'_INFO-WIKI-YES';36;50
e;14270847;'Ver:ImPre+SG+P2';4;0
e;14270942;'VerbalPers:P1';4;0
e;14270943;'VerbalPers:P2';4;0
e;14270945;'VerbalNumber:SG';4;0
e;3093590;'VerbalMode:Indicatif';4;0
e;14008323;'ne suis pas';1;0
e;12150174;'identification d'actinobacillus suis sérotype';1;0
e;12150466;'mesure de brucella suis ac';1;0
e;12150470;'détermination de la présence de brucella suis ac';1;0
e;12150476;'détermination de la présence de brucella suis adn';1;0
e;12150478;'détermination de la présence de brucella suis arnr';1;0
e;12189296;'mesure de streptococcus suis adn';1;0
e;12189298;'détermination de la présence de streptococcus suis ag';1;0
e;12189300;'identification de streptococcus suis sérotype';1;0
e;12196686;'streptococcus suis ac';1;0
e;12197949;'détermination de la présence de brucella suis';1;0
e;12204378;'brucella suis ag';1;0
e;6371284;'brucellose à brucella suis';1;0
e;6347784;'trichomonas suis';1;0
e;6314246;'brucella melitensis biovar suis';1;0
e;254877;'_POL-NEUTRE_PC';36;50
e;104350;'progressif';1;1279
e;573629;'Aspect';1;50
e;11785329;'Indicatif';1;0
e;153749;'Mode';1;2603
e;421547;'accomplie';1;50
e;31641;'avoir';1;3968
e;402552;'Avoir';1;50
e;139431;'Être';1;858
e;142399;'Racine';1;1238
e;164891;'Jean Racine';1;84
e;6492;'Marguerite de Navarre';1;56
e;101571;'copule';1;58
e;226741;'latin tardif';1;18
e;18532;'langues romanes';1;60
e;248140;'latin classique';1;54
e;102382;'latin';1;3606
e;427692;'Latin';1;8
e;30369;'sens';1;3867
e;137971;'Sens';1;1746
e;91643;'morphologique';1;60
e;63291;'infinitif';1;136
e;112007;'semi-auxiliaire';1;56
e;15918;'participe';1;3435
e;79764;'auxiliaire';1;116
e;5560920;'Auxiliaire';1;0
e;116570;'morphologiquement';1;50
e;406612;'Morphologie';1;1539
e;5517123;'tiroir verbal';1;0
e;254878;'_POL-NEG_PC';36;50
e;15684872;'en:I'm all yours';1;0
e;15513766;'en:to put it kindly';1;0
e;15647977;'en:put it kindly';1;0
e;15513763;'en:since I was a little boy/girl';1;0
e;17639204;'en:ever since I was a little boy/girl';1;0
e;15442719;'en:I think';1;0
e;15684868;'en:therefore I am';1;0
e;15594530;'en:I'm your man';1;0
e;31002820;'en:Take a walk!';1;0
e;31002821;'en:Take a hike!';1;0
e;15569768;'en:I'm allergic to cat fur.';1;0
e;15691725;'en:Take a walk! Take a hike!';1;0
e;15476580;'en:I got their latest catalogue.';1;0
e;15543194;'en:I'm pleased to hear you say it.';1;0
e;13775836;'infection à streptococcus suis';1;0
e;15437661;'en:and that's putting it mildly';1;0
e;15414314;'en:I'm your guy';1;0
e;15573480;'en:I was born in 1960.';1;0
e;15569053;'en:I'm a Methodist.';1;0
e;15475608;'en:I'm just average at languages.';1;0
e;15420293;'en:since I was a child';1;0
e;15420294;'en:since I was little';1;0
e;15624422;'en:I've hurt my wrist.';1;0
e;15293700;'en:Monaco is my base.';1;0
e;15787971;'en:I was born in France.';1;0
e;15787972;'en:to France';1;0
e;15319393;'en:Honestly, I don't know anything about it.';1;0
e;15360554;'en:I pulled a muscle when I was training.';1;0
rt;0;'r_associated';'idée associée';Il est demandé d'énumérer les termes les plus étroitement associés au mot cible... Ce mot vous fait penser à quoi ?
rt;4;'r_pos';'POS';Partie du discours (Nom, Verbe, Adjectif, Adverbe, etc.)
rt;11;'r_locution';'locution';A partir d'un terme, il est demandé d'énumérer les locutions, expression ou mots composés en rapport avec ce terme. Par exemple, pour 'moulin', ou pourra avoir 'moulin à vent', 'moulin à eau', 'moulin à café'. Pour 'vendre', on pourra avoir 'vendre la peau de l'ours avant de l'avoir tué', 'vendre à perte', etc..
rt;18;'r_data';'r_data';Informations diverses (plutôt d'ordre lexicales)
rt;19;'r_lemma';'r_lemma';Le lemme (par exemple 'mangent a pour lemme  'manger' ; 'avions' a pour lemme 'avion' ou 'avoir').
rt;36;'r_infopot';'information potentielle';Information sémantique potentielle
rt;444;'r_link';'r_link';Lien vers une ressource externe (WordNet, RadLex, UMLS, Wikipedia, etc...)
rt;777;'r_wiki';'r_wiki';Associations issues de wikipedia...
r;435689247;401687;239128;0;1000000
r;17291346;401687;223173;36;282
r;26426794;401687;241794;36;84
r;26883133;401687;254876;36;70
r;21542956;401687;1086806;11;60
r;14315801;401687;62554;11;60
r;14307313;401687;96327;11;60
r;53205075;401687;2582164;11;59
r;21542738;401687;1086807;11;59
r;14363179;401687;161717;4;59
r;14292391;401687;152929;11;59
r;14272659;401687;230427;11;58
r;14216534;401687;332491;11;58
r;14352658;401687;212235;4;57
r;14352657;401687;150117;4;57
r;14301067;401687;119555;11;57
r;14276183;401687;216550;11;57
r;14268035;401687;249424;11;57
r;14260807;401687;273786;11;57
r;14352656;401687;13369;19;56
r;74946331;401687;3054272;11;55
r;27659809;401687;1664829;11;55
r;14297769;401687;132496;11;55
r;22729942;401687;1268988;11;54
r;14363178;401687;150116;4;54
r;14277693;401687;210222;11;54
r;14363177;401687;47123;19;52
r;14296383;401687;137185;11;52
r;14324693;401687;27423;11;51
r;473283603;401687;15774919;11;50
r;473257115;401687;16059690;11;50
r;472992589;401687;15357059;11;50
r;472992585;401687;14435983;11;50
r;472992581;401687;15573731;11;50
r;472884676;401687;16166924;11;50
r;472819154;401687;15425938;11;50
r;471481743;401687;15516498;11;50
r;471346540;401687;15343534;11;50
r;471345493;401687;15445570;11;50
r;471345487;401687;15474555;11;50
r;471345479;401687;15528208;11;50
r;471345471;401687;15414313;11;50
r;471345463;401687;15474557;11;50
r;471345457;401687;15481187;11;50
r;471345449;401687;15399876;11;50
r;471345441;401687;15399870;11;50
r;471345431;401687;15399878;11;50
r;471345423;401687;17339125;11;50
r;471345415;401687;15541815;11;50
r;471345405;401687;17339127;11;50
r;471345399;401687;15569049;11;50
r;471345393;401687;15528202;11;50
r;471345387;401687;15497088;11;50
r;471345377;401687;15474556;11;50
r;471345371;401687;15361592;11;50
r;471345363;401687;15361594;11;50
r;471345357;401687;15361590;11;50
r;471345351;401687;15366301;11;50
r;471345345;401687;15835161;11;50
r;471345337;401687;15543189;11;50
r;471345331;401687;15376020;11;50
r;471345325;401687;15366300;11;50
r;471345311;401687;15385109;11;50
r;471345305;401687;15366299;11;50
r;471345295;401687;15770676;11;50
r;471345289;401687;15528203;11;50
r;471345281;401687;16564087;11;50
r;471345273;401687;15521116;11;50
r;471345255;401687;15481184;11;50
r;471345249;401687;15356105;11;50
r;471345233;401687;15528211;11;50
r;471345145;401687;16323170;11;50
r;471345121;401687;15455849;11;50
r;471345111;401687;15521110;11;50
r;471345063;401687;15580471;11;50
r;471345049;401687;15755068;11;50
r;471345043;401687;15488313;11;50
r;471345039;401687;15778747;11;50
r;471345029;401687;15521112;11;50
r;471345025;401687;15648005;11;50
r;471345021;401687;15366297;11;50
r;471345017;401687;15379219;11;50
r;471344807;401687;15561420;11;50
r;471344657;401687;16441479;11;50
r;471344645;401687;15407078;11;50
r;471344641;401687;15502748;11;50
r;471344635;401687;15536845;11;50
r;471344627;401687;15352135;11;50
r;471344621;401687;15487812;11;50
r;471344481;401687;15342118;11;50
r;471344479;401687;15521114;11;50
r;471343576;401687;15389503;11;50
r;471343572;401687;15389501;11;50
r;471343568;401687;15363002;11;50
r;471343562;401687;15389504;11;50
r;471343560;401687;15389499;11;50
r;471208302;401687;15437660;11;50
r;471106204;401687;17339123;11;50
r;471106198;401687;17145132;11;50
r;463553135;401687;17185518;11;50
r;462558341;401687;17182463;11;50
r;453771166;401687;16781981;11;50
r;453262787;401687;17032185;11;50
r;443944538;401687;16886790;11;50
r;441213649;401687;16769912;11;50
r;439932186;401687;16741066;11;50
r;439417696;401687;16575986;11;50
r;439410370;401687;16588437;11;50
r;435676019;401687;16575959;11;50
r;434957968;401687;16534821;11;50
r;434383539;401687;16323243;11;50
r;434383531;401687;16323245;11;50
r;433078741;401687;16391657;11;50
r;429693095;401687;16323055;11;50
r;424998016;401687;16163514;11;50
r;419786878;401687;15448581;11;50
r;419772899;401687;15420292;11;50
r;419588739;401687;16035403;11;50
r;419559222;401687;15422696;11;50
r;419559216;401687;15422695;11;50
r;419559210;401687;15402021;11;50
r;419517764;401687;15500529;11;50
r;419506754;401687;15483951;11;50
r;416570370;401687;15950413;11;50
r;414592508;401687;15690645;11;50
r;414592500;401687;15774909;11;50
r;414592494;401687;15787970;11;50
r;414592486;401687;15885499;11;50
r;414592478;401687;15693464;11;50
r;414341732;401687;15763299;11;50
r;414341730;401687;15860009;11;50
r;402275187;401687;15404270;11;50
r;402274273;401687;15352635;11;50
r;402274265;401687;15523243;11;50
r;402274259;401687;15334829;11;50
r;402274253;401687;15375670;11;50
r;402274243;401687;15523245;11;50
r;402274235;401687;15343686;11;50
r;402274229;401687;15321072;11;50
r;402274221;401687;15254985;11;50
r;402274211;401687;15317410;11;50
r;402274205;401687;15382053;11;50
r;402274197;401687;15525277;11;50
r;402274189;401687;15489105;11;50
r;402274183;401687;15378833;11;50
r;402274173;401687;15481852;11;50
r;402274165;401687;15648592;11;50
r;402274155;401687;15526186;11;50
r;402274149;401687;15402585;11;50
r;402274141;401687;15489799;11;50
r;402274131;401687;15286820;11;50
r;402274125;401687;15322378;11;50
r;402274115;401687;15530534;11;50
r;402274107;401687;15361042;11;50
r;402274101;401687;15284389;11;50
r;402274095;401687;15237659;11;50
r;402274087;401687;15331531;11;50
r;402274077;401687;15475607;11;50
r;402274067;401687;15363659;11;50
r;402274057;401687;15276777;11;50
r;402274049;401687;15313209;11;50
r;402274043;401687;15573479;11;50
r;402274037;401687;15569052;11;50
r;402274029;401687;15342124;11;50
r;402274021;401687;15291255;11;50
r;402274009;401687;15301981;11;50
r;402274003;401687;15297858;11;50
r;402273995;401687;15336080;11;50
r;402273987;401687;15319441;11;50
r;402273975;401687;15543193;11;50
r;402273969;401687;15193216;11;50
r;402273959;401687;15294396;11;50
r;402273953;401687;15300090;11;50
r;402273945;401687;15315062;11;50
r;402273935;401687;15337560;11;50
r;402273923;401687;15253997;11;50
r;402273915;401687;15309560;11;50
r;402273903;401687;15314416;11;50
r;402273895;401687;15276542;11;50
r;402273885;401687;15311317;11;50
r;402273879;401687;15214269;11;50
r;402273873;401687;15234933;11;50
r;402273867;401687;15528206;11;50
r;402273859;401687;15321745;11;50
r;402273851;401687;15569054;11;50
r;402273845;401687;15221959;11;50
r;402273837;401687;15293699;11;50
r;402273827;401687;15528800;11;50
r;402273819;401687;15499980;11;50
r;402273813;401687;15528213;11;50
r;402273805;401687;15299941;11;50
r;402273793;401687;15380241;11;50
r;402273781;401687;15274431;11;50
r;402273771;401687;15569767;11;50
r;402273765;401687;15232714;11;50
r;402273759;401687;15214267;11;50
r;402273747;401687;15229987;11;50
r;402273741;401687;15234569;11;50
r;402273735;401687;15228386;11;50
r;402273729;401687;15227582;11;50
r;402273149;401687;15292086;11;50
r;402273145;401687;15265843;11;50
r;402273139;401687;15486035;11;50
r;402273135;401687;15205712;11;50
r;402273129;401687;15329872;11;50
r;402273123;401687;15277822;11;50
r;402273115;401687;15260003;11;50
r;402273107;401687;15404047;11;50
r;402273097;401687;15379034;11;50
r;402273091;401687;15479251;11;50
r;402273085;401687;15290604;11;50
r;402273077;401687;15386117;11;50
r;402273073;401687;15400725;11;50
r;402273069;401687;15307204;11;50
r;402273065;401687;15307202;11;50
r;402273061;401687;15230120;11;50
r;402273033;401687;15370362;11;50
r;402272911;401687;15293228;11;50
r;402272799;401687;15363013;11;50
r;402272523;401687;15269702;11;50
r;402272517;401687;15351429;11;50
r;402272509;401687;15525639;11;50
r;402272501;401687;15525641;11;50
r;402272495;401687;15360467;11;50
r;402253753;401687;15360454;11;50
r;402253745;401687;15309654;11;50
r;402253737;401687;15407072;11;50
r;402253728;401687;15332896;11;50
r;402253720;401687;15332898;11;50
r;402253714;401687;15313389;11;50
r;402253704;401687;15364873;11;50
r;402253694;401687;15476579;11;50
r;402253688;401687;15336546;11;50
r;402253684;401687;15269057;11;50
r;402253676;401687;15342344;11;50
r;402253668;401687;15360553;11;50
r;402253662;401687;15403986;11;50
r;402253656;401687;15478901;11;50
r;402154992;401687;15375792;11;50
r;402154984;401687;15624421;11;50
r;402154976;401687;15369168;11;50
r;402154970;401687;15383401;11;50
r;402154962;401687;15277287;11;50
r;402154954;401687;15211954;11;50
r;402154948;401687;15313477;11;50
r;402154938;401687;15386137;11;50
r;402154932;401687;15386133;11;50
r;402154924;401687;15313479;11;50
r;402154918;401687;15348310;11;50
r;402154906;401687;15572941;11;50
r;402154900;401687;15216495;11;50
r;402154892;401687;15471733;11;50
r;402154884;401687;15288868;11;50
r;402154850;401687;15575498;11;50
r;402154830;401687;15478904;11;50
r;402154750;401687;15286065;11;50
r;402151525;401687;15257193;11;50
r;402120414;401687;15581413;11;50
r;402109388;401687;15316700;11;50
r;400721295;401687;15319392;11;50
r;397509171;401687;15259024;11;50
r;395033598;401687;15396373;11;50
r;395017906;401687;15255974;11;50
r;395008787;401687;15403678;11;50
r;394907585;401687;15385767;11;50
r;270769947;401687;10676380;11;50
r;264465519;401687;10590206;11;50
r;264465509;401687;10590207;11;50
r;162896186;401687;8689676;11;50
r;162895600;401687;8689675;11;50
r;417033099;401687;15246507;11;49
r;471345261;401687;15336072;11;48
r;109947674;401687;5559057;11;47
r;236656065;401687;10144886;11;45
r;109879587;401687;5557289;11;45
r;72423856;401687;2946892;4;45
r;72094410;401687;2935005;4;45
r;238102307;401687;10159938;11;44
r;46669343;401687;2355199;36;44
r;286767215;401687;11179281;11;43
r;286759751;401687;11179190;11;43
r;116946251;401687;5971355;11;43
r;261005003;401687;10497834;11;42
r;258745894;401687;10458643;11;42
r;240917595;401687;10185849;11;42
r;234229194;401687;10097040;11;42
r;241515032;401687;10188361;11;40
r;241514948;401687;10188381;11;40
r;115092839;401687;5901603;11;39
r;113276656;401687;5810723;11;39
r;26537380;401687;223172;36;39
r;471345381;401687;15330898;11;38
r;471345239;401687;15330904;11;38
r;471344613;401687;15330233;11;38
r;419733671;401687;15323834;11;38
r;419524239;401687;15281716;11;38
r;298268424;401687;11590919;11;38
r;307995786;401687;11933662;11;37
r;419692081;401687;15254671;11;36
r;72800649;401687;191651;18;36
r;312733032;401687;11997806;11;35
r;304759568;401687;11812398;11;34
r;270917626;401687;10834257;11;34
r;122711789;401687;6427931;11;34
r;116584350;401687;5954479;11;34
r;87495122;401687;13369;0;34
r;471345319;401687;15329439;11;33
r;275828237;401687;10951658;11;33
r;276021217;401687;10954744;11;32
r;227647380;401687;10011830;11;32
r;227634655;401687;10031314;11;32
r;227634575;401687;10031323;11;32
r;227628897;401687;10032798;11;32
r;497094713;401687;47732875;11;31
r;277576172;401687;10990152;11;31
r;122731337;401687;6425407;11;31
r;90768658;401687;3576104;18;31
r;471345035;401687;15326214;11;30
r;280289191;401687;11033043;11;30
r;272707972;401687;10871472;11;30
r;269463907;401687;10732511;11;30
r;264465316;401687;10590236;11;30
r;264447621;401687;10596904;11;30
r;264444348;401687;10598362;11;30
r;263795222;401687;10587698;11;30
r;221112631;401687;9962501;11;30
r;496560477;401687;45221465;11;29
r;496556442;401687;45045050;11;29
r;361876270;401687;14270798;4;29
r;315508239;401687;12106851;11;29
r;315508234;401687;12106852;11;29
r;315508227;401687;12106853;11;29
r;301896784;401687;11770172;11;29
r;264465374;401687;10590229;11;29
r;496626998;401687;44858406;11;28
r;496615090;401687;45414437;11;28
r;496168047;401687;43387752;11;28
r;496167836;401687;43473969;11;28
r;119662564;401687;6089160;11;28
r;119660892;401687;6100633;11;28
r;119660862;401687;6100639;11;28
r;89790736;401687;3575927;18;28
r;87498152;401687;47123;0;28
r;494664765;401687;36994249;11;27
r;471345267;401687;15321750;11;27
r;372712438;401687;14655271;11;27
r;315688907;401687;12117309;11;27
r;315687038;401687;12117582;11;27
r;315464150;401687;12088745;11;27
r;315430450;401687;12088746;11;27
r;270781191;401687;10672942;11;27
r;270773275;401687;10675472;11;27
r;267330843;401687;10662768;11;27
r;495965003;401687;41848093;11;26
r;492560458;401687;31071747;11;26
r;402273753;401687;14155827;11;26
r;356196934;401687;6384893;11;26
r;315691092;401687;12117050;11;26
r;315688675;401687;12117344;11;26
r;315688487;401687;12117382;11;26
r;315642374;401687;12091362;11;26
r;315642365;401687;12091363;11;26
r;315642356;401687;12091364;11;26
r;499303612;401687;52157070;11;25
r;495968770;401687;40994730;11;25
r;495968759;401687;40994731;11;25
r;495968695;401687;40994735;11;25
r;495968687;401687;40994736;11;25
r;494837358;401687;37295370;11;25
r;494140494;401687;35142187;11;25
r;494079035;401687;34986277;11;25
r;493823829;401687;34589867;11;25
r;486469563;401687;13749940;11;25
r;486467195;401687;13750510;11;25
r;486439243;401687;13751373;11;25
r;486422591;401687;13753620;11;25
r;486418804;401687;13754475;11;25
r;486388596;401687;13757329;11;25
r;485667489;401687;13769936;11;25
r;485648808;401687;13771047;11;25
r;485641697;401687;13771445;11;25
r;485536472;401687;13774234;11;25
r;485432214;401687;13781313;11;25
r;485411635;401687;13783852;11;25
r;485211959;401687;13794638;11;25
r;442716232;401687;6285837;11;25
r;442178554;401687;401687;19;25
r;435810133;401687;3228593;444;25
r;435689402;401687;276096;36;25
r;364325342;401687;14270847;4;25
r;363029703;401687;14270942;4;25
r;362917544;401687;14270943;4;25
r;362917293;401687;14270945;4;25
r;361910114;401687;3093590;4;25
r;353187080;401687;14008323;11;25
r;316725260;401687;12150174;11;25
r;316724444;401687;12150466;11;25
r;316724435;401687;12150470;11;25
r;316724418;401687;12150476;11;25
r;316724401;401687;12150478;11;25
r;316581377;401687;12189296;11;25
r;316581370;401687;12189298;11;25
r;316581356;401687;12189300;11;25
r;316557216;401687;12196686;11;25
r;316551719;401687;12197949;11;25
r;316536269;401687;12204378;11;25
r;302988457;401687;6371284;11;25
r;301691548;401687;6347784;11;25
r;299633576;401687;6314246;11;25
r;26883134;401687;254877;36;21
r;435689396;401687;104350;777;10
r;435689391;401687;573629;777;10
r;435689386;401687;11785329;777;10
r;435689380;401687;153749;777;10
r;435689374;401687;421547;777;10
r;435689366;401687;31641;777;10
r;435689365;401687;402552;777;10
r;435689358;401687;139431;777;10
r;435689351;401687;142399;777;10
r;435689350;401687;164891;777;10
r;435689342;401687;6492;777;10
r;435689337;401687;101571;777;10
r;435689331;401687;226741;777;10
r;435689326;401687;18532;777;10
r;435689320;401687;248140;777;10
r;435689312;401687;102382;777;10
r;435689311;401687;427692;777;10
r;435689302;401687;30369;777;10
r;435689301;401687;137971;777;10
r;435689294;401687;91643;777;10
r;435689289;401687;63291;777;10
r;435689283;401687;112007;777;10
r;435689278;401687;15918;777;10
r;435689271;401687;79764;777;10
r;435689270;401687;5560920;777;10
r;435689260;401687;116570;777;10
r;435689259;401687;406612;777;10
r;435689252;401687;5517123;777;10
r;26883135;401687;254878;36;10
r;471345488;15474555;401687;0;124
r;482143894;15684872;401687;0;120
r;471345494;15445570;401687;0;119
r;471345464;15474557;401687;0;119
r;471208303;15437660;401687;0;112
r;482144007;15513766;401687;0;110
r;419772900;15420292;401687;0;109
r;482143994;15647977;401687;0;105
r;473814942;15513763;401687;0;105
r;471345122;15455849;401687;0;101
r;482144013;17639204;401687;0;100
r;482143912;15442719;401687;0;100
r;482143904;15684868;401687;0;95
r;471345472;15414313;401687;0;81
r;482143944;15594530;401687;0;80
r;74946332;3054272;401687;0;65
r;22729943;1268988;401687;0;60
r;14268036;249424;401687;0;60
r;21542957;1086806;401687;0;57
r;21542739;1086807;401687;0;57
r;14260808;273786;401687;0;57
r;14272660;230427;401687;0;56
r;27659810;1664829;401687;0;55
r;14216535;332491;401687;0;54
r;53205076;2582164;401687;0;53
r;472819155;15425938;401687;0;50
r;471481744;15516498;401687;0;50
r;471345480;15528208;401687;0;50
r;471345458;15481187;401687;0;50
r;471345450;15399876;401687;0;50
r;471345442;15399870;401687;0;50
r;471345432;15399878;401687;0;50
r;471345424;17339125;401687;0;50
r;471345416;15541815;401687;0;50
r;471345406;17339127;401687;0;50
r;471345400;15569049;401687;0;50
r;471345394;15528202;401687;0;50
r;471345388;15497088;401687;0;50
r;471345378;15474556;401687;0;50
r;471345372;15361592;401687;0;50
r;471345364;15361594;401687;0;50
r;471345358;15361590;401687;0;50
r;471345352;15366301;401687;0;50
r;471345346;15835161;401687;0;50
r;471345338;15543189;401687;0;50
r;471345332;15376020;401687;0;50
r;471345326;15366300;401687;0;50
r;471345312;15385109;401687;0;50
r;471345306;15366299;401687;0;50
r;471345296;15770676;401687;0;50
r;471345290;15528203;401687;0;50
r;471345282;16564087;401687;0;50
r;471345274;15521116;401687;0;50
r;471345256;15481184;401687;0;50
r;471345250;15356105;401687;0;50
r;471345234;15528211;401687;0;50
r;471345146;16323170;401687;0;50
r;471345112;15521110;401687;0;50
r;471345064;15580471;401687;0;50
r;471345050;15755068;401687;0;50
r;471345044;15488313;401687;0;50
r;471345040;15778747;401687;0;50
r;471345030;15521112;401687;0;50
r;471345026;15648005;401687;0;50
r;471345022;15366297;401687;0;50
r;471345018;15379219;401687;0;50
r;471344808;15561420;401687;0;50
r;471344658;16441479;401687;0;50
r;471344646;15407078;401687;0;50
r;471344642;15502748;401687;0;50
r;471344636;15536845;401687;0;50
r;471344628;15352135;401687;0;50
r;471344622;15487812;401687;0;50
r;471344482;15342118;401687;0;50
r;471344480;15521114;401687;0;50
r;471343577;15389503;401687;0;50
r;471343573;15389501;401687;0;50
r;471343569;15363002;401687;0;50
r;471343563;15389504;401687;0;50
r;471343561;15389499;401687;0;50
r;471106205;17339123;401687;0;50
r;471106199;17145132;401687;0;50
r;463553136;17185518;401687;0;50
r;462558342;17182463;401687;0;50
r;453771167;16781981;401687;0;50
r;453262788;17032185;401687;0;50
r;443944539;16886790;401687;0;50
r;441213650;16769912;401687;0;50
r;439932187;16741066;401687;0;50
r;439417697;16575986;401687;0;50
r;439410371;16588437;401687;0;50
r;435676020;16575959;401687;0;50
r;434957969;16534821;401687;0;50
r;434383540;16323243;401687;0;50
r;434383532;16323245;401687;0;50
r;433078742;16391657;401687;0;50
r;429693096;16323055;401687;0;50
r;419786879;15448581;401687;0;50
r;419588740;16035403;401687;0;50
r;419559223;15422696;401687;0;50
r;419559217;15422695;401687;0;50
r;419559211;15402021;401687;0;50
r;419517765;15500529;401687;0;50
r;419506755;15483951;401687;0;50
r;416570371;15950413;401687;0;50
r;414592509;15690645;401687;0;50
r;414592501;15774909;401687;0;50
r;414592495;15787970;401687;0;50
r;414592487;15885499;401687;0;50
r;414592479;15693464;401687;0;50
r;414341733;15763299;401687;0;50
r;414341731;15860009;401687;0;50
r;402275188;15404270;401687;0;50
r;402274274;15352635;401687;0;50
r;402274266;15523243;401687;0;50
r;402274260;15334829;401687;0;50
r;402274254;15375670;401687;0;50
r;402274244;15523245;401687;0;50
r;402274236;15343686;401687;0;50
r;402274230;15321072;401687;0;50
r;402274222;15254985;401687;0;50
r;402274212;15317410;401687;0;50
r;402274206;15382053;401687;0;50
r;402274198;15525277;401687;0;50
r;402274190;15489105;401687;0;50
r;402274184;15378833;401687;0;50
r;402274174;15481852;401687;0;50
r;402274166;15648592;401687;0;50
r;402274156;15526186;401687;0;50
r;402274150;15402585;401687;0;50
r;402274142;15489799;401687;0;50
r;402274132;15286820;401687;0;50
r;402274126;15322378;401687;0;50
r;402274116;15530534;401687;0;50
r;402274108;15361042;401687;0;50
r;402274102;15284389;401687;0;50
r;402274096;15237659;401687;0;50
r;402274088;15331531;401687;0;50
r;402274078;15475607;401687;0;50
r;402274068;15363659;401687;0;50
r;402274058;15276777;401687;0;50
r;402274050;15313209;401687;0;50
r;402274044;15573479;401687;0;50
r;402274038;15569052;401687;0;50
r;402274030;15342124;401687;0;50
r;402274022;15291255;401687;0;50
r;402274010;15301981;401687;0;50
r;402274004;15297858;401687;0;50
r;402273996;15336080;401687;0;50
r;402273988;15319441;401687;0;50
r;402273976;15543193;401687;0;50
r;402273970;15193216;401687;0;50
r;402273960;15294396;401687;0;50
r;402273954;15300090;401687;0;50
r;402273946;15315062;401687;0;50
r;402273936;15337560;401687;0;50
r;402273924;15253997;401687;0;50
r;402273916;15309560;401687;0;50
r;402273904;15314416;401687;0;50
r;402273896;15276542;401687;0;50
r;402273886;15311317;401687;0;50
r;402273880;15214269;401687;0;50
r;402273874;15234933;401687;0;50
r;402273868;15528206;401687;0;50
r;402273860;15321745;401687;0;50
r;402273852;15569054;401687;0;50
r;402273846;15221959;401687;0;50
r;402273838;15293699;401687;0;50
r;402273828;15528800;401687;0;50
r;402273820;15499980;401687;0;50
r;402273814;15528213;401687;0;50
r;402273806;15299941;401687;0;50
r;402273794;15380241;401687;0;50
r;402273782;15274431;401687;0;50
r;402273772;15569767;401687;0;50
r;402273766;15232714;401687;0;50
r;402273760;15214267;401687;0;50
r;402273748;15229987;401687;0;50
r;402273742;15234569;401687;0;50
r;402273736;15228386;401687;0;50
r;402273730;15227582;401687;0;50
r;402273150;15292086;401687;0;50
r;402273146;15265843;401687;0;50
r;402273140;15486035;401687;0;50
r;402273136;15205712;401687;0;50
r;402273130;15329872;401687;0;50
r;402273124;15277822;401687;0;50
r;402273116;15260003;401687;0;50
r;402273108;15404047;401687;0;50
r;402273098;15379034;401687;0;50
r;402273092;15479251;401687;0;50
r;402273086;15290604;401687;0;50
r;402273078;15386117;401687;0;50
r;402273074;15400725;401687;0;50
r;402273070;15307204;401687;0;50
r;402273066;15307202;401687;0;50
r;402273062;15230120;401687;0;50
r;402273034;15370362;401687;0;50
r;402272912;15293228;401687;0;50
r;402272800;15363013;401687;0;50
r;402272524;15269702;401687;0;50
r;402272518;15351429;401687;0;50
r;402272510;15525639;401687;0;50
r;402272502;15525641;401687;0;50
r;402272496;15360467;401687;0;50
r;402253754;15360454;401687;0;50
r;402253746;15309654;401687;0;50
r;402253738;15407072;401687;0;50
r;402253729;15332896;401687;0;50
r;402253721;15332898;401687;0;50
r;402253715;15313389;401687;0;50
r;402253705;15364873;401687;0;50
r;402253695;15476579;401687;0;50
r;402253689;15336546;401687;0;50
r;402253685;15269057;401687;0;50
r;402253677;15342344;401687;0;50
r;402253669;15360553;401687;0;50
r;402253663;15403986;401687;0;50
r;402253657;15478901;401687;0;50
r;402154993;15375792;401687;0;50
r;402154985;15624421;401687;0;50
r;402154977;15369168;401687;0;50
r;402154971;15383401;401687;0;50
r;402154963;15277287;401687;0;50
r;402154955;15211954;401687;0;50
r;402154949;15313477;401687;0;50
r;402154939;15386137;401687;0;50
r;402154933;15386133;401687;0;50
r;402154925;15313479;401687;0;50
r;402154919;15348310;401687;0;50
r;402154907;15572941;401687;0;50
r;402154901;15216495;401687;0;50
r;402154893;15471733;401687;0;50
r;402154885;15288868;401687;0;50
r;402154851;15575498;401687;0;50
r;402154831;15478904;401687;0;50
r;402154751;15286065;401687;0;50
r;402151526;15257193;401687;0;50
r;402120415;15581413;401687;0;50
r;402109389;15316700;401687;0;50
r;400721296;15319392;401687;0;50
r;397509172;15259024;401687;0;50
r;395033599;15396373;401687;0;50
r;395017907;15255974;401687;0;50
r;395008788;15403678;401687;0;50
r;394907586;15385767;401687;0;50
r;270769948;10676380;401687;0;50
r;264465520;10590206;401687;0;50
r;264465510;10590207;401687;0;50
r;162896187;8689676;401687;0;50
r;162895601;8689675;401687;0;50
r;14277694;210222;401687;0;50
r;14276184;216550;401687;0;50
r;472884677;16166924;401687;0;49
r;14296384;137185;401687;0;48
r;424998017;16163514;401687;0;46
r;472992590;15357059;401687;0;45
r;472992586;14435983;401687;0;45
r;472992582;15573731;401687;0;45
r;14292392;152929;401687;0;45
r;14307314;96327;401687;0;44
r;14324694;27423;401687;0;43
r;14315802;62554;401687;0;43
r;473283604;15774919;401687;0;42
r;473257116;16059690;401687;0;42
r;14301068;119555;401687;0;41
r;492207780;31002820;401687;0;40
r;492207774;31002821;401687;0;40
r;441670051;15569768;401687;0;40
r;14297770;132496;401687;0;40
r;467700748;15691725;401687;0;30
r;447903512;15476580;401687;0;30
r;428006909;15543194;401687;0;30
r;471346542;15343534;401687;0;29
r;369136541;13775836;401687;0;29
r;236656066;10144886;401687;0;28
r;442178554;401687;401687;19;25
r;417033100;15246507;401687;0;25
r;471345262;15336072;401687;0;24
r;238102309;10159938;401687;0;23
r;109947675;5559057;401687;0;23
r;491850493;15437661;401687;0;20
r;491398294;15414314;401687;0;20
r;491167368;15573480;401687;0;20
r;456941993;15569053;401687;0;20
r;432189464;15475608;401687;0;20
r;286767217;11179281;401687;0;19
r;286759752;11179190;401687;0;19
r;261005004;10497834;401687;0;18
r;258745897;10458643;401687;0;18
r;240917596;10185849;401687;0;18
r;234229195;10097040;401687;0;18
r;241515033;10188361;401687;0;16
r;241514949;10188381;401687;0;16
r;471345382;15330898;401687;0;14
r;471345240;15330904;401687;0;14
r;471344614;15330233;401687;0;14
r;419733672;15323834;401687;0;14
r;419524240;15281716;401687;0;14
r;298268427;11590919;401687;0;14
r;109879588;5557289;401687;0;14
r;307995787;11933662;401687;0;13
r;419692082;15254671;401687;0;12
r;312733033;11997806;401687;0;11
r;473814952;15420293;401687;0;10
r;473814947;15420294;401687;0;10
r;447867665;15624422;401687;0;10
r;436647529;15293700;401687;0;10
r;432317838;15787971;401687;0;10
r;432317833;15787972;401687;0;10
r;431007807;15319393;401687;0;10
r;428715673;15360554;401687;0;10
r;304759569;11812398;401687;0;10
r;270917627;10834257;401687;0;10
r;116946252;5971355;401687;0;10
r;116584351;5954479;401687;0;10
r;471345320;15329439;401687;0;9
r;275828238;10951658;401687;0;9
r;276021218;10954744;401687;0;8
r;227647381;10011830;401687;0;8
r;227634657;10031314;401687;0;8
r;227634576;10031323;401687;0;8
r;227628898;10032798;401687;0;8
r;115092840;5901603;401687;0;8
r;497094714;47732875;401687;0;7
r;277576173;10990152;401687;0;7
r;471345036;15326214;401687;0;6
r;280289192;11033043;401687;0;6
r;272707973;10871472;401687;0;6
r;269463909;10732511;401687;0;6
r;264465317;10590236;401687;0;6
r;264447622;10596904;401687;0;6
r;264444350;10598362;401687;0;6
r;263795223;10587698;401687;0;6
r;221112632;9962501;401687;0;6
r;113276657;5810723;401687;0;6
r;496560478;45221465;401687;0;5
r;496556443;45045050;401687;0;5
r;315508240;12106851;401687;0;5
r;315508235;12106852;401687;0;5
r;315508228;12106853;401687;0;5
r;301896785;11770172;401687;0;5
r;264465375;10590229;401687;0;5
r;496626999;44858406;401687;0;4
r;496615091;45414437;401687;0;4
r;496168048;43387752;401687;0;4
r;496167837;43473969;401687;0;4
r;119662565;6089160;401687;0;4
r;119660893;6100633;401687;0;4
r;119660863;6100639;401687;0;4
r;494664766;36994249;401687;0;3
r;471345268;15321750;401687;0;3
r;372712439;14655271;401687;0;3
r;315688908;12117309;401687;0;3
r;315687039;12117582;401687;0;3
r;315464151;12088745;401687;0;3
r;315430452;12088746;401687;0;3
r;270781192;10672942;401687;0;3
r;270773276;10675472;401687;0;3
r;267330845;10662768;401687;0;3
r;495965004;41848093;401687;0;2
r;492560459;31071747;401687;0;2
r;402273754;14155827;401687;0;2
r;356196935;6384893;401687;0;2
r;315691093;12117050;401687;0;2
r;315688676;12117344;401687;0;2
r;315688488;12117382;401687;0;2
r;315642375;12091362;401687;0;2
r;315642366;12091363;401687;0;2
r;315642357;12091364;401687;0;2
r;499303613;52157070;401687;0;1
r;495968771;40994730;401687;0;1
r;495968760;40994731;401687;0;1
r;495968696;40994735;401687;0;1
r;495968688;40994736;401687;0;1
r;494837359;37295370;401687;0;1
r;494140495;35142187;401687;0;1
r;494079036;34986277;401687;0;1
r;493823830;34589867;401687;0;1
r;486469564;13749940;401687;0;1
r;486467196;13750510;401687;0;1
r;486439244;13751373;401687;0;1
r;486422592;13753620;401687;0;1
r;486418805;13754475;401687;0;1
r;486388597;13757329;401687;0;1
r;485667490;13769936;401687;0;1
r;485648809;13771047;401687;0;1
r;485641698;13771445;401687;0;1
r;485536473;13774234;401687;0;1
r;485432215;13781313;401687;0;1
r;485411636;13783852;401687;0;1
r;485211960;13794638;401687;0;1
r;442716233;6285837;401687;0;1
r;353187081;14008323;401687;0;1
r;316725261;12150174;401687;0;1
r;316724445;12150466;401687;0;1
r;316724436;12150470;401687;0;1
r;316724419;12150476;401687;0;1
r;316724402;12150478;401687;0;1
r;316581378;12189296;401687;0;1
r;316581371;12189298;401687;0;1
r;316581357;12189300;401687;0;1
r;316557217;12196686;401687;0;1
r;316551720;12197949;401687;0;1
r;316536270;12204378;401687;0;1
r;302988458;6371284;401687;0;1
r;301691549;6347784;401687;0;1
r;299633577;6314246;401687;0;1
r;122731338;6425407;401687;0;1
r;122711790;6427931;401687;0;1
