nt;1;'n_term'
nt;2;'n_form'
nt;4;'n_pos'
nt;10;'n_relation'
nt;14;'n_synt_function'
nt;18;'n_data'
nt;36;'n_data_pot'
nt;666;'n_AKI'
nt;777;'n_wikipedia'
e;134228;'u';1;3597
e;223173;'_POL-POS';36;50
e;108218;'voyelle';1;2561
e;28453;'bonheur';1;2806
e;241794;'_POL-NEUTRE';36;50
e;254876;'_POL-POS_PC';36;50
e;143767;'a';1;2559
e;86686;'e';1;3855
e;64657;'i';1;3603
e;137993;'o';1;2929
e;112765;'y';1;3895
e;107303;'z';1;3107
e;81188;'f';1;3655
e;14330;'satisfaction';1;628
e;91691;'surprise';1;2394
e;5876582;':r114416068';10;0
e;161237;'U';1;3603
e;268420;'ü';1;50
e;268422;'u majuscule';1;50
e;123457;'w';1;2005
e;146886;'Nom:Mas+InvPL';4;50
e;214516;'lettre&gt;214515';1;492;'lettre&gt;lettre de l'alphabet'
e;268419;'Ü';1;50
e;145994;'lettre';1;6828
e;128832;'v';1;3705
e;2585997;'_INFO-CNRTL-NO';36;50
e;5876318;':r114414647';10;0
e;268421;'U majuscule';1;50
e;5876240;':r114414227';10;0
e;5876314;':r114414627';10;0
e;5876316;':r114414637';10;0
e;5876566;':r114415982';10;0
e;5876568;':r114415992';10;0
e;5876580;':r114416058';10;0
e;5876584;':r114416078';10;0
e;171870;'Nom:';4;50
e;2586627;'Gender:Mas';4;0
e;2586637;'Number:Inv';4;0
e;2586630;'Number:Plur';4;0
e;2586629;'Number:Sing';4;0
e;1912917;'_INFO-COUNTABLE-YES';36;0
e;92212;'d';1;3441
e;8662;'s';1;3821
e;195165;'Mephitidae';1;50
e;20053;'q';1;2954
e;4358295;':r96435998';10;0
e;146887;'Nom:Mas+PL';4;50
e;138936;'Anatidés';1;56
e;46329;'immunité';1;238
e;23157;'linguistique';1;3282
e;102206;'médecine';1;7416
e;151684;'Linguistique';1;376
e;6003272;'Athéna-Fidus';777;0
e;141690;'abréviation';1;2472
e;2511372;'quatres';1;0
e;191678;'_INFO-SEM-SET';36;18
e;273221;'_INFO-WIKI-NO';36;50
e;48316;'th';1;2832
e;141745;'E';1;3812
e;161150;'F';1;3802
e;146885;'Nom:Mas+SG';4;50
e;3575927;'Morpho:min';18;50
e;15094309;'en:u';1;0
e;15090545;'en:U';1;0
e;143768;'A';1;3984
e;1566828;'Moufettes';777;0
e;1566829;'sconses';777;0
e;2839002;'halosaures';777;0
e;2839004;'Halosauridae';777;0
e;3627656;'Anatidae';1;4
e;2839003;'halosauridés';777;0
e;3576104;'Morpho:nospace';18;50
e;140119;'I';1;3833
e;70144;'h';1;3767
e;180839;'alphabet latin';1;50
e;195282;'Boletaceae';1;50
e;16606207;'_INFO-SEM-NODET';36;50
e;11004915;'laou';777;0
e;2576894;'lau';1;0
e;169047;'lo';1;50
e;140025;'ou';1;3924
e;318708;'Simula';1;50
e;194983;'Sim';1;50
e;142265;'la';1;3994
e;580289;'Kimon Georgiev Stoyanov';777;0
e;11417776;'umask';777;0
e;11412044;'mask';1;0
e;6260711;'RuSHA';1;0
e;137285;'R';1;3759
e;163464;'S';1;3789
e;54234;'écriture';1;2432
e;94555;'phonétique';1;2420
e;313545;'sudo';1;50
e;20410;'do';1;2909
e;5714673;'groupement d'intérêt scientifique Marsouin';777;0
e;42383;'m';1;3917
e;14341;'r';1;3505
e;179413;'so';1;899
e;76172;'in';1;3850
e;53006930;'21e lettre de l'alphabet';1;0
e;14489527;'GNDET:';14;50
e;30400880;'?';1;0
e;14916413;'Langue:français';18;50
e;217817;'_INFO-POLYSEMIC';36;50
e;15991432;'_ANIME-NO';36;50
e;50233540;'_INFO-WORDREF-YES';36;50
e;254877;'_POL-NEUTRE_PC';36;50
e;248198;'_SEX_NO';36;50
e;396932;'antérieure';1;1456
e;152834;'fermée';1;1654
e;105675;'antérieur';1;182
e;144569;'fermé';1;2289
e;37298;'amour';1;7179
e;57221;'joie';1;3928
e;118161;'x';1;3883
e;214513;'lettre&gt;40923';1;164;'lettre&gt;courrier'
e;214514;'lettre&gt;33652';1;8;'lettre&gt;police de caractères'
e;6947449;'en:mephitidae';1;0
e;116345;'quatre';1;3797
e;5876239;':r114414221';10;0
e;5876313;':r114414622';10;0
e;5876315;':r114414632';10;0
e;5876317;':r114414642';10;0
e;5876565;':r114415977';10;0
e;5876567;':r114415987';10;0
e;5876579;':r114416053';10;0
e;5876581;':r114416063';10;0
e;5876583;':r114416073';10;0
e;10060553;':r226762680';10;0
e;317329;'_POLIT_7NOPOL';36;50
e;317324;'_POLIT_3PS';36;50
e;317325;'_POLIT_4MD';36;50
e;317322;'_POLIT_1ECO';36;50
e;317326;'_POLIT_5UMP';36;50
e;317323;'_POLIT_2PG';36;50
e;317327;'_POLIT_6FN';36;50
e;165772;'V';1;3749
e;214515;'lettre de l'alphabet';1;348
e;102345;'plaisir';1;3745
e;62830;'voyelles';1;2372
e;144184;'Y';1;3194
e;138276;'n';1;3787
e;75606;'g';1;3460
e;97577;'c';1;3577
e;2500702;'c.a.s.';1;0
e;2491631;'c.a.c.';1;0
e;59094;'j';1;2692
e;139695;'J';1;3859
e;11002513;'9 dizaines';777;0
e;3488715;'prince de Vaudémont';777;0
e;7224389;'en:mask';1;0
e;2497410;'pontet souscrit';1;0
e;1849682;'crâne cérébral';1;0
e;1850504;'greffe encastrée';1;0
e;1851015;'lévocardiogramme';1;0
e;1851647;'périnée obstétrical';1;0
e;1852369;'télangiectasie héréditaire hémorragique de Rendu-Osler';1;0
e;2579038;'Obere Hueb';777;0
e;2366649;'classiciste';1;8
e;2380646;'fusterie';1;0
e;2396012;'pyrochimie';1;0
e;2401866;'académicité';1;0
e;2407441;'mère Noël';1;0
e;2408943;'atonien';1;0
e;2410294;'dési';1;0
e;2411412;'zétamétrie';1;0
e;2415346;'neurodéveloppemental';1;2
e;2416439;'garde-salle';1;0
e;2420190;'ancraophobie';1;0
e;2424082;'porte-bouchoir';1;0
e;2425012;'antiphernal';1;0
e;2426511;'zeitgeist';1;0
e;2427938;'embassure';1;0
e;2427823;'survivantiste';1;0
e;2428860;'court-côté';1;0
e;2428962;'porter la parole';1;0
e;2429882;'prérime';1;0
e;2431872;'protogènes';1;0
e;2434886;'salplicat';1;0
e;2440110;'sadiste';1;0
e;2440273;'décurionat';1;0
e;2440150;'sannes';1;0
e;2443932;'wordsworthien';1;0
e;2445425;'fantine';1;0
e;2448468;'luddiste';1;0
e;2450413;'borochoir';1;0
e;2457663;'shabanou';1;0
e;2458354;'nikkudot';1;0
e;2459341;'saurographie';1;0
e;16610930;'Norvia';777;0
e;2464742;'subrégional';1;0
e;2468928;'kadine';1;0
e;2473543;'diasporométrie';1;0
e;2474360;'proche survivant';1;0
e;2475361;'éléphantographie';1;0
e;2476676;'Gard provençal';1;0
e;2478032;'saphiste';1;0
e;2479942;'didynamie';1;0
e;2481517;'contre-lames';1;0
e;2484506;'doggy bag';1;2
e;2484618;'mesure palliative';1;0
e;2485428;'stylographie';1;0
e;2486428;'ophthalmothèque';1;0
e;2486600;'martenitsa';1;0
e;2487156;'mardaïte';1;0
e;16684684;'Tau Ceti f';777;0
e;2488556;'carive';1;0
e;2492325;'désencerclement';1;0
e;2495042;'reconjoindre';1;0
e;2495790;'antisexiste';1;0
e;2499029;'obélia';1;0
e;2504687;'trèche';1;0
e;2507674;'Ter Apelkanaal';1;0
e;2509692;'huzvaresch';1;0
e;2510852;'perpétrateur';1;0
e;2513928;'qutbiste';1;0
e;2517144;'zone de fumage';1;0
e;2516879;'mornier';1;0
e;2517931;'myiologie';1;0
e;2520624;'alcarraza';1;0
e;2523113;'mirliro';1;0
e;2525518;'républicophile';1;0
e;2525877;'sansho';1;0
e;2527001;'ptérygographie';1;0
e;2527395;'serbocroate';1;0
e;2527950;'discrimination légale';1;0
e;2529518;'rhodographie';1;0
e;2529958;'hépatomphale';1;0
e;2532087;'atoniste';1;0
e;2549003;'Bété';1;0
e;2560693;'semicoke';1;0
e;2562072;'rouge-aile';1;0
e;2568777;'plessimétrie';1;0
e;2570602;'çakta';1;0
e;4177385;'il y a assez à faire de regarder ce qui cuit dans sa marmite sans aller regarder ce qui cuit dans celle du voisin';1;0
e;16908667;'Skyway Monte Bianco';777;0
e;17012931;'langage libre';777;0
e;17234381;'La Cruesa';777;0
e;5686661;'Fédération des Alliances françaises du Brésil';777;0
e;5810993;'viticulture en Grande-Bretagne';777;0
e;465096;'Team CSC Saxo Bank';777;50
e;465095;'CSC-World Online';777;50
e;9903985;'vases faits d'argile';777;0
e;9946479;'Armée du Mississippi';777;0
e;181475;'château de transport';1;50
e;181623;'combustible mox';1;50
e;182253;'effluent radioactif';1;50
e;183652;'petite bière';1;22
e;9981422;'Dead Lesbian and the Fibrillating Scissor Sisters';777;0
e;10057748;'périodes perses dans l'Égypte antique';777;0
e;11175403;'Béziers Méditerranée Transports';777;0
e;112624;'entre';1;3932
e;10622942;'Lou Cameron';777;0
e;10516759;'Rodd Charlottetown';777;0
e;11325076;'David Phelps';777;0
e;11325072;'Candidat du parti démocrate au poste de gouverneur';777;0
e;11325073;'Rod Blagojevich';777;0
e;13635873;'Abu al-Abbas Ahmad ibn Khalid al-Nasiri al-Salawi';777;0
e;13989527;'Le Royaume des chats';777;0
e;39870;'endocrinologiste';1;50
e;3488714;'Cardinal de Vaudémont';777;0
e;1163082;'tous publics';1;0
e;1163083;'tout public';1;0
e;15455824;'en:suitable for all';1;0
e;15455823;'en:suitable for all audiences';1;0
e;16878309;'en:telangiectasia hereditaria haemorrhagica';1;0
e;15091483;'en:doggy bag';1;0
e;11102383;'tramway de Dunkerque';777;0
e;5996890;'Olly';1;0
e;5991172;'Laurence Borremans';777;0
e;11081799;'P. J. McBrine';777;0
e;5705531;'Pour tous les articles des personnes portant ce prénom';777;0
e;5688290;'Simon Jablonka';777;0
e;11505666;'Député de South Cambridgeshire';777;0
e;5535740;'batailles de Khotin';777;0
e;5535411;'batailles de Breitenfeld';777;0
e;11412145;'Sept-Saints';777;0
e;11407659;'Plaza Fuerza Aérea Argentina';777;0
e;5070734;'You Never Can Tell';1;0
e;15083794;'en:O';1;0
e;102360;'liste';1;3794
e;16828947;'en:obstetrical perineum';1;0
e;16848553;'en:levocardiogram';1;0
e;15286805;'en:inlay graft';1;0
e;62664;'proton';1;512
e;46048;'baryon';1;60
e;129895;'fermions';1;52
e;102314;'polonais';1;2753
e;20351;'magnésium';1;130
e;124092;'fer';1;3780
e;275645;'alphabet romain';777;50
e;117384;'cobalt';1;92
e;132312;'digramme';1;50
e;66054;'carien';1;50
e;121441;'zinc';1;182
e;58515;'deutérium';1;56
e;97893;'deuton';1;50
e;147766;'deutéron';1;50
e;180632;'accent circonflexe';1;28
e;23594;'circonflexe';1;84
e;167217;'cyanotrichite';1;50
e;52340;'Yunnan';1;54
e;47262;'lazulite';1;50
e;22457;'fermion';1;112
e;316591;'fausse diphtongue';1;50
e;219522;'numération romaine';1;50
e;272782;'chiffres romains';777;50
e;163218;'chiffre romain';1;64
e;280233;'American Standard Code for Information Interchange';777;50
e;77701;'ASCII';1;64
e;272546;'Pierre de La Ramée';777;50
e;103469;'Petrus Ramus';1;50
e;409424;'Ech';1;50
e;462114;'esh';777;50
e;2502013;'strangelet';1;0
e;4934124;'langues mandingues';1;0
e;71872;'saveur';1;256
e;2168712;'digrammes';2;0
e;2299028;'trigrammes';2;0
e;166287;'ordre alphabétique';1;86
e;11010151;'brève inversée souscrite';777;0
e;2386074;'brève renversée souscrite';1;0
e;11010295;'standardisation et uniformisation de l'orthographe des langues nationales du Zaïre';777;0
e;11069091;'1re division aéroportée britannique';777;0
e;2569290;'quark strange';1;4
e;2549884;'quark étrange';1;0
e;2501832;'quark s';1;0
e;11400802;'orthographe du français';777;0
e;9852;'Wasquehal';1;50
e;14158110;'alphabet anglais';777;0
e;59431;'Canopus';1;50
e;1782580;'Carinae';1;0
e;26349;'Nylon';1;50
e;15380192;'does not cite any sources';777;0
e;16311392;'Pierre de la Ramée';777;0
e;5536212;'Cette section ne cite pas suffisamment ses sources';777;0
e;16714899;'rectangle souscrit';777;0
e;16714900;'carré souscrit';777;0
e;16714902;'pontet suscrit';777;0
e;16714903;'pontet en chef';777;0
e;16714909;'accent en croix';777;0
e;16714910;'x en chef';777;0
e;16714911;'crochet rhotique';777;0
e;16714912;'de rhotacisme';777;0
e;16714913;'de rhotacisation';777;0
e;16714916;'angle gauche en chef';777;0
e;16714917;'angle gauche en chef à droite';777;0
e;16714918;'angle gauche suscrit à droite';777;0
e;318773;'ligne verticale';1;50
e;16385298;'ligne verticale basse';777;0
e;16714930;'oméga souscrit';777;0
e;16714931;'w souscrit';777;0
e;544;'ligure';1;50
e;69036;'ligurien';1;50
e;16774520;'övu';777;0
e;16774521;'peive';777;0
e;287283;'san';777;50
e;62634;'can';1;2096
e;1880;'sen';1;54
e;130803;'epsilon';1;152
e;566816;'epsilon latin';777;50
e;349716;'e ouvert';1;50
e;14935968;'en:epsilon';1;0
e;6012397;'HD 53143';777;0
e;7305920;'en:quark';1;0
e;55580;'braille';1;70
e;8733427;'en:braille';1;0
e;16821582;'YUOV';1;0
e;224092;'Zapotèque';666;2
e;64181;'neutron';1;570
e;11128855;'Division de la codification';777;0
e;9012227;'Chris Pond';777;0
e;307062;'Bilancella ligure';777;50
e;304136;'Ibn Zeydoun';777;50
e;293849;'C. Flaminius Nepos';777;50
e;15952163;'Jeu du ricochets';777;0
e;229798;'komsomol';666;50
e;12640522;'transport en Islande';777;0
e;286395;'Besson Chaussures-Sojasun';777;50
e;11248256;'Guigues IV';777;0
e;1298659;'cyberculture';1;0
e;11937171;'Liu Wenhui';777;0
e;241537;'Catalina';666;50
e;11225863;'métro de Vienne';777;0
e;11975914;'François II Lacroix';777;0
e;11975915;'Évêque de Bayonne';777;0
e;9253317;'Fulbert Petit';777;0
e;5904784;'Ctenochaetus';1;0
e;102500;'sursol';1;50
e;93508;'thermogramme';1;52
e;87017;'volumétrie';1;50
e;83451;'guimper';1;50
e;79388;'ganglioneurome';1;50
e;65778;'pangermanique';1;50
e;65243;'serbo-croate';1;50
e;64310;'cagoulard';1;50
e;14631684;'doivent donc figurer obligatoirement les marques de certification';777;0
e;192;'Transylvanie';1;80
e;122874;'pontonnier';1;50
e;121560;'pailleux';1;50
e;111695;'sous-évaluer';1;50
e;2998;'t';1;3870
e;103109;'b';1;3697
e;3344239;'intersite';1;0
e;5189;'Stevin';1;50
e;4894272;'Peu après la Seconde Guerre mondiale';777;0
e;13628415;'Thyrefeld';777;0
e;11063517;'RST';1;0
e;125420;'Zhu Rongji';1;50
e;594081;'BGN';1;0
e;310883;'CSC-Tiscali';777;50
e;14757563;'La morocosmie';777;0
e;1890194;'Écu';1;0
e;290692;'La Mégane Berline';777;50
e;14915395;'Direct Download / DDL';777;0
e;3624;'combinable';1;50
e;5002;'circonstanciel';1;50
e;5516;'glyphe';1;72
e;6745;'sloop';1;72
e;13625;'quadrige';1;50
e;15324;'vocalique';1;52
e;19363;'sabordage';1;66
e;24740;'nilpotent';1;64
e;28524;'quark';1;124
e;30912;'kart';1;104
e;31876;'lift';1;56
e;32393;'homomorphisme';1;50
e;32553;'hiragana';1;52
e;32622;'stupa';1;50
e;36484;'inserm';1;50
e;48089;'chrominance';1;50
e;54076;'vamp';1;88
e;69244;'surjectif';1;50
e;73509;'diphtongaison';1;90
e;102057;'translater';1;50
e;43127;'suçon';1;50
e;38693;'cystinose';1;50
e;38292;'indécence';1;152
e;35422;'nasonner';1;50
e;34589;'salut olympique';1;50
e;30623;'néoclassicisme';1;60
e;19943;'vigneau';1;50
e;18471;'névrodermite';1;50
e;17605;'confucianiste';1;50
e;17400;'hygiéniste';1;52
e;15762;'pilorier';1;50
e;13623;'tréfiler';1;50
e;13479;'estuarien';1;50
e;10081;'gestationnel';1;50
e;9387;'gabarier';1;50
e;8134;'alitement';1;50
e;7783;'Algarve';1;62
e;6575;'Conseil des Anciens';1;50
e;4645;'emmieller';1;52
e;1830;'anticolonial';1;50
e;1313;'couchure';1;50
e;143817;'AI';1;50
e;186012;'encore faut-il';1;50
e;184797;'vitrification de déchets radioactifs';1;50
e;183153;'matrice de conditionnement';1;50
e;182264;'emballage extérieur de matières radioactives';1;50
e;171575;'in corpore';1;50
e;147618;'byronien';1;50
e;1703082;'BiC';1;0
e;2299452;'trivialisation';1;0
e;2414616;'lipschitzien';1;0
e;83855;'sujet';1;3621
e;10186161;'tramway de Lisbonne';777;0
e;12203857;'2. Commune fusionnée de Bad Bergzabern';777;0
e;12203861;'6. Commune fusionnée de Maikammer';777;0
e;12203859;'4. Commune fusionnée de Herxheim';777;0
e;12203860;'5. Commune fusionnée du pays de Landau';777;0
e;14271074;'Abu al-Jaysh Khumarawaih ibn Ahmad ibn Tulun';777;0
e;14482886;'chaise d'évacuation';777;0
e;14780208;'Omolú';777;0
e;2601475;'Remoray';1;0
e;14891898;'Mk IB';777;0
e;3770019;'hairpinning';1;0
e;15013463;'tabla-siku';777;0
e;15018400;'MiG-17PFU';777;0
e;10440086;'Zenga';1;0
e;212714;'Maori';666;10
e;16509729;'Lumiere';777;0
e;1829656;'cataracte capsulaire congénitale';1;0
e;1830504;'colonne bambou';1;0
e;1831822;'dermocosmétologie';1;0
e;1833011;'endophénotype';1;0
e;1833485;'exophénotype';1;0
e;1836173;'hypertyrosinémie';1;0
e;1836964;'interne en pharmacie';1;0
e;1837384;'koniosystème';1;0
e;1838262;'magnosystème';1;0
e;1838357;'parent maltraitant';1;0
e;1839863;'nud lymphoïde';1;0
e;1842287;'profondeur anatomique du sacrum';1;0
e;1843249;'rayonnement rétrodiffusé';1;0
e;1843496;'relâchement interphasique';1;0
e;1848034;'ventricule du cur';1;0
e;1848452;'maladie de Weber-Rendu-Osler';1;0
e;1849227;'blastème métanéphrogénique';1;0
e;1796178;'Perlis';1;0
rt;0;'r_associated';'idée associée';Il est demandé d'énumérer les termes les plus étroitement associés au mot cible... Ce mot vous fait penser à quoi ?
rt;3;'r_domain';'domaine';Il est demandé de fournir des domaines relatifs au mot cible. Par exemple, pour 'corner', on pourra donner les domaines 'football' ou 'sport'.
rt;4;'r_pos';'POS';Partie du discours (Nom, Verbe, Adjectif, Adverbe, etc.)
rt;6;'r_isa';'générique';Il est demandé d'énumérer les GENERIQUES/hyperonymes du terme. Par exemple, 'animal' et 'mammifère' sont des génériques de 'chat'.
rt;9;'r_has_part';'partie';Il faut donner des PARTIES/constituants/éléments (a pour méronymes) du mot cible. Par exemple, 'voiture' a comme parties : 'porte', 'roue', 'moteur', ...
rt;10;'r_holo';'tout';Il est démandé d'énumérer des 'TOUT' (a pour holonymes)  de l'objet en question. Pour 'main', on aura 'bras', 'corps', 'personne', etc... Le tout est aussi l'ensemble comme 'classe' pour 'élève'.
rt;17;'r_carac';'caractéristique';Pour un terme donné, souvent un objet, il est demandé d'en énumérer les CARACtéristiques (adjectifs) possibles/typiques. Par exemple, 'liquide', 'froide', 'chaude', pour 'eau'.
rt;18;'r_data';'r_data';Informations diverses (plutôt d'ordre lexicales)
rt;19;'r_lemma';'r_lemma';Le lemme (par exemple 'mangent a pour lemme  'manger' ; 'avions' a pour lemme 'avion' ou 'avoir').
rt;20;'r_has_magn';'magn';La magnification ou amplification, par exemple - forte fièvre - ou - fièvre de cheval - pour fièvre. Ou encore - amour fou - pour amour, - peur bleue - pour peur.
rt;21;'r_has_antimagn';'antimagn';L'inverse de la magnification, par exemple - bruine - pour pluie.
rt;22;'r_family';'famille';Des mots de la même famille lexicale sont demandés (dérivation morphologique, par exemple). Par exemple, pour 'lait' on pourrait mettre 'laitier', 'laitage', 'laiterie', etc.
rt;23;'r_carac-1';'caractéristique-1';Quels sont les objets (des noms) possédant typiquement/possiblement la caractérisque suivante ? Par exemple, 'soleil', 'feu', pour 'chaud'.
rt;27;'r_domain-1';'domaine-1';inverse de r_domain : à un domaine, on associe des termes
rt;32;'r_sentiment';'sentiment';Pour un terme donné, évoquer des mots liés à des SENTIMENTS ou des EMOTIONS que vous pourriez associer à ce terme. Par exemple, la joie, le plaisir, le dégoût, la peur, la haine, l'amour, l'indifférence, l'envie, avoir peur, horrible, etc.
rt;35;'r_meaning/glose';'glose/sens/signification';Quels SENS/SIGNIFICATIONS pouvez vous donner au terme proposé. Il s'agira de termes (des gloses) évoquant chacun des sens possibles, par exemple : 'forces de l'ordre', 'contrat d'assurance', 'police typographique', ... pour 'police'.
rt;36;'r_infopot';'information potentielle';Information sémantique potentielle
rt;41;'r_has_conseq';'conséquence';B (que vous devez donner) est une CONSEQUENCE possible de A. A et B sont des verbes ou des noms.  Exemples : tomber -&gt; se blesser ; faim -&gt; voler ; allumer -&gt; incendie ; négligence --&gt; accident ; etc.
rt;42;'r_has_causatif';'cause';B (que vous devez donner) est une CAUSE possible de A. A et B sont des verbes ou des noms.  Exemples : se blesser -&gt; tomber ; vol -&gt; pauvreté ; incendie -&gt; négligence ; mort --&gt; maladie ; etc.
rt;115;'r_sentiment-1';'sentiment-1';Pour un SENTIMENT ou EMOTION donné, il est demandé dénumérer les termes que vous pourriez associer. Par exemple, pour 'joie', on aurait 'cadeau', 'naissance', 'bonne nouvelle', etc.
rt;128;'r_node2relnode-in';'r_node2relnode-in';Relation entre un noeud (quelconque) et un noeud de relation (type = 10)  - connecte le noeud d'entrée - permet de rendre le graphe connexe même avec les annotations de relations
rt;130;'r_is_instance_of';'est une instance de';Une instance est un individu particulier. Il s'agit d'une entité nommée (personne, lieu, organisation, etc) - par exemple, 'Jolly Jumper' est une instance de 'cheval', 'Titanic' en est une de 'transatlantique'.
rt;140;'r_node2relnode-out';'r_node2relnode-out';Relation entre un noeud (quelconque) et un noeud de relation (type = 10) - connecte le noeud de sortie - permet de rendre le graphe connexe même avec les annotations de relations
rt;170;'r_sing_form';'r_sing_from';La forme au singulier d'un terme. Exemple : chevaux r_sing_from cheval (pas de relation inverse)
rt;333;'r_translation';'r_translation';Traduction vers une autre langue.
rt;666;'r_aki';'r_aki';(TOTAKI) equivalent pour TOTAKI de l'association libre
rt;777;'r_wiki';'r_wiki';Associations issues de wikipedia...
rt;999;'r_inhib';'r_inhib';relation d'inhibition, le terme inhibe les termes suivants... ce terme a tendance à exclure le terme associé.
r;9316150;134228;223173;36;390
r;9905023;134228;108218;6;113
r;33754865;134228;28453;32;112
r;26203463;134228;241794;36;89
r;11252967;134228;254876;36;81
r;1797322;134228;143767;22;70
r;1797323;134228;86686;22;70
r;1797324;134228;64657;22;70
r;1797325;134228;137993;22;70
r;1797326;134228;112765;22;70
r;1797327;134228;107303;22;70
r;1797328;134228;81188;22;70
r;104433415;134228;14330;32;65
r;104433416;134228;91691;32;65
r;114416071;134228;5876582;128;65
r;3134772;134228;161237;20;60
r;3134769;134228;268420;20;59
r;3134773;134228;268422;20;58
r;3134774;134228;123457;20;57
r;59189;134228;146886;4;56
r;3134768;134228;214516;20;56
r;3134767;134228;268419;20;55
r;3134771;134228;145994;20;55
r;340050;134228;134228;19;54
r;3134775;134228;128832;20;54
r;79966908;134228;2585997;36;54
r;114414650;134228;5876318;128;53
r;3134770;134228;268421;20;52
r;11476086;134228;108218;0;51
r;11476443;134228;214516;0;51
r;114414230;134228;5876240;128;51
r;114414630;134228;5876314;128;51
r;114414640;134228;5876316;128;51
r;114415985;134228;5876566;128;51
r;114415995;134228;5876568;128;51
r;114416061;134228;5876580;128;51
r;114416081;134228;5876584;128;51
r;2273421;134228;171870;4;49
r;54085339;134228;2586627;4;45
r;54087199;134228;2586637;4;45
r;54111716;134228;2586630;4;45
r;54195118;134228;2586629;4;45
r;97723449;134228;145994;6;43
r;30791982;134228;1912917;36;41
r;119871808;134228;92212;0;40
r;119871805;134228;143767;0;35
r;119871809;134228;8662;0;35
r;114414647;134228;195165;9;35
r;14674002;134228;20053;42;35
r;99181459;134228;4358295;128;35
r;15819538;134228;146887;4;34
r;114415992;134228;138936;9;32
r;1351081;134228;46329;0;30
r;15358809;134228;23157;0;30
r;15431483;134228;102206;0;30
r;15701685;134228;151684;0;30
r;119871801;134228;6003272;0;30
r;429004084;134228;141690;0;30
r;96435998;134228;2511372;10;30
r;114414226;134228;191678;36;30
r;214853111;134228;273221;36;30
r;97965785;134228;2511372;0;29
r;119871803;134228;48316;0;29
r;119871804;134228;141745;0;29
r;119871806;134228;161150;0;29
r;15821264;134228;146885;4;29
r;89973537;134228;3575927;18;29
r;395304035;134228;15094309;333;29
r;395304038;134228;15090545;333;29
r;119871802;134228;143768;0;28
r;448529;134228;102206;3;28
r;586279;134228;23157;3;28
r;9903995;134228;214516;6;28
r;114414627;134228;1566828;9;28
r;114414637;134228;1566829;9;28
r;114416058;134228;2839002;9;28
r;114416078;134228;2839004;9;28
r;114415982;134228;3627656;9;27
r;114416068;134228;2839003;9;27
r;90832575;134228;3576104;18;27
r;119871807;134228;140119;0;26
r;396034147;134228;70144;0;26
r;418370440;134228;180839;0;26
r;114414227;134228;195282;9;26
r;478517097;134228;16606207;36;26
r;278420288;134228;11004915;0;25
r;278420289;134228;2576894;0;25
r;278420290;134228;169047;0;25
r;278420291;134228;140025;0;25
r;285611225;134228;318708;0;25
r;285611226;134228;194983;0;25
r;285611227;134228;142265;0;25
r;289448210;134228;580289;0;25
r;293839658;134228;11417776;0;25
r;293839659;134228;11412044;0;25
r;396034144;134228;6260711;0;25
r;396034145;134228;137285;0;25
r;396034146;134228;163464;0;25
r;415505255;134228;15090545;0;25
r;415505257;134228;15094309;0;25
r;418370439;134228;54234;0;25
r;418370442;134228;94555;0;25
r;432726043;134228;313545;0;25
r;432726044;134228;20410;0;25
r;475017292;134228;5714673;0;25
r;475017293;134228;42383;0;25
r;475017294;134228;14341;0;25
r;475017295;134228;179413;0;25
r;475017296;134228;76172;0;25
r;499818524;134228;53006930;0;25
r;418370438;134228;54234;3;25
r;418370441;134228;94555;3;25
r;427599985;134228;14489527;4;25
r;501822800;134228;30400880;17;25
r;395304037;134228;14916413;18;25
r;499818525;134228;53006930;35;25
r;418370436;134228;217817;36;25
r;418370437;134228;15991432;36;25
r;499818523;134228;50233540;36;25
r;475876765;134228;134228;170;25
r;14476422;134228;161237;0;24
r;14462537;134228;268419;0;22
r;14462531;134228;268420;0;21
r;27253616;134228;254877;36;19
r;8478430;134228;108218;20;16
r;2259297;134228;248198;36;16
r;418370443;134228;396932;0;11
r;418370444;134228;152834;0;11
r;418370445;134228;105675;0;11
r;418370446;134228;144569;0;11
r;33522111;134228;37298;32;9
r;33522112;134228;57221;32;9
r;5242554;134228;118161;20;5
r;19272433;134228;214513;999;5
r;19272460;134228;214514;999;5
r;435491073;134228;145994;0;4
r;226762680;134228;6947449;9;4
r;9983905;134228;116345;10;4
r;114414225;134228;5876239;140;4
r;114414626;134228;5876313;140;4
r;114414636;134228;5876315;140;4
r;114414646;134228;5876317;140;4
r;114415981;134228;5876565;140;4
r;114415991;134228;5876567;140;4
r;114416057;134228;5876579;140;4
r;114416067;134228;5876581;140;4
r;114416077;134228;5876583;140;4
r;229361528;134228;10060553;128;3
r;503616807;134228;317329;36;2
r;503616808;134228;317324;36;2
r;503616809;134228;317325;36;1
r;503616811;134228;317322;36;1
r;503616810;134228;317326;36;0
r;505040353;134228;317323;36;0
r;505040354;134228;317327;36;0
r;8857316;134228;165772;20;-5
r;8339151;134228;112765;20;-9
r;15659462;134228;151684;3;-20
r;8345845;134228;214515;20;-39
r;33522110;134228;102345;32;-45
r;398338;62830;134228;0;780
r;430182;64657;134228;0;590
r;415886;86686;134228;0;500
r;1620747;108218;134228;0;441
r;397255;143767;134228;0;405
r;416094;144184;134228;0;370
r;1644237;214516;134228;0;301
r;1629817;138276;134228;0;210
r;1612754;75606;134228;0;180
r;1651240;137993;134228;0;140
r;9292296;75606;134228;22;111
r;1916713;20053;134228;41;90
r;1615394;97577;134228;0;60
r;63292179;2500702;134228;0;60
r;63292790;2491631;134228;0;60
r;359987;116345;134228;9;60
r;95726746;2511372;134228;9;60
r;1700293;42383;134228;0;56
r;96709483;145994;134228;0;54
r;340050;134228;134228;19;54
r;2590059;59094;134228;0;52
r;13994767;139695;134228;0;51
r;114414642;195165;134228;10;49
r;215713186;6947449;134228;10;47
r;114416063;2839003;134228;10;39
r;114415977;3627656;134228;10;35
r;114416053;2839002;134228;10;35
r;15290653;23157;134228;0;34
r;15547296;151684;134228;0;34
r;21114792;46329;134228;0;34
r;119871775;141745;134228;0;34
r;9983904;116345;134228;0;32
r;96435997;2511372;134228;0;32
r;114416073;2839004;134228;10;32
r;119871786;161150;134228;0;31
r;14462536;268419;134228;0;30
r;119871791;140119;134228;0;30
r;114414221;195282;134228;10;30
r;114414622;1566828;134228;10;30
r;119871756;6003272;134228;0;29
r;395304036;15094309;134228;333;29
r;395304039;15090545;134228;333;29
r;14462530;268420;134228;0;28
r;119871761;143768;134228;0;28
r;119871799;92212;134228;0;28
r;114414632;1566829;134228;10;28
r;119871769;48316;134228;0;26
r;119871815;8662;134228;0;26
r;114415987;138936;134228;10;26
r;278420279;2576894;134228;0;25
r;278420282;11004915;134228;0;25
r;278420286;169047;134228;0;25
r;278420295;140025;134228;0;25
r;278424742;11002513;134228;0;25
r;280120837;3488715;134228;0;25
r;285611220;318708;134228;0;25
r;285611223;194983;134228;0;25
r;285611230;142265;134228;0;25
r;289448209;580289;134228;0;25
r;293839655;11417776;134228;0;25
r;293839661;11412044;134228;0;25
r;391092901;7224389;134228;0;25
r;396034136;6260711;134228;0;25
r;396034141;137285;134228;0;25
r;396034149;163464;134228;0;25
r;396034154;70144;134228;0;25
r;415505254;15090545;134228;0;25
r;415505256;15094309;134228;0;25
r;432726039;313545;134228;0;25
r;432726047;20410;134228;0;25
r;439239346;2497410;134228;0;25
r;475017271;5714673;134228;0;25
r;475017284;14341;134228;0;25
r;475017290;179413;134228;0;25
r;475017302;76172;134228;0;25
r;435373861;1849682;134228;6;25
r;435380107;1850504;134228;6;25
r;435387845;1851015;134228;6;25
r;435404513;1851647;134228;6;25
r;435410606;1852369;134228;6;25
r;435562261;2579038;134228;6;25
r;435586285;2366649;134228;6;25
r;436292576;2380646;134228;6;25
r;436786891;2396012;134228;6;25
r;437195927;2401866;134228;6;25
r;437255230;2407441;134228;6;25
r;437333227;2408943;134228;6;25
r;437559638;2410294;134228;6;25
r;437576862;2411412;134228;6;25
r;437825213;2415346;134228;6;25
r;437825660;2416439;134228;6;25
r;437836409;2420190;134228;6;25
r;437890359;2424082;134228;6;25
r;437939920;2425012;134228;6;25
r;437944843;2426511;134228;6;25
r;437948752;2427938;134228;6;25
r;437948901;2427823;134228;6;25
r;437950136;2428860;134228;6;25
r;437950226;2428962;134228;6;25
r;437954068;2429882;134228;6;25
r;437966097;2431872;134228;6;25
r;438003724;2434886;134228;6;25
r;438159516;2440110;134228;6;25
r;438160583;2440273;134228;6;25
r;438161039;2440150;134228;6;25
r;438186022;2443932;134228;6;25
r;438521035;2445425;134228;6;25
r;438774293;2448468;134228;6;25
r;438778896;2450413;134228;6;25
r;438816103;2457663;134228;6;25
r;438816896;2458354;134228;6;25
r;438820327;2459341;134228;6;25
r;438826375;16610930;134228;6;25
r;438835176;2464742;134228;6;25
r;438841190;2468928;134228;6;25
r;438856413;2473543;134228;6;25
r;438877123;2474360;134228;6;25
r;438882681;2475361;134228;6;25
r;438899146;2476676;134228;6;25
r;438919215;2478032;134228;6;25
r;438925431;2479942;134228;6;25
r;438928476;2481517;134228;6;25
r;438933939;2484506;134228;6;25
r;438934312;2484618;134228;6;25
r;438935408;2485428;134228;6;25
r;438936711;2486428;134228;6;25
r;438936988;2486600;134228;6;25
r;438944186;2487156;134228;6;25
r;438955516;16684684;134228;6;25
r;438963959;2488556;134228;6;25
r;438969015;2492325;134228;6;25
r;439028605;2495042;134228;6;25
r;439172499;2495790;134228;6;25
r;439425573;2499029;134228;6;25
r;439516717;2504687;134228;6;25
r;439534369;2507674;134228;6;25
r;439608037;2509692;134228;6;25
r;439616631;2510852;134228;6;25
r;439657932;2513928;134228;6;25
r;439667894;2517144;134228;6;25
r;439667895;2516879;134228;6;25
r;439670818;2517931;134228;6;25
r;439682220;2520624;134228;6;25
r;439712956;2523113;134228;6;25
r;439727909;2525518;134228;6;25
r;439730144;2525877;134228;6;25
r;439738973;2527001;134228;6;25
r;439742427;2527395;134228;6;25
r;439742580;2527950;134228;6;25
r;439749931;2529518;134228;6;25
r;439749942;2529958;134228;6;25
r;439755929;2532087;134228;6;25
r;440030854;2549003;134228;6;25
r;440108295;2560693;134228;6;25
r;440109351;2562072;134228;6;25
r;440236795;2568777;134228;6;25
r;440244342;2570602;134228;6;25
r;442603457;4177385;134228;6;25
r;448184205;16908667;134228;6;25
r;452615486;17012931;134228;6;25
r;465409420;17234381;134228;6;25
r;474795073;5686661;134228;6;25
r;475976202;5810993;134228;6;25
r;480030449;465096;134228;6;25
r;480032210;465095;134228;6;25
r;480821956;9903985;134228;6;25
r;481038533;9946479;134228;6;25
r;481612645;181475;134228;6;25
r;481613095;181623;134228;6;25
r;481848012;182253;134228;6;25
r;481877215;183652;134228;6;25
r;482012658;9981422;134228;6;25
r;483556703;10057748;134228;6;25
r;485440097;11175403;134228;6;25
r;489449538;112624;134228;6;25
r;496961132;10622942;134228;6;25
r;513374924;10516759;134228;6;25
r;377003733;268419;134228;21;25
r;377003735;214516;134228;21;25
r;377003736;268420;134228;21;25
r;377003738;268421;134228;21;25
r;377003739;145994;134228;21;25
r;377003741;161237;134228;21;25
r;377003743;268422;134228;21;25
r;377003744;123457;134228;21;25
r;377003746;128832;134228;21;25
r;514490538;14330;134228;115;25
r;514490539;91691;134228;115;25
r;388687300;11325076;134228;130;25
r;388687601;11325072;134228;130;25
r;388687625;11325073;134228;130;25
r;389410106;13635873;134228;130;25
r;389446305;13989527;134228;130;25
r;475876765;134228;134228;170;25
r;417732552;39870;134228;0;23
r;15157887;23157;134228;27;23
r;15211408;102206;134228;27;23
r;280119468;3488714;134228;0;22
r;14476421;161237;134228;0;21
r;15431482;102206;134228;0;21
r;491272540;1163082;134228;0;20
r;491272611;1163083;134228;0;20
r;510501971;15455824;134228;0;20
r;510501999;15455823;134228;0;20
r;444455120;16878309;134228;6;20
r;456950981;15091483;134228;6;20
r;281610150;11102383;134228;0;17
r;296740725;5996890;134228;0;17
r;296743446;5991172;134228;0;17
r;281627292;11081799;134228;0;15
r;294746187;5705531;134228;0;13
r;294751208;5688290;134228;0;13
r;295926231;11505666;134228;0;13
r;294776536;5535740;134228;0;12
r;294776548;5535411;134228;0;12
r;294777919;11412145;134228;0;12
r;294784348;11407659;134228;0;11
r;293093790;5070734;134228;0;10
r;395705590;15083794;134228;0;10
r;505138873;102360;134228;0;10
r;445365958;16828947;134228;6;10
r;445986548;16848553;134228;6;10
r;446475589;15286805;134228;6;10
r;3398917;62664;134228;777;10
r;3402996;46048;134228;777;10
r;3407349;129895;134228;777;10
r;3485578;102314;134228;777;10
r;3839167;20351;134228;777;10
r;3921030;124092;134228;777;10
r;3972430;180839;134228;777;10
r;3972437;275645;134228;777;10
r;4240642;117384;134228;777;10
r;4312373;132312;134228;777;10
r;4572931;66054;134228;777;10
r;4620990;121441;134228;777;10
r;4684560;58515;134228;777;10
r;4684565;97893;134228;777;10
r;4684566;147766;134228;777;10
r;4808036;180632;134228;777;10
r;4808038;23594;134228;777;10
r;4904821;167217;134228;777;10
r;5150267;52340;134228;777;10
r;5250417;47262;134228;777;10
r;6736060;22457;134228;777;10
r;8899678;316591;134228;777;10
r;24247025;219522;134228;777;10
r;24247027;272782;134228;777;10
r;24954727;163218;134228;777;10
r;28568469;280233;134228;777;10
r;28568470;77701;134228;777;10
r;31740605;272546;134228;777;10
r;31740607;103469;134228;777;10
r;32038845;409424;134228;777;10
r;32038847;462114;134228;777;10
r;64897451;2502013;134228;777;10
r;103288628;4934124;134228;777;10
r;110079400;71872;134228;777;10
r;214555709;102360;134228;777;10
r;214555711;2168712;134228;777;10
r;214555713;2299028;134228;777;10
r;214555715;166287;134228;777;10
r;278772039;11010151;134228;777;10
r;278772041;2386074;134228;777;10
r;278780180;11010295;134228;777;10
r;279984485;2497410;134228;777;10
r;280545326;11069091;134228;777;10
r;280882377;2569290;134228;777;10
r;280882378;2549884;134228;777;10
r;280882379;2501832;134228;777;10
r;292907757;11400802;134228;777;10
r;352542190;9852;134228;777;10
r;359592235;14158110;134228;777;10
r;374537685;59431;134228;777;10
r;374537686;1782580;134228;777;10
r;394817388;26349;134228;777;10
r;394817389;15380192;134228;777;10
r;428422067;16311392;134228;777;10
r;433954436;5536212;134228;777;10
r;439239531;16714899;134228;777;10
r;439239533;16714900;134228;777;10
r;439239728;16714902;134228;777;10
r;439239730;16714903;134228;777;10
r;439240674;16714909;134228;777;10
r;439240676;16714910;134228;777;10
r;439240874;16714911;134228;777;10
r;439240876;16714912;134228;777;10
r;439240878;16714913;134228;777;10
r;439241183;16714916;134228;777;10
r;439241185;16714917;134228;777;10
r;439241187;16714918;134228;777;10
r;439241728;318773;134228;777;10
r;439241730;16385298;134228;777;10
r;439242373;16714930;134228;777;10
r;439242375;16714931;134228;777;10
r;441192097;544;134228;777;10
r;441192098;69036;134228;777;10
r;441192099;16774520;134228;777;10
r;441192100;16774521;134228;777;10
r;441192101;287283;134228;777;10
r;441192102;62634;134228;777;10
r;441192103;1880;134228;777;10
r;476614435;130803;134228;777;10
r;476614437;566816;134228;777;10
r;476614439;349716;134228;777;10
r;476614441;14935968;134228;777;10
r;480188562;6012397;134228;777;10
r;490980242;7305920;134228;777;10
r;492376249;55580;134228;777;10
r;492376251;8733427;134228;777;10
r;496094056;16821582;134228;777;10
r;419134332;224092;134228;0;9
r;3400533;64181;134228;777;9
r;282685818;11128855;134228;0;8
r;307805732;9012227;134228;0;7
r;307812431;307062;134228;0;7
r;307812542;304136;134228;0;7
r;307812902;293849;134228;0;7
r;419216743;15952163;134228;0;7
r;419873451;229798;134228;0;7
r;290338259;11325073;134228;0;6
r;290338403;11325072;134228;0;6
r;290338444;11325076;134228;0;6
r;328357102;12640522;134228;0;5
r;374068501;286395;134228;0;5
r;288624490;11248256;134228;0;4
r;308572112;1298659;134228;0;4
r;308577337;11937171;134228;0;4
r;423897262;241537;134228;0;4
r;435489767;1852369;134228;0;4
r;435490007;1851647;134228;0;4
r;288644794;11225863;134228;0;3
r;311068635;11975914;134228;0;3
r;311068837;11975915;134228;0;3
r;311068865;9253317;134228;0;3
r;395509955;5904784;134228;0;3
r;427760038;102500;134228;0;3
r;427763140;93508;134228;0;3
r;427778556;87017;134228;0;3
r;427780748;83451;134228;0;3
r;427782388;79388;134228;0;3
r;427791563;65778;134228;0;3
r;427791896;65243;134228;0;3
r;427792240;64310;134228;0;3
r;435490407;1851015;134228;0;3
r;435490508;1850504;134228;0;3
r;435490973;1849682;134228;0;3
r;439459770;2501832;134228;0;3
r;346493653;13635873;134228;0;2
r;374123383;14631684;134228;0;2
r;420482794;192;134228;0;2
r;428608882;122874;134228;0;2
r;428609010;121560;134228;0;2
r;428613287;111695;134228;0;2
r;434654199;2998;134228;0;2
r;437952898;103109;134228;0;2
r;438694997;81188;134228;0;2
r;313387787;3344239;134228;0;1
r;328936181;5189;134228;0;1
r;332141815;4894272;134228;0;1
r;346512468;13628415;134228;0;1
r;346514718;11063517;134228;0;1
r;351433234;125420;134228;0;1
r;359300214;594081;134228;0;1
r;376123870;310883;134228;0;1
r;376130445;14757563;134228;0;1
r;376133492;1890194;134228;0;1
r;389717218;290692;134228;0;1
r;390020210;14915395;134228;0;1
r;423125096;3624;134228;0;1
r;423261492;5002;134228;0;1
r;423296438;5516;134228;0;1
r;423340233;6745;134228;0;1
r;423590496;13625;134228;0;1
r;423617033;15324;134228;0;1
r;423688282;19363;134228;0;1
r;423797619;23594;134228;0;1
r;423808085;24740;134228;0;1
r;423853270;28524;134228;0;1
r;423871535;30912;134228;0;1
r;423880675;31876;134228;0;1
r;423886872;32393;134228;0;1
r;423887036;32553;134228;0;1
r;423890081;32622;134228;0;1
r;423925404;36484;134228;0;1
r;425120954;48089;134228;0;1
r;425802072;54076;134228;0;1
r;426838970;69244;134228;0;1
r;426982523;73509;134228;0;1
r;427743181;102057;134228;0;1
r;427908252;43127;134228;0;1
r;427910105;38693;134228;0;1
r;427910871;38292;134228;0;1
r;427914501;35422;134228;0;1
r;427915184;34589;134228;0;1
r;427917516;30623;134228;0;1
r;427924406;19943;134228;0;1
r;427925653;18471;134228;0;1
r;427926523;17605;134228;0;1
r;427926667;17400;134228;0;1
r;427927638;15762;134228;0;1
r;427929643;13623;134228;0;1
r;427929662;13479;134228;0;1
r;427933051;10081;134228;0;1
r;427933555;9387;134228;0;1
r;427934662;8134;134228;0;1
r;427934862;7783;134228;0;1
r;427935909;6575;134228;0;1
r;427936963;4645;134228;0;1
r;427940034;1830;134228;0;1
r;427940929;1313;134228;0;1
r;428807051;143817;134228;0;1
r;430303318;186012;134228;0;1
r;430303765;184797;134228;0;1
r;430304256;183153;134228;0;1
r;430304499;182264;134228;0;1
r;430315015;171575;134228;0;1
r;430321815;147618;134228;0;1
r;434807687;1703082;134228;0;1
r;435553473;2299452;134228;0;1
r;437823968;2414616;134228;0;1
r;439752962;107303;134228;0;1
r;440002594;123457;134228;0;1
r;440262494;165772;134228;0;1
r;514070201;30400880;134228;23;1
r;78553762;28453;134228;115;1
r;1794674;62830;134228;666;1
r;9071207;83855;134228;666;1
r;15511034;151684;134228;27;-23
r;264219250;10186161;134228;6;-25
r;278288910;11002513;134228;6;-25
r;279871932;3488715;134228;6;-25
r;279939334;3488714;134228;6;-25
r;281117325;11081799;134228;6;-25
r;281607899;11102383;134228;6;-25
r;282668061;11128855;134228;6;-25
r;287786308;11225863;134228;6;-25
r;288111552;11248256;134228;6;-25
r;293357070;11407659;134228;6;-25
r;293545029;11412145;134228;6;-25
r;293593534;5535411;134228;6;-25
r;293593991;5535740;134228;6;-25
r;293892166;5688290;134228;6;-25
r;294026636;5705531;134228;6;-25
r;295712609;11505666;134228;6;-25
r;296344741;5991172;134228;6;-25
r;296450038;5996890;134228;6;-25
r;307685885;293849;134228;6;-25
r;307728133;304136;134228;6;-25
r;307731394;307062;134228;6;-25
r;307804592;9012227;134228;6;-25
r;308146780;11937171;134228;6;-25
r;308458193;1298659;134228;6;-25
r;310702699;9253317;134228;6;-25
r;310709882;11975915;134228;6;-25
r;310719377;11975914;134228;6;-25
r;312953634;3344239;134228;6;-25
r;316453995;12203857;134228;6;-25
r;316471264;12203861;134228;6;-25
r;316515714;12203859;134228;6;-25
r;316516052;12203860;134228;6;-25
r;319164807;5189;134228;6;-25
r;323915521;12640522;134228;6;-25
r;332106349;4894272;134228;6;-25
r;345359165;11063517;134228;6;-25
r;345447982;13628415;134228;6;-25
r;348916464;125420;134228;6;-25
r;359059724;594081;134228;6;-25
r;363822925;14271074;134228;6;-25
r;368027226;14482886;134228;6;-25
r;371679493;14631684;134228;6;-25
r;373842791;286395;134228;6;-25
r;374956685;1890194;134228;6;-25
r;375147265;14757563;134228;6;-25
r;375311348;310883;134228;6;-25
r;381900943;14780208;134228;6;-25
r;384912458;2601475;134228;6;-25
r;388288764;14891898;134228;6;-25
r;389681823;290692;134228;6;-25
r;389952924;14915395;134228;6;-25
r;391817586;3770019;134228;6;-25
r;392096559;15013463;134228;6;-25
r;392306225;15018400;134228;6;-25
r;395482400;5904784;134228;6;-25
r;409940511;10440086;134228;6;-25
r;416647052;15952163;134228;6;-25
r;419132708;224092;134228;6;-25
r;419853366;229798;134228;6;-25
r;420423108;192;134228;6;-25
r;421193258;1313;134228;6;-25
r;422865358;1830;134228;6;-25
r;423226896;4645;134228;6;-25
r;423332342;6575;134228;6;-25
r;423419454;7783;134228;6;-25
r;423425773;8134;134228;6;-25
r;423455621;9387;134228;6;-25
r;423469961;10081;134228;6;-25
r;423589826;13479;134228;6;-25
r;423590304;13623;134228;6;-25
r;423631080;15762;134228;6;-25
r;423651400;17400;134228;6;-25
r;423656465;17605;134228;6;-25
r;423671865;18471;134228;6;-25
r;423694476;19943;134228;6;-25
r;423868145;30623;134228;6;-25
r;423905469;34589;134228;6;-25
r;423912756;35422;134228;6;-25
r;424108466;38292;134228;6;-25
r;424806506;38693;134228;6;-25
r;424890051;43127;134228;6;-25
r;426723338;64310;134228;6;-25
r;426743179;65243;134228;6;-25
r;426747164;65778;134228;6;-25
r;427177663;79388;134228;6;-25
r;427291937;83451;134228;6;-25
r;427431996;87017;134228;6;-25
r;427614082;93508;134228;6;-25
r;427743755;102500;134228;6;-25
r;428286144;111695;134228;6;-25
r;428494289;121560;134228;6;-25
r;428496985;122874;134228;6;-25
r;428823411;147618;134228;6;-25
r;428905349;171575;134228;6;-25
r;429224037;182264;134228;6;-25
r;429226523;183153;134228;6;-25
r;429626856;184797;134228;6;-25
r;429661936;186012;134228;6;-25
r;431677440;212714;134228;6;-25
r;434234032;16509729;134228;6;-25
r;435069170;1829656;134228;6;-25
r;435070084;1830504;134228;6;-25
r;435072611;1831822;134228;6;-25
r;435074947;1833011;134228;6;-25
r;435076715;1833485;134228;6;-25
r;435110733;1836173;134228;6;-25
r;435115368;1836964;134228;6;-25
r;435116014;1837384;134228;6;-25
r;435128292;1838262;134228;6;-25
r;435133289;1838357;134228;6;-25
r;435159650;1839863;134228;6;-25
r;435201805;1842287;134228;6;-25
r;435207140;1843249;134228;6;-25
r;435209965;1843496;134228;6;-25
r;435320739;1848034;134228;6;-25
r;435323927;1848452;134228;6;-25
r;435372922;1849227;134228;6;-25
r;290036982;11325076;134228;6;-26
r;290037469;11325072;134228;6;-26
r;290039605;11325073;134228;6;-26
r;292549913;5070734;134228;6;-26
r;345915511;13635873;134228;6;-27
r;198481733;1796178;134228;6;-32
r;352335272;13989527;134228;6;-36
r;1939570;103109;134228;22;-100
